Source Column Name,SmarterD Field Name,Exclude,Unique,Field Type,Value Type,Rule,Notes
Manufacturer,OEM Vendor,N,N,Extension,Text,,
Software Name,asset_name,N,Y,Core,Text,,
BCT Owner,Manager,N,N,Extension,Text,,
Maurices Owner,owner,N,N,Core,Text,,
Support Proivder,Product Support Provider,N,N,Extension,Text,,
Application Type,Type,N,N,Extension,Text,,
Application Deployment Model,Application Deployment Model,N,N,Extension,Text,,
SLA Level,SLA Level,N,N,Extension,Text,,