Plugin ID,CVE,CVSS v2.0 Base Score,Risk,Host,Protocol,Port,Name,Synopsis,Description,Solution,See Also,Plugin Output,STIG Severity,CVSS v3.0 Base Score,CVSS v2.0 Temporal Score,CVSS v3.0 Temporal Score,Risk Factor,BID,XREF,MSKB,Plugin Publication Date,Plugin Modification Date,Metasploit,Core Impact,CANVAS,Period
163076,CVE-2022-1729,6.3,Medium,hqtltrmmgrv01,tcp,0,RHEL 8 : kernel (RHSA-2022:5564),The remote Red Hat host is missing a security update.,"The remote Redhat Enterprise Linux 8 host has packages installed that are affected by a vulnerability as referenced in
the RHSA-2022:5564 advisory.

  - kernel: race condition in perf_event_open leads to privilege escalation (CVE-2022-1729)

Note that Nessus has not tested for this issue but has instead relied only on the application's self-reported version
number.",Update the affected packages.,"https://access.redhat.com/security/cve/CVE-2022-1729
https://access.redhat.com/errata/RHSA-2022:5564
https://bugzilla.redhat.com/2086753","
Remote package installed : bpftool-4.18.0-372.13.1.el8_6
Should be                : bpftool-4.18.0-372.16.1.el8_6

Remote package installed : kernel-4.18.0-372.13.1.el8_6
Should be                : kernel-4.18.0-372.16.1.el8_6

Remote package installed : kernel-core-4.18.0-372.13.1.el8_6
Should be                : kernel-core-4.18.0-372.16.1.el8_6

Remote package installed : kernel-modules-4.18.0-372.13.1.el8_6
Should be                : kernel-modules-4.18.0-372.16.1.el8_6

Remote package installed : kernel-tools-4.18.0-372.13.1.el8_6
Should be                : kernel-tools-4.18.0-372.16.1.el8_6

Remote package installed : kernel-tools-libs-4.18.0-372.13.1.el8_6
Should be                : kernel-tools-libs-4.18.0-372.16.1.el8_6

Remote package installed : python3-perf-4.18.0-372.13.1.el8_6
Should be                : python3-perf-4.18.0-372.16.1.el8_6

NOTE: The vulnerability information above was derived by checking the
package versions of the affected packages from this advisory. This
scan is unable to rely on Red Hat's own security checks, which
consider channels and products in their vulnerability determinations.",,7.4,4.7,6.4,Medium,,RHSA:2022:5564;CWE:366,,7/13/22,7/13/22,,,,22-Jul
162395,CVE-2022-29149,4.6,Medium,hqpnabucrv01,tcp,0,Microsoft Open Management Infrastructure (OMI) package < 1.6.9-1 Privilege Escalation Vulnerability,A package installed on the remote host is affected by multiple vulnerabilities.,"The version of Microsoft Open Management Infrastructure (OMI) package installed on the remote host is prior to
1.6.9-1. It is, therefore, affected by a privilege escalation vulnerability. An unauthenticated, remote attacker can
exploit this, to gain privileged access to the system.

Note that Nessus has not tested for these issues but has instead relied only on the application's self-reported version
number.",Update to version 1.6.9-1 or later.,"https://msrc.microsoft.com/update-guide/vulnerability/CVE-2022-29149
https://github.com/microsoft/omi/releases","
Remote package installed : omi-1.6.8-1
Should be                : omi-1.6.9-1

",I,7.8,3.4,6.8,Medium,,IAVA:2022-A-0248,,6/17/22,6/27/22,,,,22-Jul
162630,CVE-2022-25313,5,Medium,hqpnabucrv01,tcp,0,RHEL 8 : expat (RHSA-2022:5314),The remote Red Hat host is missing one or more security updates.,"The remote Redhat Enterprise Linux 8 host has packages installed that are affected by multiple vulnerabilities as
referenced in the RHSA-2022:5314 advisory.

  - expat: stack exhaustion in doctype parsing (CVE-2022-25313)

  - expat: integer overflow in copyString() (CVE-2022-25314)

Note that Nessus has not tested for these issues but has instead relied only on the application's self-reported version
number.",Update the affected expat and / or expat-devel packages.,"https://access.redhat.com/security/cve/CVE-2022-25313
https://access.redhat.com/security/cve/CVE-2022-25314
https://access.redhat.com/errata/RHSA-2022:5314
https://bugzilla.redhat.com/2056350
https://bugzilla.redhat.com/2056354","
Remote package installed : expat-2.2.5-8.el8
Should be                : expat-2.2.5-8.el8_6.2

NOTE: The vulnerability information above was derived by checking the
package versions of the affected packages from this advisory. This
scan is unable to rely on Red Hat's own security checks, which
consider channels and products in their vulnerability determinations.",,7.5,3.7,6.5,Medium,,RHSA:2022:5314;CWE:190;CWE:400,,6/30/22,6/30/22,,,,22-Jul
162630,CVE-2022-25314,5,Medium,hqpnabucrv01,tcp,0,RHEL 8 : expat (RHSA-2022:5314),The remote Red Hat host is missing one or more security updates.,"The remote Redhat Enterprise Linux 8 host has packages installed that are affected by multiple vulnerabilities as
referenced in the RHSA-2022:5314 advisory.

  - expat: stack exhaustion in doctype parsing (CVE-2022-25313)

  - expat: integer overflow in copyString() (CVE-2022-25314)

Note that Nessus has not tested for these issues but has instead relied only on the application's self-reported version
number.",Update the affected expat and / or expat-devel packages.,"https://access.redhat.com/security/cve/CVE-2022-25313
https://access.redhat.com/security/cve/CVE-2022-25314
https://access.redhat.com/errata/RHSA-2022:5314
https://bugzilla.redhat.com/2056350
https://bugzilla.redhat.com/2056354","
Remote package installed : expat-2.2.5-8.el8
Should be                : expat-2.2.5-8.el8_6.2

NOTE: The vulnerability information above was derived by checking the
package versions of the affected packages from this advisory. This
scan is unable to rely on Red Hat's own security checks, which
consider channels and products in their vulnerability determinations.",,7.5,3.7,6.5,Medium,,RHSA:2022:5314;CWE:190;CWE:400,,6/30/22,6/30/22,,,,22-Jul
162632,CVE-2021-40528,2.6,Low,hqpnabucrv01,tcp,0,RHEL 8 : libgcrypt (RHSA-2022:5311),The remote Red Hat host is missing a security update.,"The remote Redhat Enterprise Linux 8 host has packages installed that are affected by a vulnerability as referenced in
the RHSA-2022:5311 advisory.

  - libgcrypt: ElGamal implementation allows plaintext recovery (CVE-2021-40528)

Note that Nessus has not tested for this issue but has instead relied only on the application's self-reported version
number.",Update the affected libgcrypt and / or libgcrypt-devel packages.,"https://access.redhat.com/security/cve/CVE-2021-40528
https://access.redhat.com/errata/RHSA-2022:5311
https://bugzilla.redhat.com/2002816","
Remote package installed : libgcrypt-1.8.5-6.el8
Should be                : libgcrypt-1.8.5-7.el8_6

NOTE: The vulnerability information above was derived by checking the
package versions of the affected packages from this advisory. This
scan is unable to rely on Red Hat's own security checks, which
consider channels and products in their vulnerability determinations.",,5.9,1.9,5.2,Low,,RHSA:2022:5311,,7/1/22,7/1/22,,,,22-Jul
162633,CVE-2022-22576,5.5,Medium,hqpnabucrv01,tcp,0,RHEL 8 : curl (RHSA-2022:5313),The remote Red Hat host is missing one or more security updates.,"The remote Redhat Enterprise Linux 8 host has packages installed that are affected by multiple vulnerabilities as
referenced in the RHSA-2022:5313 advisory.

  - curl: OAUTH2 bearer bypass in connection re-use (CVE-2022-22576)

  - curl: credential leak on redirect (CVE-2022-27774)

  - curl: auth/cookie leak on redirect (CVE-2022-27776)

  - curl: TLS and SSH connection too eager reuse (CVE-2022-27782)

Note that Nessus has not tested for these issues but has instead relied only on the application's self-reported version
number.",Update the affected packages.,"https://access.redhat.com/security/cve/CVE-2022-22576
https://access.redhat.com/security/cve/CVE-2022-27774
https://access.redhat.com/security/cve/CVE-2022-27776
https://access.redhat.com/security/cve/CVE-2022-27782
https://access.redhat.com/errata/RHSA-2022:5313
https://bugzilla.redhat.com/2077541
https://bugzilla.redhat.com/2077547
https://bugzilla.redhat.com/2078408
https://bugzilla.redhat.com/2082215","
Remote package installed : curl-7.61.1-22.el8
Should be                : curl-7.61.1-22.el8_6.3

Remote package installed : libcurl-7.61.1-22.el8
Should be                : libcurl-7.61.1-22.el8_6.3

NOTE: The vulnerability information above was derived by checking the
package versions of the affected packages from this advisory. This
scan is unable to rely on Red Hat's own security checks, which
consider channels and products in their vulnerability determinations.",II,8.1,4.1,7.1,Medium,,RHSA:2022:5313;IAVA:2022-A-0224-S;CWE:287;CWE:522,,7/1/22,7/4/22,,,,22-Jul
162633,CVE-2022-27774,5.5,Medium,hqpnabucrv01,tcp,0,RHEL 8 : curl (RHSA-2022:5313),The remote Red Hat host is missing one or more security updates.,"The remote Redhat Enterprise Linux 8 host has packages installed that are affected by multiple vulnerabilities as
referenced in the RHSA-2022:5313 advisory.

  - curl: OAUTH2 bearer bypass in connection re-use (CVE-2022-22576)

  - curl: credential leak on redirect (CVE-2022-27774)

  - curl: auth/cookie leak on redirect (CVE-2022-27776)

  - curl: TLS and SSH connection too eager reuse (CVE-2022-27782)

Note that Nessus has not tested for these issues but has instead relied only on the application's self-reported version
number.",Update the affected packages.,"https://access.redhat.com/security/cve/CVE-2022-22576
https://access.redhat.com/security/cve/CVE-2022-27774
https://access.redhat.com/security/cve/CVE-2022-27776
https://access.redhat.com/security/cve/CVE-2022-27782
https://access.redhat.com/errata/RHSA-2022:5313
https://bugzilla.redhat.com/2077541
https://bugzilla.redhat.com/2077547
https://bugzilla.redhat.com/2078408
https://bugzilla.redhat.com/2082215","
Remote package installed : curl-7.61.1-22.el8
Should be                : curl-7.61.1-22.el8_6.3

Remote package installed : libcurl-7.61.1-22.el8
Should be                : libcurl-7.61.1-22.el8_6.3

NOTE: The vulnerability information above was derived by checking the
package versions of the affected packages from this advisory. This
scan is unable to rely on Red Hat's own security checks, which
consider channels and products in their vulnerability determinations.",II,8.1,4.1,7.1,Medium,,RHSA:2022:5313;IAVA:2022-A-0224-S;CWE:287;CWE:522,,7/1/22,7/4/22,,,,22-Jul
162633,CVE-2022-27776,5.5,Medium,hqpnabucrv01,tcp,0,RHEL 8 : curl (RHSA-2022:5313),The remote Red Hat host is missing one or more security updates.,"The remote Redhat Enterprise Linux 8 host has packages installed that are affected by multiple vulnerabilities as
referenced in the RHSA-2022:5313 advisory.

  - curl: OAUTH2 bearer bypass in connection re-use (CVE-2022-22576)

  - curl: credential leak on redirect (CVE-2022-27774)

  - curl: auth/cookie leak on redirect (CVE-2022-27776)

  - curl: TLS and SSH connection too eager reuse (CVE-2022-27782)

Note that Nessus has not tested for these issues but has instead relied only on the application's self-reported version
number.",Update the affected packages.,"https://access.redhat.com/security/cve/CVE-2022-22576
https://access.redhat.com/security/cve/CVE-2022-27774
https://access.redhat.com/security/cve/CVE-2022-27776
https://access.redhat.com/security/cve/CVE-2022-27782
https://access.redhat.com/errata/RHSA-2022:5313
https://bugzilla.redhat.com/2077541
https://bugzilla.redhat.com/2077547
https://bugzilla.redhat.com/2078408
https://bugzilla.redhat.com/2082215","
Remote package installed : curl-7.61.1-22.el8
Should be                : curl-7.61.1-22.el8_6.3

Remote package installed : libcurl-7.61.1-22.el8
Should be                : libcurl-7.61.1-22.el8_6.3

NOTE: The vulnerability information above was derived by checking the
package versions of the affected packages from this advisory. This
scan is unable to rely on Red Hat's own security checks, which
consider channels and products in their vulnerability determinations.",II,8.1,4.1,7.1,Medium,,RHSA:2022:5313;IAVA:2022-A-0224-S;CWE:287;CWE:522,,7/1/22,7/4/22,,,,22-Jul
162633,CVE-2022-27782,5.5,Medium,hqpnabucrv01,tcp,0,RHEL 8 : curl (RHSA-2022:5313),The remote Red Hat host is missing one or more security updates.,"The remote Redhat Enterprise Linux 8 host has packages installed that are affected by multiple vulnerabilities as
referenced in the RHSA-2022:5313 advisory.

  - curl: OAUTH2 bearer bypass in connection re-use (CVE-2022-22576)

  - curl: credential leak on redirect (CVE-2022-27774)

  - curl: auth/cookie leak on redirect (CVE-2022-27776)

  - curl: TLS and SSH connection too eager reuse (CVE-2022-27782)

Note that Nessus has not tested for these issues but has instead relied only on the application's self-reported version
number.",Update the affected packages.,"https://access.redhat.com/security/cve/CVE-2022-22576
https://access.redhat.com/security/cve/CVE-2022-27774
https://access.redhat.com/security/cve/CVE-2022-27776
https://access.redhat.com/security/cve/CVE-2022-27782
https://access.redhat.com/errata/RHSA-2022:5313
https://bugzilla.redhat.com/2077541
https://bugzilla.redhat.com/2077547
https://bugzilla.redhat.com/2078408
https://bugzilla.redhat.com/2082215","
Remote package installed : curl-7.61.1-22.el8
Should be                : curl-7.61.1-22.el8_6.3

Remote package installed : libcurl-7.61.1-22.el8
Should be                : libcurl-7.61.1-22.el8_6.3

NOTE: The vulnerability information above was derived by checking the
package versions of the affected packages from this advisory. This
scan is unable to rely on Red Hat's own security checks, which
consider channels and products in their vulnerability determinations.",II,8.1,4.1,7.1,Medium,,RHSA:2022:5313;IAVA:2022-A-0224-S;CWE:287;CWE:522,,7/1/22,7/4/22,,,,22-Jul
162643,CVE-2022-1621,6.8,Medium,hqpnabucrv01,tcp,0,RHEL 8 : vim (RHSA-2022:5319),The remote Red Hat host is missing one or more security updates.,"The remote Redhat Enterprise Linux 8 host has packages installed that are affected by multiple vulnerabilities as
referenced in the RHSA-2022:5319 advisory.

  - vim: heap buffer overflow (CVE-2022-1621)

  - vim: buffer over-read (CVE-2022-1629)

Note that Nessus has not tested for these issues but has instead relied only on the application's self-reported version
number.",Update the affected packages.,"https://access.redhat.com/security/cve/CVE-2022-1621
https://access.redhat.com/security/cve/CVE-2022-1629
https://access.redhat.com/errata/RHSA-2022:5319
https://bugzilla.redhat.com/2083924
https://bugzilla.redhat.com/2083931","
Remote package installed : vim-minimal-8.0.1763-16.el8_5.13
Should be                : vim-minimal-8.0.1763-19.el8_6.2

NOTE: The vulnerability information above was derived by checking the
package versions of the affected packages from this advisory. This
scan is unable to rely on Red Hat's own security checks, which
consider channels and products in their vulnerability determinations.",,7.8,5,6.8,Medium,,RHSA:2022:5319,,7/1/22,7/1/22,,,,22-Jul
162643,CVE-2022-1629,6.8,Medium,hqpnabucrv01,tcp,0,RHEL 8 : vim (RHSA-2022:5319),The remote Red Hat host is missing one or more security updates.,"The remote Redhat Enterprise Linux 8 host has packages installed that are affected by multiple vulnerabilities as
referenced in the RHSA-2022:5319 advisory.

  - vim: heap buffer overflow (CVE-2022-1621)

  - vim: buffer over-read (CVE-2022-1629)

Note that Nessus has not tested for these issues but has instead relied only on the application's self-reported version
number.",Update the affected packages.,"https://access.redhat.com/security/cve/CVE-2022-1621
https://access.redhat.com/security/cve/CVE-2022-1629
https://access.redhat.com/errata/RHSA-2022:5319
https://bugzilla.redhat.com/2083924
https://bugzilla.redhat.com/2083931","
Remote package installed : vim-minimal-8.0.1763-16.el8_5.13
Should be                : vim-minimal-8.0.1763-19.el8_6.2

NOTE: The vulnerability information above was derived by checking the
package versions of the affected packages from this advisory. This
scan is unable to rely on Red Hat's own security checks, which
consider channels and products in their vulnerability determinations.",,7.8,5,6.8,Medium,,RHSA:2022:5319,,7/1/22,7/1/22,,,,22-Jul
162644,CVE-2022-29824,4.3,Medium,hqpnabucrv01,tcp,0,RHEL 8 : libxml2 (RHSA-2022:5317),The remote Red Hat host is missing a security update.,"The remote Redhat Enterprise Linux 8 host has packages installed that are affected by a vulnerability as referenced in
the RHSA-2022:5317 advisory.

  - libxml2: integer overflows in xmlBuf and xmlBuffer lead to out-of-bounds write (CVE-2022-29824)

Note that Nessus has not tested for this issue but has instead relied only on the application's self-reported version
number.","Update the affected libxml2, libxml2-devel and / or python3-libxml2 packages.","https://access.redhat.com/security/cve/CVE-2022-29824
https://access.redhat.com/errata/RHSA-2022:5317
https://bugzilla.redhat.com/2082158","
Remote package installed : libxml2-2.9.7-13.el8
Should be                : libxml2-2.9.7-13.el8_6.1

Remote package installed : python3-libxml2-2.9.7-13.el8
Should be                : python3-libxml2-2.9.7-13.el8_6.1

NOTE: The vulnerability information above was derived by checking the
package versions of the affected packages from this advisory. This
scan is unable to rely on Red Hat's own security checks, which
consider channels and products in their vulnerability determinations.",,6.5,3.4,5.9,Medium,,RHSA:2022:5317;CWE:190;CWE:787,,7/1/22,7/1/22,,,,22-Jul
163076,CVE-2022-1729,6.3,Medium,hqpnabucrv01,tcp,0,RHEL 8 : kernel (RHSA-2022:5564),The remote Red Hat host is missing a security update.,"The remote Redhat Enterprise Linux 8 host has packages installed that are affected by a vulnerability as referenced in
the RHSA-2022:5564 advisory.

  - kernel: race condition in perf_event_open leads to privilege escalation (CVE-2022-1729)

Note that Nessus has not tested for this issue but has instead relied only on the application's self-reported version
number.",Update the affected packages.,"https://access.redhat.com/security/cve/CVE-2022-1729
https://access.redhat.com/errata/RHSA-2022:5564
https://bugzilla.redhat.com/2086753","
Remote package installed : kernel-4.18.0-372.9.1.el8
Should be                : kernel-4.18.0-372.16.1.el8_6

Remote package installed : kernel-core-4.18.0-372.9.1.el8
Should be                : kernel-core-4.18.0-372.16.1.el8_6

Remote package installed : kernel-modules-4.18.0-372.9.1.el8
Should be                : kernel-modules-4.18.0-372.16.1.el8_6

Remote package installed : kernel-tools-4.18.0-372.9.1.el8
Should be                : kernel-tools-4.18.0-372.16.1.el8_6

Remote package installed : kernel-tools-libs-4.18.0-372.9.1.el8
Should be                : kernel-tools-libs-4.18.0-372.16.1.el8_6

Remote package installed : python3-perf-4.18.0-372.9.1.el8
Should be                : python3-perf-4.18.0-372.16.1.el8_6

NOTE: The vulnerability information above was derived by checking the
package versions of the affected packages from this advisory. This
scan is unable to rely on Red Hat's own security checks, which
consider channels and products in their vulnerability determinations.",,7.4,4.7,6.4,Medium,,RHSA:2022:5564;CWE:366,,7/13/22,7/13/22,,,,22-Jul
162395,CVE-2022-29149,4.6,Medium,hqsnabucragv01,tcp,0,Microsoft Open Management Infrastructure (OMI) package < 1.6.9-1 Privilege Escalation Vulnerability,A package installed on the remote host is affected by multiple vulnerabilities.,"The version of Microsoft Open Management Infrastructure (OMI) package installed on the remote host is prior to
1.6.9-1. It is, therefore, affected by a privilege escalation vulnerability. An unauthenticated, remote attacker can
exploit this, to gain privileged access to the system.

Note that Nessus has not tested for these issues but has instead relied only on the application's self-reported version
number.",Update to version 1.6.9-1 or later.,"https://msrc.microsoft.com/update-guide/vulnerability/CVE-2022-29149
https://github.com/microsoft/omi/releases","
Remote package installed : omi-1.6.8-1
Should be                : omi-1.6.9-1

",I,7.8,3.4,6.8,Medium,,IAVA:2022-A-0248,,6/17/22,6/27/22,,,,22-Jul
162630,CVE-2022-25313,5,Medium,hqsnabucragv01,tcp,0,RHEL 8 : expat (RHSA-2022:5314),The remote Red Hat host is missing one or more security updates.,"The remote Redhat Enterprise Linux 8 host has packages installed that are affected by multiple vulnerabilities as
referenced in the RHSA-2022:5314 advisory.

  - expat: stack exhaustion in doctype parsing (CVE-2022-25313)

  - expat: integer overflow in copyString() (CVE-2022-25314)

Note that Nessus has not tested for these issues but has instead relied only on the application's self-reported version
number.",Update the affected expat and / or expat-devel packages.,"https://access.redhat.com/security/cve/CVE-2022-25313
https://access.redhat.com/security/cve/CVE-2022-25314
https://access.redhat.com/errata/RHSA-2022:5314
https://bugzilla.redhat.com/2056350
https://bugzilla.redhat.com/2056354","
Remote package installed : expat-2.2.5-8.el8
Should be                : expat-2.2.5-8.el8_6.2

NOTE: The vulnerability information above was derived by checking the
package versions of the affected packages from this advisory. This
scan is unable to rely on Red Hat's own security checks, which
consider channels and products in their vulnerability determinations.",,7.5,3.7,6.5,Medium,,RHSA:2022:5314;CWE:190;CWE:400,,6/30/22,6/30/22,,,,22-Jul
162630,CVE-2022-25314,5,Medium,hqsnabucragv01,tcp,0,RHEL 8 : expat (RHSA-2022:5314),The remote Red Hat host is missing one or more security updates.,"The remote Redhat Enterprise Linux 8 host has packages installed that are affected by multiple vulnerabilities as
referenced in the RHSA-2022:5314 advisory.

  - expat: stack exhaustion in doctype parsing (CVE-2022-25313)

  - expat: integer overflow in copyString() (CVE-2022-25314)

Note that Nessus has not tested for these issues but has instead relied only on the application's self-reported version
number.",Update the affected expat and / or expat-devel packages.,"https://access.redhat.com/security/cve/CVE-2022-25313
https://access.redhat.com/security/cve/CVE-2022-25314
https://access.redhat.com/errata/RHSA-2022:5314
https://bugzilla.redhat.com/2056350
https://bugzilla.redhat.com/2056354","
Remote package installed : expat-2.2.5-8.el8
Should be                : expat-2.2.5-8.el8_6.2

NOTE: The vulnerability information above was derived by checking the
package versions of the affected packages from this advisory. This
scan is unable to rely on Red Hat's own security checks, which
consider channels and products in their vulnerability determinations.",,7.5,3.7,6.5,Medium,,RHSA:2022:5314;CWE:190;CWE:400,,6/30/22,6/30/22,,,,22-Jul
162632,CVE-2021-40528,2.6,Low,hqsnabucragv01,tcp,0,RHEL 8 : libgcrypt (RHSA-2022:5311),The remote Red Hat host is missing a security update.,"The remote Redhat Enterprise Linux 8 host has packages installed that are affected by a vulnerability as referenced in
the RHSA-2022:5311 advisory.

  - libgcrypt: ElGamal implementation allows plaintext recovery (CVE-2021-40528)

Note that Nessus has not tested for this issue but has instead relied only on the application's self-reported version
number.",Update the affected libgcrypt and / or libgcrypt-devel packages.,"https://access.redhat.com/security/cve/CVE-2021-40528
https://access.redhat.com/errata/RHSA-2022:5311
https://bugzilla.redhat.com/2002816","
Remote package installed : libgcrypt-1.8.5-6.el8
Should be                : libgcrypt-1.8.5-7.el8_6

NOTE: The vulnerability information above was derived by checking the
package versions of the affected packages from this advisory. This
scan is unable to rely on Red Hat's own security checks, which
consider channels and products in their vulnerability determinations.",,5.9,1.9,5.2,Low,,RHSA:2022:5311,,7/1/22,7/1/22,,,,22-Jul
162633,CVE-2022-22576,5.5,Medium,hqsnabucragv01,tcp,0,RHEL 8 : curl (RHSA-2022:5313),The remote Red Hat host is missing one or more security updates.,"The remote Redhat Enterprise Linux 8 host has packages installed that are affected by multiple vulnerabilities as
referenced in the RHSA-2022:5313 advisory.

  - curl: OAUTH2 bearer bypass in connection re-use (CVE-2022-22576)

  - curl: credential leak on redirect (CVE-2022-27774)

  - curl: auth/cookie leak on redirect (CVE-2022-27776)

  - curl: TLS and SSH connection too eager reuse (CVE-2022-27782)

Note that Nessus has not tested for these issues but has instead relied only on the application's self-reported version
number.",Update the affected packages.,"https://access.redhat.com/security/cve/CVE-2022-22576
https://access.redhat.com/security/cve/CVE-2022-27774
https://access.redhat.com/security/cve/CVE-2022-27776
https://access.redhat.com/security/cve/CVE-2022-27782
https://access.redhat.com/errata/RHSA-2022:5313
https://bugzilla.redhat.com/2077541
https://bugzilla.redhat.com/2077547
https://bugzilla.redhat.com/2078408
https://bugzilla.redhat.com/2082215","
Remote package installed : curl-7.61.1-22.el8
Should be                : curl-7.61.1-22.el8_6.3

Remote package installed : libcurl-7.61.1-22.el8
Should be                : libcurl-7.61.1-22.el8_6.3

NOTE: The vulnerability information above was derived by checking the
package versions of the affected packages from this advisory. This
scan is unable to rely on Red Hat's own security checks, which
consider channels and products in their vulnerability determinations.",II,8.1,4.1,7.1,Medium,,RHSA:2022:5313;IAVA:2022-A-0224-S;CWE:287;CWE:522,,7/1/22,7/4/22,,,,22-Jul
162633,CVE-2022-27774,5.5,Medium,hqsnabucragv01,tcp,0,RHEL 8 : curl (RHSA-2022:5313),The remote Red Hat host is missing one or more security updates.,"The remote Redhat Enterprise Linux 8 host has packages installed that are affected by multiple vulnerabilities as
referenced in the RHSA-2022:5313 advisory.

  - curl: OAUTH2 bearer bypass in connection re-use (CVE-2022-22576)

  - curl: credential leak on redirect (CVE-2022-27774)

  - curl: auth/cookie leak on redirect (CVE-2022-27776)

  - curl: TLS and SSH connection too eager reuse (CVE-2022-27782)

Note that Nessus has not tested for these issues but has instead relied only on the application's self-reported version
number.",Update the affected packages.,"https://access.redhat.com/security/cve/CVE-2022-22576
https://access.redhat.com/security/cve/CVE-2022-27774
https://access.redhat.com/security/cve/CVE-2022-27776
https://access.redhat.com/security/cve/CVE-2022-27782
https://access.redhat.com/errata/RHSA-2022:5313
https://bugzilla.redhat.com/2077541
https://bugzilla.redhat.com/2077547
https://bugzilla.redhat.com/2078408
https://bugzilla.redhat.com/2082215","
Remote package installed : curl-7.61.1-22.el8
Should be                : curl-7.61.1-22.el8_6.3

Remote package installed : libcurl-7.61.1-22.el8
Should be                : libcurl-7.61.1-22.el8_6.3

NOTE: The vulnerability information above was derived by checking the
package versions of the affected packages from this advisory. This
scan is unable to rely on Red Hat's own security checks, which
consider channels and products in their vulnerability determinations.",II,8.1,4.1,7.1,Medium,,RHSA:2022:5313;IAVA:2022-A-0224-S;CWE:287;CWE:522,,7/1/22,7/4/22,,,,22-Jul
162633,CVE-2022-27776,5.5,Medium,hqsnabucragv01,tcp,0,RHEL 8 : curl (RHSA-2022:5313),The remote Red Hat host is missing one or more security updates.,"The remote Redhat Enterprise Linux 8 host has packages installed that are affected by multiple vulnerabilities as
referenced in the RHSA-2022:5313 advisory.

  - curl: OAUTH2 bearer bypass in connection re-use (CVE-2022-22576)

  - curl: credential leak on redirect (CVE-2022-27774)

  - curl: auth/cookie leak on redirect (CVE-2022-27776)

  - curl: TLS and SSH connection too eager reuse (CVE-2022-27782)

Note that Nessus has not tested for these issues but has instead relied only on the application's self-reported version
number.",Update the affected packages.,"https://access.redhat.com/security/cve/CVE-2022-22576
https://access.redhat.com/security/cve/CVE-2022-27774
https://access.redhat.com/security/cve/CVE-2022-27776
https://access.redhat.com/security/cve/CVE-2022-27782
https://access.redhat.com/errata/RHSA-2022:5313
https://bugzilla.redhat.com/2077541
https://bugzilla.redhat.com/2077547
https://bugzilla.redhat.com/2078408
https://bugzilla.redhat.com/2082215","
Remote package installed : curl-7.61.1-22.el8
Should be                : curl-7.61.1-22.el8_6.3

Remote package installed : libcurl-7.61.1-22.el8
Should be                : libcurl-7.61.1-22.el8_6.3

NOTE: The vulnerability information above was derived by checking the
package versions of the affected packages from this advisory. This
scan is unable to rely on Red Hat's own security checks, which
consider channels and products in their vulnerability determinations.",II,8.1,4.1,7.1,Medium,,RHSA:2022:5313;IAVA:2022-A-0224-S;CWE:287;CWE:522,,7/1/22,7/4/22,,,,22-Jul
162633,CVE-2022-27782,5.5,Medium,hqsnabucragv01,tcp,0,RHEL 8 : curl (RHSA-2022:5313),The remote Red Hat host is missing one or more security updates.,"The remote Redhat Enterprise Linux 8 host has packages installed that are affected by multiple vulnerabilities as
referenced in the RHSA-2022:5313 advisory.

  - curl: OAUTH2 bearer bypass in connection re-use (CVE-2022-22576)

  - curl: credential leak on redirect (CVE-2022-27774)

  - curl: auth/cookie leak on redirect (CVE-2022-27776)

  - curl: TLS and SSH connection too eager reuse (CVE-2022-27782)

Note that Nessus has not tested for these issues but has instead relied only on the application's self-reported version
number.",Update the affected packages.,"https://access.redhat.com/security/cve/CVE-2022-22576
https://access.redhat.com/security/cve/CVE-2022-27774
https://access.redhat.com/security/cve/CVE-2022-27776
https://access.redhat.com/security/cve/CVE-2022-27782
https://access.redhat.com/errata/RHSA-2022:5313
https://bugzilla.redhat.com/2077541
https://bugzilla.redhat.com/2077547
https://bugzilla.redhat.com/2078408
https://bugzilla.redhat.com/2082215","
Remote package installed : curl-7.61.1-22.el8
Should be                : curl-7.61.1-22.el8_6.3

Remote package installed : libcurl-7.61.1-22.el8
Should be                : libcurl-7.61.1-22.el8_6.3

NOTE: The vulnerability information above was derived by checking the
package versions of the affected packages from this advisory. This
scan is unable to rely on Red Hat's own security checks, which
consider channels and products in their vulnerability determinations.",II,8.1,4.1,7.1,Medium,,RHSA:2022:5313;IAVA:2022-A-0224-S;CWE:287;CWE:522,,7/1/22,7/4/22,,,,22-Jul
162643,CVE-2022-1621,6.8,Medium,hqsnabucragv01,tcp,0,RHEL 8 : vim (RHSA-2022:5319),The remote Red Hat host is missing one or more security updates.,"The remote Redhat Enterprise Linux 8 host has packages installed that are affected by multiple vulnerabilities as
referenced in the RHSA-2022:5319 advisory.

  - vim: heap buffer overflow (CVE-2022-1621)

  - vim: buffer over-read (CVE-2022-1629)

Note that Nessus has not tested for these issues but has instead relied only on the application's self-reported version
number.",Update the affected packages.,"https://access.redhat.com/security/cve/CVE-2022-1621
https://access.redhat.com/security/cve/CVE-2022-1629
https://access.redhat.com/errata/RHSA-2022:5319
https://bugzilla.redhat.com/2083924
https://bugzilla.redhat.com/2083931","
Remote package installed : vim-minimal-8.0.1763-16.el8_5.13
Should be                : vim-minimal-8.0.1763-19.el8_6.2

NOTE: The vulnerability information above was derived by checking the
package versions of the affected packages from this advisory. This
scan is unable to rely on Red Hat's own security checks, which
consider channels and products in their vulnerability determinations.",,7.8,5,6.8,Medium,,RHSA:2022:5319,,7/1/22,7/1/22,,,,22-Jul
162643,CVE-2022-1629,6.8,Medium,hqsnabucragv01,tcp,0,RHEL 8 : vim (RHSA-2022:5319),The remote Red Hat host is missing one or more security updates.,"The remote Redhat Enterprise Linux 8 host has packages installed that are affected by multiple vulnerabilities as
referenced in the RHSA-2022:5319 advisory.

  - vim: heap buffer overflow (CVE-2022-1621)

  - vim: buffer over-read (CVE-2022-1629)

Note that Nessus has not tested for these issues but has instead relied only on the application's self-reported version
number.",Update the affected packages.,"https://access.redhat.com/security/cve/CVE-2022-1621
https://access.redhat.com/security/cve/CVE-2022-1629
https://access.redhat.com/errata/RHSA-2022:5319
https://bugzilla.redhat.com/2083924
https://bugzilla.redhat.com/2083931","
Remote package installed : vim-minimal-8.0.1763-16.el8_5.13
Should be                : vim-minimal-8.0.1763-19.el8_6.2

NOTE: The vulnerability information above was derived by checking the
package versions of the affected packages from this advisory. This
scan is unable to rely on Red Hat's own security checks, which
consider channels and products in their vulnerability determinations.",,7.8,5,6.8,Medium,,RHSA:2022:5319,,7/1/22,7/1/22,,,,22-Jul
162644,CVE-2022-29824,4.3,Medium,hqsnabucragv01,tcp,0,RHEL 8 : libxml2 (RHSA-2022:5317),The remote Red Hat host is missing a security update.,"The remote Redhat Enterprise Linux 8 host has packages installed that are affected by a vulnerability as referenced in
the RHSA-2022:5317 advisory.

  - libxml2: integer overflows in xmlBuf and xmlBuffer lead to out-of-bounds write (CVE-2022-29824)

Note that Nessus has not tested for this issue but has instead relied only on the application's self-reported version
number.","Update the affected libxml2, libxml2-devel and / or python3-libxml2 packages.","https://access.redhat.com/security/cve/CVE-2022-29824
https://access.redhat.com/errata/RHSA-2022:5317
https://bugzilla.redhat.com/2082158","
Remote package installed : libxml2-2.9.7-13.el8
Should be                : libxml2-2.9.7-13.el8_6.1

Remote package installed : python3-libxml2-2.9.7-13.el8
Should be                : python3-libxml2-2.9.7-13.el8_6.1

NOTE: The vulnerability information above was derived by checking the
package versions of the affected packages from this advisory. This
scan is unable to rely on Red Hat's own security checks, which
consider channels and products in their vulnerability determinations.",,6.5,3.4,5.9,Medium,,RHSA:2022:5317;CWE:190;CWE:787,,7/1/22,7/1/22,,,,22-Jul
163076,CVE-2022-1729,6.3,Medium,hqsnabucragv01,tcp,0,RHEL 8 : kernel (RHSA-2022:5564),The remote Red Hat host is missing a security update.,"The remote Redhat Enterprise Linux 8 host has packages installed that are affected by a vulnerability as referenced in
the RHSA-2022:5564 advisory.

  - kernel: race condition in perf_event_open leads to privilege escalation (CVE-2022-1729)

Note that Nessus has not tested for this issue but has instead relied only on the application's self-reported version
number.",Update the affected packages.,"https://access.redhat.com/security/cve/CVE-2022-1729
https://access.redhat.com/errata/RHSA-2022:5564
https://bugzilla.redhat.com/2086753","
Remote package installed : kernel-4.18.0-372.9.1.el8
Should be                : kernel-4.18.0-372.16.1.el8_6

Remote package installed : kernel-core-4.18.0-372.9.1.el8
Should be                : kernel-core-4.18.0-372.16.1.el8_6

Remote package installed : kernel-modules-4.18.0-372.9.1.el8
Should be                : kernel-modules-4.18.0-372.16.1.el8_6

Remote package installed : kernel-tools-4.18.0-372.9.1.el8
Should be                : kernel-tools-4.18.0-372.16.1.el8_6

Remote package installed : kernel-tools-libs-4.18.0-372.9.1.el8
Should be                : kernel-tools-libs-4.18.0-372.16.1.el8_6

Remote package installed : python3-perf-4.18.0-372.9.1.el8
Should be                : python3-perf-4.18.0-372.16.1.el8_6

NOTE: The vulnerability information above was derived by checking the
package versions of the affected packages from this advisory. This
scan is unable to rely on Red Hat's own security checks, which
consider channels and products in their vulnerability determinations.",,7.4,4.7,6.4,Medium,,RHSA:2022:5564;CWE:366,,7/13/22,7/13/22,,,,22-Jul
162395,CVE-2022-29149,4.6,Medium,hqsnabucragv02,tcp,0,Microsoft Open Management Infrastructure (OMI) package < 1.6.9-1 Privilege Escalation Vulnerability,A package installed on the remote host is affected by multiple vulnerabilities.,"The version of Microsoft Open Management Infrastructure (OMI) package installed on the remote host is prior to
1.6.9-1. It is, therefore, affected by a privilege escalation vulnerability. An unauthenticated, remote attacker can
exploit this, to gain privileged access to the system.

Note that Nessus has not tested for these issues but has instead relied only on the application's self-reported version
number.",Update to version 1.6.9-1 or later.,"https://msrc.microsoft.com/update-guide/vulnerability/CVE-2022-29149
https://github.com/microsoft/omi/releases","
Remote package installed : omi-1.6.8-1
Should be                : omi-1.6.9-1

",I,7.8,3.4,6.8,Medium,,IAVA:2022-A-0248,,6/17/22,6/27/22,,,,22-Jul
162630,CVE-2022-25313,5,Medium,hqsnabucragv02,tcp,0,RHEL 8 : expat (RHSA-2022:5314),The remote Red Hat host is missing one or more security updates.,"The remote Redhat Enterprise Linux 8 host has packages installed that are affected by multiple vulnerabilities as
referenced in the RHSA-2022:5314 advisory.

  - expat: stack exhaustion in doctype parsing (CVE-2022-25313)

  - expat: integer overflow in copyString() (CVE-2022-25314)

Note that Nessus has not tested for these issues but has instead relied only on the application's self-reported version
number.",Update the affected expat and / or expat-devel packages.,"https://access.redhat.com/security/cve/CVE-2022-25313
https://access.redhat.com/security/cve/CVE-2022-25314
https://access.redhat.com/errata/RHSA-2022:5314
https://bugzilla.redhat.com/2056350
https://bugzilla.redhat.com/2056354","
Remote package installed : expat-2.2.5-8.el8
Should be                : expat-2.2.5-8.el8_6.2

NOTE: The vulnerability information above was derived by checking the
package versions of the affected packages from this advisory. This
scan is unable to rely on Red Hat's own security checks, which
consider channels and products in their vulnerability determinations.",,7.5,3.7,6.5,Medium,,RHSA:2022:5314;CWE:190;CWE:400,,6/30/22,6/30/22,,,,22-Jul
162630,CVE-2022-25314,5,Medium,hqsnabucragv02,tcp,0,RHEL 8 : expat (RHSA-2022:5314),The remote Red Hat host is missing one or more security updates.,"The remote Redhat Enterprise Linux 8 host has packages installed that are affected by multiple vulnerabilities as
referenced in the RHSA-2022:5314 advisory.

  - expat: stack exhaustion in doctype parsing (CVE-2022-25313)

  - expat: integer overflow in copyString() (CVE-2022-25314)

Note that Nessus has not tested for these issues but has instead relied only on the application's self-reported version
number.",Update the affected expat and / or expat-devel packages.,"https://access.redhat.com/security/cve/CVE-2022-25313
https://access.redhat.com/security/cve/CVE-2022-25314
https://access.redhat.com/errata/RHSA-2022:5314
https://bugzilla.redhat.com/2056350
https://bugzilla.redhat.com/2056354","
Remote package installed : expat-2.2.5-8.el8
Should be                : expat-2.2.5-8.el8_6.2

NOTE: The vulnerability information above was derived by checking the
package versions of the affected packages from this advisory. This
scan is unable to rely on Red Hat's own security checks, which
consider channels and products in their vulnerability determinations.",,7.5,3.7,6.5,Medium,,RHSA:2022:5314;CWE:190;CWE:400,,6/30/22,6/30/22,,,,22-Jul
162632,CVE-2021-40528,2.6,Low,hqsnabucragv02,tcp,0,RHEL 8 : libgcrypt (RHSA-2022:5311),The remote Red Hat host is missing a security update.,"The remote Redhat Enterprise Linux 8 host has packages installed that are affected by a vulnerability as referenced in
the RHSA-2022:5311 advisory.

  - libgcrypt: ElGamal implementation allows plaintext recovery (CVE-2021-40528)

Note that Nessus has not tested for this issue but has instead relied only on the application's self-reported version
number.",Update the affected libgcrypt and / or libgcrypt-devel packages.,"https://access.redhat.com/security/cve/CVE-2021-40528
https://access.redhat.com/errata/RHSA-2022:5311
https://bugzilla.redhat.com/2002816","
Remote package installed : libgcrypt-1.8.5-6.el8
Should be                : libgcrypt-1.8.5-7.el8_6

NOTE: The vulnerability information above was derived by checking the
package versions of the affected packages from this advisory. This
scan is unable to rely on Red Hat's own security checks, which
consider channels and products in their vulnerability determinations.",,5.9,1.9,5.2,Low,,RHSA:2022:5311,,7/1/22,7/1/22,,,,22-Jul
162633,CVE-2022-22576,5.5,Medium,hqsnabucragv02,tcp,0,RHEL 8 : curl (RHSA-2022:5313),The remote Red Hat host is missing one or more security updates.,"The remote Redhat Enterprise Linux 8 host has packages installed that are affected by multiple vulnerabilities as
referenced in the RHSA-2022:5313 advisory.

  - curl: OAUTH2 bearer bypass in connection re-use (CVE-2022-22576)

  - curl: credential leak on redirect (CVE-2022-27774)

  - curl: auth/cookie leak on redirect (CVE-2022-27776)

  - curl: TLS and SSH connection too eager reuse (CVE-2022-27782)

Note that Nessus has not tested for these issues but has instead relied only on the application's self-reported version
number.",Update the affected packages.,"https://access.redhat.com/security/cve/CVE-2022-22576
https://access.redhat.com/security/cve/CVE-2022-27774
https://access.redhat.com/security/cve/CVE-2022-27776
https://access.redhat.com/security/cve/CVE-2022-27782
https://access.redhat.com/errata/RHSA-2022:5313
https://bugzilla.redhat.com/2077541
https://bugzilla.redhat.com/2077547
https://bugzilla.redhat.com/2078408
https://bugzilla.redhat.com/2082215","
Remote package installed : curl-7.61.1-22.el8
Should be                : curl-7.61.1-22.el8_6.3

Remote package installed : libcurl-7.61.1-22.el8
Should be                : libcurl-7.61.1-22.el8_6.3

NOTE: The vulnerability information above was derived by checking the
package versions of the affected packages from this advisory. This
scan is unable to rely on Red Hat's own security checks, which
consider channels and products in their vulnerability determinations.",II,8.1,4.1,7.1,Medium,,RHSA:2022:5313;IAVA:2022-A-0224-S;CWE:287;CWE:522,,7/1/22,7/4/22,,,,22-Jul
162633,CVE-2022-27774,5.5,Medium,hqsnabucragv02,tcp,0,RHEL 8 : curl (RHSA-2022:5313),The remote Red Hat host is missing one or more security updates.,"The remote Redhat Enterprise Linux 8 host has packages installed that are affected by multiple vulnerabilities as
referenced in the RHSA-2022:5313 advisory.

  - curl: OAUTH2 bearer bypass in connection re-use (CVE-2022-22576)

  - curl: credential leak on redirect (CVE-2022-27774)

  - curl: auth/cookie leak on redirect (CVE-2022-27776)

  - curl: TLS and SSH connection too eager reuse (CVE-2022-27782)

Note that Nessus has not tested for these issues but has instead relied only on the application's self-reported version
number.",Update the affected packages.,"https://access.redhat.com/security/cve/CVE-2022-22576
https://access.redhat.com/security/cve/CVE-2022-27774
https://access.redhat.com/security/cve/CVE-2022-27776
https://access.redhat.com/security/cve/CVE-2022-27782
https://access.redhat.com/errata/RHSA-2022:5313
https://bugzilla.redhat.com/2077541
https://bugzilla.redhat.com/2077547
https://bugzilla.redhat.com/2078408
https://bugzilla.redhat.com/2082215","
Remote package installed : curl-7.61.1-22.el8
Should be                : curl-7.61.1-22.el8_6.3

Remote package installed : libcurl-7.61.1-22.el8
Should be                : libcurl-7.61.1-22.el8_6.3

NOTE: The vulnerability information above was derived by checking the
package versions of the affected packages from this advisory. This
scan is unable to rely on Red Hat's own security checks, which
consider channels and products in their vulnerability determinations.",II,8.1,4.1,7.1,Medium,,RHSA:2022:5313;IAVA:2022-A-0224-S;CWE:287;CWE:522,,7/1/22,7/4/22,,,,22-Jul
162633,CVE-2022-27776,5.5,Medium,hqsnabucragv02,tcp,0,RHEL 8 : curl (RHSA-2022:5313),The remote Red Hat host is missing one or more security updates.,"The remote Redhat Enterprise Linux 8 host has packages installed that are affected by multiple vulnerabilities as
referenced in the RHSA-2022:5313 advisory.

  - curl: OAUTH2 bearer bypass in connection re-use (CVE-2022-22576)

  - curl: credential leak on redirect (CVE-2022-27774)

  - curl: auth/cookie leak on redirect (CVE-2022-27776)

  - curl: TLS and SSH connection too eager reuse (CVE-2022-27782)

Note that Nessus has not tested for these issues but has instead relied only on the application's self-reported version
number.",Update the affected packages.,"https://access.redhat.com/security/cve/CVE-2022-22576
https://access.redhat.com/security/cve/CVE-2022-27774
https://access.redhat.com/security/cve/CVE-2022-27776
https://access.redhat.com/security/cve/CVE-2022-27782
https://access.redhat.com/errata/RHSA-2022:5313
https://bugzilla.redhat.com/2077541
https://bugzilla.redhat.com/2077547
https://bugzilla.redhat.com/2078408
https://bugzilla.redhat.com/2082215","
Remote package installed : curl-7.61.1-22.el8
Should be                : curl-7.61.1-22.el8_6.3

Remote package installed : libcurl-7.61.1-22.el8
Should be                : libcurl-7.61.1-22.el8_6.3

NOTE: The vulnerability information above was derived by checking the
package versions of the affected packages from this advisory. This
scan is unable to rely on Red Hat's own security checks, which
consider channels and products in their vulnerability determinations.",II,8.1,4.1,7.1,Medium,,RHSA:2022:5313;IAVA:2022-A-0224-S;CWE:287;CWE:522,,7/1/22,7/4/22,,,,22-Jul
162633,CVE-2022-27782,5.5,Medium,hqsnabucragv02,tcp,0,RHEL 8 : curl (RHSA-2022:5313),The remote Red Hat host is missing one or more security updates.,"The remote Redhat Enterprise Linux 8 host has packages installed that are affected by multiple vulnerabilities as
referenced in the RHSA-2022:5313 advisory.

  - curl: OAUTH2 bearer bypass in connection re-use (CVE-2022-22576)

  - curl: credential leak on redirect (CVE-2022-27774)

  - curl: auth/cookie leak on redirect (CVE-2022-27776)

  - curl: TLS and SSH connection too eager reuse (CVE-2022-27782)

Note that Nessus has not tested for these issues but has instead relied only on the application's self-reported version
number.",Update the affected packages.,"https://access.redhat.com/security/cve/CVE-2022-22576
https://access.redhat.com/security/cve/CVE-2022-27774
https://access.redhat.com/security/cve/CVE-2022-27776
https://access.redhat.com/security/cve/CVE-2022-27782
https://access.redhat.com/errata/RHSA-2022:5313
https://bugzilla.redhat.com/2077541
https://bugzilla.redhat.com/2077547
https://bugzilla.redhat.com/2078408
https://bugzilla.redhat.com/2082215","
Remote package installed : curl-7.61.1-22.el8
Should be                : curl-7.61.1-22.el8_6.3

Remote package installed : libcurl-7.61.1-22.el8
Should be                : libcurl-7.61.1-22.el8_6.3

NOTE: The vulnerability information above was derived by checking the
package versions of the affected packages from this advisory. This
scan is unable to rely on Red Hat's own security checks, which
consider channels and products in their vulnerability determinations.",II,8.1,4.1,7.1,Medium,,RHSA:2022:5313;IAVA:2022-A-0224-S;CWE:287;CWE:522,,7/1/22,7/4/22,,,,22-Jul
162643,CVE-2022-1621,6.8,Medium,hqsnabucragv02,tcp,0,RHEL 8 : vim (RHSA-2022:5319),The remote Red Hat host is missing one or more security updates.,"The remote Redhat Enterprise Linux 8 host has packages installed that are affected by multiple vulnerabilities as
referenced in the RHSA-2022:5319 advisory.

  - vim: heap buffer overflow (CVE-2022-1621)

  - vim: buffer over-read (CVE-2022-1629)

Note that Nessus has not tested for these issues but has instead relied only on the application's self-reported version
number.",Update the affected packages.,"https://access.redhat.com/security/cve/CVE-2022-1621
https://access.redhat.com/security/cve/CVE-2022-1629
https://access.redhat.com/errata/RHSA-2022:5319
https://bugzilla.redhat.com/2083924
https://bugzilla.redhat.com/2083931","
Remote package installed : vim-minimal-8.0.1763-16.el8_5.13
Should be                : vim-minimal-8.0.1763-19.el8_6.2

NOTE: The vulnerability information above was derived by checking the
package versions of the affected packages from this advisory. This
scan is unable to rely on Red Hat's own security checks, which
consider channels and products in their vulnerability determinations.",,7.8,5,6.8,Medium,,RHSA:2022:5319,,7/1/22,7/1/22,,,,22-Jul
162643,CVE-2022-1629,6.8,Medium,hqsnabucragv02,tcp,0,RHEL 8 : vim (RHSA-2022:5319),The remote Red Hat host is missing one or more security updates.,"The remote Redhat Enterprise Linux 8 host has packages installed that are affected by multiple vulnerabilities as
referenced in the RHSA-2022:5319 advisory.

  - vim: heap buffer overflow (CVE-2022-1621)

  - vim: buffer over-read (CVE-2022-1629)

Note that Nessus has not tested for these issues but has instead relied only on the application's self-reported version
number.",Update the affected packages.,"https://access.redhat.com/security/cve/CVE-2022-1621
https://access.redhat.com/security/cve/CVE-2022-1629
https://access.redhat.com/errata/RHSA-2022:5319
https://bugzilla.redhat.com/2083924
https://bugzilla.redhat.com/2083931","
Remote package installed : vim-minimal-8.0.1763-16.el8_5.13
Should be                : vim-minimal-8.0.1763-19.el8_6.2

NOTE: The vulnerability information above was derived by checking the
package versions of the affected packages from this advisory. This
scan is unable to rely on Red Hat's own security checks, which
consider channels and products in their vulnerability determinations.",,7.8,5,6.8,Medium,,RHSA:2022:5319,,7/1/22,7/1/22,,,,22-Jul
162644,CVE-2022-29824,4.3,Medium,hqsnabucragv02,tcp,0,RHEL 8 : libxml2 (RHSA-2022:5317),The remote Red Hat host is missing a security update.,"The remote Redhat Enterprise Linux 8 host has packages installed that are affected by a vulnerability as referenced in
the RHSA-2022:5317 advisory.

  - libxml2: integer overflows in xmlBuf and xmlBuffer lead to out-of-bounds write (CVE-2022-29824)

Note that Nessus has not tested for this issue but has instead relied only on the application's self-reported version
number.","Update the affected libxml2, libxml2-devel and / or python3-libxml2 packages.","https://access.redhat.com/security/cve/CVE-2022-29824
https://access.redhat.com/errata/RHSA-2022:5317
https://bugzilla.redhat.com/2082158","
Remote package installed : libxml2-2.9.7-13.el8
Should be                : libxml2-2.9.7-13.el8_6.1

Remote package installed : python3-libxml2-2.9.7-13.el8
Should be                : python3-libxml2-2.9.7-13.el8_6.1

NOTE: The vulnerability information above was derived by checking the
package versions of the affected packages from this advisory. This
scan is unable to rely on Red Hat's own security checks, which
consider channels and products in their vulnerability determinations.",,6.5,3.4,5.9,Medium,,RHSA:2022:5317;CWE:190;CWE:787,,7/1/22,7/1/22,,,,22-Jul
163076,CVE-2022-1729,6.3,Medium,hqsnabucragv02,tcp,0,RHEL 8 : kernel (RHSA-2022:5564),The remote Red Hat host is missing a security update.,"The remote Redhat Enterprise Linux 8 host has packages installed that are affected by a vulnerability as referenced in
the RHSA-2022:5564 advisory.

  - kernel: race condition in perf_event_open leads to privilege escalation (CVE-2022-1729)

Note that Nessus has not tested for this issue but has instead relied only on the application's self-reported version
number.",Update the affected packages.,"https://access.redhat.com/security/cve/CVE-2022-1729
https://access.redhat.com/errata/RHSA-2022:5564
https://bugzilla.redhat.com/2086753","
Remote package installed : kernel-4.18.0-372.9.1.el8
Should be                : kernel-4.18.0-372.16.1.el8_6

Remote package installed : kernel-core-4.18.0-372.9.1.el8
Should be                : kernel-core-4.18.0-372.16.1.el8_6

Remote package installed : kernel-modules-4.18.0-372.9.1.el8
Should be                : kernel-modules-4.18.0-372.16.1.el8_6

Remote package installed : kernel-tools-4.18.0-372.9.1.el8
Should be                : kernel-tools-4.18.0-372.16.1.el8_6

Remote package installed : kernel-tools-libs-4.18.0-372.9.1.el8
Should be                : kernel-tools-libs-4.18.0-372.16.1.el8_6

Remote package installed : python3-perf-4.18.0-372.9.1.el8
Should be                : python3-perf-4.18.0-372.16.1.el8_6

NOTE: The vulnerability information above was derived by checking the
package versions of the affected packages from this advisory. This
scan is unable to rely on Red Hat's own security checks, which
consider channels and products in their vulnerability determinations.",,7.4,4.7,6.4,Medium,,RHSA:2022:5564;CWE:366,,7/13/22,7/13/22,,,,22-Jul