Risk #,ID - Asset type,Threat ,Vulnerability,Harm,Probability,Raw Risk,Relevant Annex A Controls,Description of existing controls,Current Control Effectiveness,Harm,Probability,Current Risk,Confidentiality,Integrity,Availability,Impact Rating,Risk Treatment Options,Selected Control,Harm,Probability,Residual Risk,Control Maturity,New Control Effectiveness
R001,01 - PERSONNEL,Insufficient personnel to execute tasks.,Inadequate availability of qualified personnel.,5,3,15,A.6.1.1,Roles and responsibilities for the governance of Information Security within Flexport are formally documented within the Information Security Management Standard and communicated on the Flexport intranet.,Implemented and managed,1,1,1,L,L,H,6,Accept Risk,No action plans needed at this time,1,1,1,Managed,Implemented and managed
R002,01 - PERSONNEL,Insufficient personnel to execute tasks.,Inadequate management commitment of resources for information security.,5,3,15,A.6.1.1,Roles and responsibilities for the governance of Information Security within Flexport are formally documented within the Information Security Management Standard and communicated on the Flexport intranet.,Implemented and managed,2,2,4,L,L,L,7,Accept Risk,No action plans needed at this time,2,1,2,Managed,Implemented and managed
R003,01 - PERSONNEL,Unauthorized or inappropriate use of resources.,Non-existent or inadequately defined employee roles.,5,4,20,"A.6.1.1
A.6.1.2",Roles and responsibilities for the governance of Information Security within Flexport are formally documented within the Information Security Management Standard and communicated on the Flexport intranet.,Implemented and managed,1,1,1,L,L,M,5,Accept Risk,No action plans needed at this time,1,1,1,Managed,Implemented and managed
R004,01 - PERSONNEL,Unauthorized or inappropriate use of resources as a result of unqualified workers.,Non-existent or inadequate background screening process.,5,4,20,A.7.1.1,New hires are required to pass a background check as a condition of their employment.,Implemented and managed,1,1,1,L,L,H,6,Accept Risk,No action plans needed at this time,1,1,1,Managed,Implemented and managed
R005,01 - PERSONNEL,Unauthorized or inappropriate use of resources.,Non-existent or inadequate information security agreements (i.e. lack of acknowledgement to adhere to information security policies and procedures).,5,3,15,"A.7.1.2
A.7.2.1","[Workforce personnel as defined by the organization] consent to a proprietary rights agreement.

Flexport's proprietary rights agreement and network access agreement are reviewed [in accordance with the organization-defined frequency].",Implemented and managed,2,1,2,M,L,L,6,Accept Risk,No action plans needed at this time,2,1,2,Managed,Implemented and managed
R006,01 - PERSONNEL,Unauthorized or inappropriate use of resources,Non-existent or inadequate confidentiality or non-disclosure agreements.,3,3,9,"A.7.1.2
A.13.2.4","Flexport requires candidates to sign employment terms and conditions as part of accepting an offer of employment. People Operations sends the candidate the employment offer to review and sign after the Hiring Manager has decided to move forward. The employment offer includes an Exhibit A Proprietary Information and Inventions Agreement, which outlines the candidates responsibility for confidentiality.",Implemented and managed,1,1,1,L,L,H,6,Accept Risk,No action plans needed at this time,1,1,1,Managed,Implemented and managed
R062,06 - INFRASTRUCTURE,Unauthorized or inappropriate use of resources.,Non-existent or inadequate production infrastructure (servers / databases) user provisioning procedures,5,5,25,"A.9.2.1
A.9.2.2
A.9.2.4",Logical access provisioning to information systems requires approval from appropriate personnel.,Implemented but not managed,5,1,5,H,M,L,11,Mitigate Risk,"A.9.2.1
A.9.2.2
A.9.2.4",1,1,1,Managed,Implemented and managed
R078,07 - APPLICATIONS,Unauthorized or inappropriate use of resources.,Non-existent or inadequate access privileges definition (profile based) for the application.,5,5,25,"A.9.1.2
A.9.2.1
A.9.2.2
A.9.2.3
A.9.4.1","Pre-defined access groups are utilized to assign authorized role-based access privileges as a component of the onboarding process to corporate and production resources, and segregate access to data based on job function.",Implemented but not managed,5,1,5,H,M,L,11,Mitigate Risk,"A.9.1.2
A.9.2.1
A.9.2.2
A.9.2.3
A.9.4.1",2,1,2,Managed,Implemented and managed
R009,01 - PERSONNEL,Disclosure of sensitive information.,Lack of communucation of information security responsibilities post employment.,5,4,20,A.7.3.1,"Agreements with employees and contractors contain confidentiality clauses in Exhibit A - Proprietary Information and Inventions Agreement (PIIA), that remain valid after the termination of employment or contract. People Ops also notifies personnel of PIIA during the offboarding process.",Implemented and managed,1,1,1,L,L,L,4,Accept Risk,No action plans needed at this time,1,1,1,Managed,Implemented and managed
R079,07 - APPLICATIONS,Unauthorized or inappropriate use of resources.,Non-existent or inadequate application user provisioning procedures,5,5,25,"A.9.2.1
A.9.2.2
A.9.2.4",Logical access provisioning to information systems requires approval from appropriate personnel.,Implemented and managed,4,1,4,H,M,L,10,Mitigate Risk,"A.9.2.1
A.9.2.2
A.9.2.4",1,1,1,Managed,Implemented and managed
R011,02 - INFORMATION,Lack of documented security requirements.,"Non-existent, unapproved or out-of-date security policies.",5,5,25,A.5.1.1,"Flexport's policies and standards are reviewed, approved by management, and communicated to authorized personnel annually.",Implemented and managed,1,1,1,L,L,H,6,Accept Risk,No action plans needed at this time,1,1,1,Managed,Implemented and managed
R012,02 - INFORMATION,Lack of awareness of security policies.,Unaware of security policies and their responsibilities in maintaining a secure environment.,5,5,25,A.5.1.1,Security Policies have been implemented by management to provide governance over the Flexport security program. The policies are hosted within Flexport's internal knowledge management system (Confluence) and are socialized across the organization to all relevant stakeholders.,Implemented and managed,1,1,1,M,L,H,7,Accept Risk,No action plans needed at this time,1,1,1,Managed,Implemented and managed
R013,02 - INFORMATION,Lack of update to security requirements.,Non-existent or inadequate procedure for reviewing information security documentation.,5,5,25,A.5.1.2,"Flexport's policies and standards are reviewed, approved by management, and communicated to authorized personnel annually.
Flexport reviews exceptions to policies, standards, and procedures; exceptions are documented and approved based on business need and removed when no longer required.",Implemented and managed,1,1,1,L,H,L,6,Accept Risk,No action plans needed at this time,1,1,1,Managed,Implemented and managed
R014,02 - INFORMATION,Lack of awareness of communication requirements to relevant authorities in the event of an incident that requires it.,"Non-existent or inadequate contact with authorities (regulatory bodies, law enforcement, etc.).",5,3,15,A.6.1.3,"Flexport defines external communication requirements for incidents, including:
 - information about external party dependencies
 - criteria for notification to external parties as required by Flexport policy in the event of a security breach 
 - contact information for authorities (e.g., law enforcement, regulatory bodies, etc.)
 - provisions for updating and communicating external communication requirement changes",Implemented and managed,3,1,3,L,L,L,6,Accept Risk,No action plans needed at this time,1,1,1,Managed,Implemented and managed
R015,02 - INFORMATION,"Lack of awareness of recent security news, vulnerabilities, and technology that can affect the overall security program.","No contacts with information security related communities (ex: tech news, CERT, etc.).",5,5,25,A.6.1.4,"The Security team maintains contact with special interest groups as appropriate based on the Incident Management Policy, section 6.13. Example special interest group include: CISO Roundtable, FBI, ISSA, ISC2, CVE, CVSS and other forums specific to security topics.",Implemented and managed,4,1,4,L,L,L,7,Accept Risk,No action plans needed at this time,1,1,1,Managed,Implemented and managed
R064,06 - INFRASTRUCTURE,Inadequate system access control,Non-existent or inadequate procedure to review systems access privileges,5,5,25,"A.9.2.5
A.9.2.6",Flexport performs account and access reviews quarterly; corrective action is taken where applicable.,Implemented but not managed,5,1,5,H,M,L,11,Mitigate Risk,"A.9.2.5
A.9.2.6",1,1,1,Managed,Implemented and managed
R017,02 - INFORMATION,Disclosure of sensitive information stored on company systems.,Non-existent or inadequate policies and controls for teleworking.,5,5,25,A.6.2.2,"Flexport's policies and standards are reviewed, approved by management, and communicated to authorized personnel annually.",Implemented and managed,2,2,4,M,L,L,8,Accept Risk,No action plans needed at this time,2,1,2,Managed,Implemented and managed
R081,07 - APPLICATIONS,Inadequate system access control,Non-existent or inadequate procedure to review systems access privileges,5,5,25,"A.9.2.5
A.9.2.6",Flexport performs account and access reviews quarterly; corrective action is taken where applicable.,Implemented and managed,3,1,3,H,M,L,9,Mitigate Risk,"A.9.2.5
A.9.2.6",1,1,1,Managed,Implemented and managed
R019,02 - INFORMATION,Theft or destruction.,Lack of asset ownership definition.,5,3,15,A.8.1.2,Flexport's assets are labelled and have designated owners.,Implemented and managed,1,1,1,L,L,L,4,Accept Risk,No action plans needed at this time,1,1,1,Managed,Implemented and managed
R061,06 - INFRASTRUCTURE,Unauthorized or inappropriate use of resources.,Non-existent or inadequate access privileges definition (profile based) for production infrastructure (servers / databases),5,5,25,"A.9.1.2
A.9.2.1
A.9.2.2
A.9.2.3
A.9.4.1"," Pre-defined access groups are utilized to assign authorized role-based access privileges as a component of the onboarding process to corporate and production resources, and segregate access to data based on job function.",Implemented but not managed,5,1,5,H,M,L,11,Mitigate Risk,"A.9.1.2
A.9.2.1
A.9.2.2
A.9.2.3
A.9.4.1",2,2,4,Managed,Implemented and managed
R020,02 - INFORMATION,Unauthorized or inappropriate use of resources,Non-existent or inadequate instructions for use of company resources (Acceptable Use Policy or equivalent).,5,4,20,A.8.1.3,"An Acceptable Use Policy is in place and acknowleged as part of onboarding process and annually thereafter. This document identifies prohibited activities, responsibilities for use, taking assets off-site, backup procedures, return of assets upon termination, and other relevant procedures and processes.",Implemented but not managed,4,1,4,M,L,L,8,Mitigate Risk,A.8.1.3,2,1,2,Defined,Implemented and managed
R022,02 - INFORMATION,Unauthorized access to information,Non-existent or inadequate access control policies and controls.,5,4,20,A.9.1.1,Policies are in place to guide personnel in minimizing exposure to the unauthorized use of resources by requiring personnel to abide by a policy of least privilege and granting access to personnel only to the systems required for their job functions.,Implemented and managed,2,1,2,L,L,H,7,Accept Risk,No action plans needed at this time,2,1,2,Managed,Implemented and managed
R023,02 - INFORMATION,Inadequate system operation and configuration,Non-existent or inadequate operational procedures,5,3,15,A.12.1.1,Flexport's key control capabilities are supported by documented procedures that are communicated to authorized personnel,Implemented and managed,2,1,2,L,L,H,7,Accept Risk,No action plans needed at this time,2,1,2,Managed,Implemented and managed
R066,06 - INFRASTRUCTURE,Inadequate system operation and configuration,"Non-existent or inadequate systems configuration procedures/baselines (e.g. OS hardening, ACL's, ports, services, names, etc.)",4,4,16,"A.9.4.1
A.9.4.2
A.9.4.3
A.9.4.4
A.12.5.1","Flexport ensures security hardening and baseline configuration standards have been established according to industry standards and are reviewed and updated [in accordance with the organization-defined frequency].

Flexport uses mechanisms to detect deviations from baseline configurations in production environments.",Implemented but not managed,3,2,6,H,H,M,14,Mitigate Risk,"A.9.4.1
A.9.4.2
A.9.4.3
A.9.4.4
A.12.5.1",1,1,1,Managed,Implemented and managed
R025,02 - INFORMATION,Inadequate application security,Non-existent or inadequate secure system engineering principles.,5,4,20,A.14.2.5,"Flexport has established a Change Management Policy to govern changes made to the production environment. Flexport follows a CI/CD process to accelerate the delivery of software changes made to the production environment. When a developer wants to make a change to production, they start by branching from the 'master' branch and develop locally on their laptops as well as perform intial testing (either to staging or sandbox environment). This is accomplished by creating a pull request to merge into either the staging or sandbox branches.  After testing is finished, another pull request is created to merge into the 'master' branch which kicks off a round of Buildkite (CI) unit and built testing.  If testing passes, the pull request enforces a +1 code review to review and approve the change for production.  If approved, the change is manually merged to the 'master' branch which kicks off a 2nd round of automating Buildkite (CI) testing. If testing fails, a notification is provided to the Infrastructure team.  If testing passes, the deployment is auto-deployed to production and Slack message is sent to notify approproate personnel of the change.

Flexport also has security champions program to foster secure engineering principles.",Implemented and managed,2,2,4,H,M,H,12,Accept Risk,No action plans needed at this time,2,1,2,Managed,Implemented and managed
R026,02 - INFORMATION,Inadequate or ineffective third party governance,Non-existent or inadequate third party management policy and procedure,5,3,15,"A.15.1.1
A.15.1.2
A.15.1.3
A.15.2.1
A.15.2.2","Policies are in place to define requirements for performing security due diligence prior to accepting new vendors, defining vendor security requirements within contractual agreements, and vendor monitoring criteria based on risk.",Implemented and managed,2,1,2,M,M,L,7,Accept Risk,No action plans needed at this time,3,1,3,Managed,Implemented and managed
R027,02 - INFORMATION,Inadequate or ineffective incident management ,Non-existent or inadequate security incident response policy and procedure,5,5,25,"A.16.1.1
A.16.1.2
A.16.1.3
A.16.1.4
A.16.1.5
A.16.1.6
A.16.1.7","Flexport defines the types of incidents that need to be managed, tracked and reported, including:
 - procedures for the identification and management of incidents
 - procedures for the resolution of confirmed incidents
 - key incident response systems
 - incident coordination and communication strategy
 - contact method for internal parties to report incidents
 - support team contact information
 - notification to relevant management in the event of a security breach
 - provisions for updating and communicating the plan
 - provisions for training of support team
 - preservation of incident information
 - management review and approval, [in accordance with frequency], or when major changes to the organization occur",Implemented and managed,4,1,4,H,H,H,13,Accept Risk,No action plans needed at this time,2,1,2,Managed,Implemented and managed
R067,06 - INFRASTRUCTURE,Inadequate system operation and configuration,"Non-existent or inadequate infrastructure change / configuration management process (ex. OS images, AWS Security Groups, ACL rules, etc). ",4,4,16,"A.12.1.1
A.12.1.2
A.12.5.1
A.14.2.2","Flexport ensures security hardening and baseline configuration standards have been established according to industry standards and are reviewed and updated [in accordance with the organization-defined frequency].

Flexport uses mechanisms to detect deviations from baseline configurations in production environments.",Implemented but not managed,3,2,6,L,H,M,12,Mitigate Risk,"A.12.1.1
A.12.1.2
A.12.5.1
A.14.2.2",1,1,1,Managed,Implemented and managed
R071,06 - INFRASTRUCTURE,Theft or destruction,Non-existent or inadequate backup controls and/or procedures,5,4,20,"A.12.3.1
A.17.2.1","Flexport configures redundant systems or performs data backups [in accordance with the organization-defined frequency] to resume system operations in the event of a system failure.

Flexport performs backup restoration or failover tests at least annually to confirm the reliability and integrity of system backups or recovery operations.

Flexport backups are securely stored in an alternate location from source data.",Implemented but not managed,3,1,3,H,M,H,11,Mitigate Risk,"A.12.3.1
A.17.2.1",1,1,1,Managed,Implemented and managed
R030,03 - OFFICE FACILITIES / DATACENTERS,Unauthorized access to office facilities.,Non-existent or inadequate physical access controls.,5,5,25,"A.11.1.1
A.11.1.2
A.11.1.3
A.11.1.4
A.11.1.5
A.11.1.6
A.11.2.1",Badge are required to access offices. Visitors must check-in with reception. Utility rooms are also controlled by badge access. There are cameras in the lobby's and in ingress/egress points to offices. The IT team has access to the video for cameras monitoring and video is retained for 30 days.,Implemented and managed,1,1,1,L,L,H,6,Accept Risk,No action plans needed at this time,1,1,1,Managed,Implemented and managed
R031,03 - OFFICE FACILITIES / DATACENTERS,Unauthorized access to data center facilities.,Non-existent or inadequate physical access controls.,5,5,25,"A.11.1.1
A.11.1.2
A.11.1.3
A.11.1.4
A.11.1.5
A.11.1.6
A.11.2.1",This control is inherited by AWS. ,Fully Matured or Automated,1,1,1,L,L,H,6,Accept Risk,No action plans needed at this time,1,1,1,Optimized,Fully Matured or Automated
R032,03 - OFFICE FACILITIES / DATACENTERS,Unauthorized access to office facilities.,Loading/unloading areas improperly identified and physically separated from operational areas.,5,3,15,"A.11.1.5
A.11.1.6
A.11.2.1",Loading/Delivery areas are segregated to main office spaces. All deliveries check-in with Security to be able to get up to Flexport offices. Visitors must check-in at  reception.,Implemented and managed,1,1,1,L,L,M,5,Accept Risk,No action plans needed at this time,1,1,1,Managed,Implemented and managed
R033,03 - OFFICE FACILITIES / DATACENTERS,Unauthorized access to data center facilities.,Loading/unloading areas improperly identified and physically separated from operational areas.,5,3,15,"A.11.1.5
A.11.1.6
A.11.2.1",This control is inherited by AWS. ,Fully Matured or Automated,1,1,1,L,L,M,5,Accept Risk,No action plans needed at this time,1,1,1,Optimized,Fully Matured or Automated
R034,03 - OFFICE FACILITIES / DATACENTERS,Breakdown or office network unavailability,Poor cable installation or quality,5,5,25,"A.11.2.1
A.11.2.2
A.11.2.3",All office cabling was installed by a qualified individual.,Implemented and managed,1,1,1,L,L,M,5,Accept Risk,No action plans needed at this time,1,1,1,Managed,Implemented and managed
R035,03 - OFFICE FACILITIES / DATACENTERS,Office information theft and/or destruction,Cables are not protected with adequate physical security measures,5,4,20,"A.11.2.1
A.11.2.2
A.11.2.3",Cables are run through conduit or protect inside of walls.,Implemented and managed,1,1,1,L,L,M,5,Accept Risk,No action plans needed at this time,1,1,1,Managed,Implemented and managed
R036,03 - OFFICE FACILITIES / DATACENTERS,Breakdown of data center network unavailability,Poor cable installation or quality,5,5,25,"A.11.2.1
A.11.2.2
A.11.2.3",This control is inherited by AWS. ,Fully Matured or Automated,1,1,1,L,L,M,5,Accept Risk,No action plans needed at this time,1,1,1,Optimized,Fully Matured or Automated
R037,03 - OFFICE FACILITIES / DATACENTERS,Data center information theft and/or destruction,Cables are not protected with adequate physical security measures,5,4,20,"A.11.2.1
A.11.2.2
A.11.2.3",This control is inherited by AWS. ,Fully Matured or Automated,1,1,1,L,L,M,5,Accept Risk,No action plans needed at this time,1,1,1,Optimized,Fully Matured or Automated
R038,03 - OFFICE FACILITIES / DATACENTERS,Theft or destruction of office assets.,Non-existent or inadequately secure procedures for equipment siting and protection.,5,4,20,"A.11.2.1
A.11.2.2
A.11.2.6",Badge are required to access offices. Visitors must check-in with reception. Utility rooms are also controlled by badge access. There are cameras in the lobby's and in ingress/egress points to offices. The IT team has access to the video for cameras monitoring and video is retained for 30 days.,Implemented and managed,1,1,1,L,L,H,6,Accept Risk,No action plans needed at this time,1,1,1,Managed,Implemented and managed
R039,03 - OFFICE FACILITIES / DATACENTERS,Theft or destruction of data center assets.,Non-existent or inadequately secure procedures for equipment siting and protection.,5,4,20,"A.11.2.1
A.11.2.2
A.11.2.6",This control is inherited by AWS. ,Fully Matured or Automated,1,1,1,L,L,H,6,Accept Risk,No action plans needed at this time,1,1,1,Optimized,Fully Matured or Automated
R040,03 - OFFICE FACILITIES / DATACENTERS,Office equipment failure,Non-existent or inadequate maintenance plan,5,4,20,A.11.2.4,"Inspection reports for any environmental controls in place (i.e. fire alarm, water sprinkler, fire suppression, smoke detector, water detection, uninterruptible power supply, HVAC, generator, etc.) for offices in scope. ",Implemented and managed,1,1,1,L,L,M,5,Accept Risk,No action plans needed at this time,1,1,1,Managed,Implemented and managed
R041,03 - OFFICE FACILITIES / DATACENTERS,Data center equipment failure,Non-existent or inadequate maintenance plan,5,4,20,A.11.2.4,This control is inherited by AWS. ,Fully Matured or Automated,1,1,1,L,L,M,5,Accept Risk,No action plans needed at this time,1,1,1,Optimized,Fully Matured or Automated
R042,03 - OFFICE FACILITIES / DATACENTERS,Theft or destruction of office assets.,Non-existent or inadequate procedures to control equipment outside company facilities.,5,4,20,"A.11.2.5
A.11.2.6",Flexport has established an acceptable use policy (AUP) that also applies to monitoring and securing equipment outside company facilities. Flexport also has Clear Screen procedures and provides Security Awareness Training.,Implemented and managed,1,1,1,M,L,L,5,Accept Risk,No action plans needed at this time,1,1,1,Managed,Implemented and managed
R043,03 - OFFICE FACILITIES / DATACENTERS,Theft or destruction of data center assets.,Non-existent or inadequate procedures to control equipment outside company facilities.,5,4,20,"A.11.2.5
A.11.2.6",This control is inherited by AWS. ,Fully Matured or Automated,1,1,1,M,L,L,5,Accept Risk,No action plans needed at this time,1,1,1,Optimized,Fully Matured or Automated
R029,02 - INFORMATION,"Noncompliance with legal, regulatory and contractual requirements","Non-existent or inadequate identification of the applicable regulatory, legal and contractual obligations",4,4,16,A.18.1.1,"Legislative statutory, regulatory, and contractual requirements are identified by the Security team and Legal team who work collarboratively to ensure these requirements are identified and addressed.  ",Implemented but not managed,2,2,4,M,M,L,9,Mitigate Risk,A.18.1.1,1,1,1,Managed,Implemented and managed
R107,09 - INTANGIBLES,Loss of reputation or goodwill,Non-existent or inadequate resources and processes to perform and manage technical audits of in-scope systems and networks.,4,3,12,"A.18.2.1
A.18.2.2
A.18.2.3","Flexport establishes internal audit requirements and executes audits on information systems and processes [in accordance with the organization-defined frequency].

Internal audit establishes and executes a plan to evaluate applicable controls in the Information Security Management System (ISMS) at least once every 3 years.",Implemented but not managed,2,2,4,L,M,M,9,Mitigate Risk,"A.18.2.1
A.18.2.2
A.18.2.3",1,1,1,Managed,Implemented and managed
R028,02 - INFORMATION,Inadequate or ineffective business continuity in the event of a disaster. ,Non-existent or inadequate Business Continuity Plan,5,4,20,"A.17.1.1
A.17.1.2
A.17.1.3","Flexport's business contingency plan is reviewed, approved by management and communicated to relevant team members [in accordance with the organization-defined frequency].",Partly Implemented,3,2,6,H,H,H,15,Mitigate Risk,"A.17.1.1
A.17.1.2
A.17.1.3",4,1,4,Defined,Implemented and managed
R024,02 - INFORMATION,Inadequate quality system operation and configuration,Non-existent or inadequate change management process,5,4,20,"A.12.1.2
A.14.2.2","Policies are in place to guide personnel in the request, documentation, testing, and approval of changes made to the production enivornment to minimize an adverse impact to services and customers.",Implemented and managed,2,2,4,H,M,H,12,Mitigate Risk,"A.12.1.2
A.14.2.2",2,1,2,Managed,Implemented and managed
R091,07 - APPLICATIONS,Inadequate system operation and configuration,Non-existent or inadequate change management process,5,5,25,A.14.2.2,"Policies are in place to guide personnel in the request, documentation, testing, and approval of changes made to the production enivornment to minimize an adverse impact to services and customers.",Implemented and managed,4,1,4,L,M,M,9,Mitigate Risk,A.14.2.2,2,1,2,Managed,Implemented and managed
R049,04 - HARDWARE,"Malware attacks (virus, trojans, spam, spyware, etc.)",Non-existent or inadequate anti-malware measures,5,5,25,A.12.2.1,"If applicable, Flexport has managed enterprise antivirus deployments and ensures the following:
 - signature definitions are updated
 - full scans are performed [in accordance with the organization-defined frequency] and real-time scans are enabled
 - alerts are reviewed and resolved by authorized personnel",Implemented and managed,1,1,1,L,L,M,5,Accept Risk,No action plans needed at this time,1,1,1,Managed,Implemented and managed
R050,05 - NETWORKS ,Unauthorized access to networks.,Non-existent or inadequate access privileges definition (profile based) to the network.,5,5,25,"A.9.1.2
A.9.2.1
A.9.2.2
A.9.2.3
A.9.4.1",IAM-15 Remote connections to the corporate network are accessed via VPN through managed gateways.,Implemented and managed,2,2,4,L,L,H,9,Accept Risk,No action plans needed at this time,2,1,2,Managed,Implemented and managed
R052,05 - NETWORKS ,Unauthorized or inappropriate use of resources.,Non-existent or inadequate network user provisioning procedures,5,5,25,"A.9.2.1
A.9.2.2
A.9.2.4",Logical access provisioning to information systems requires approval from appropriate personnel.,Implemented and managed,1,1,1,L,L,M,5,Accept Risk,No action plans needed at this time,1,1,1,Managed,Implemented and managed
R053,05 - NETWORKS ,Inadequate system access control,Non-existent or inadequate password management process or controls,5,5,25,"A.9.2.4
A.9.3.1
A.9.4.2
A.9.4.3",IAM-10 User and device authentication to information systems is protected by passwords that meet Flexport's password complexity requirements. Flexport requires system users to change passwords [in accordance with the organization-defined frequency].,Implemented and managed,1,1,1,L,L,H,6,Accept Risk,No action plans needed at this time,1,1,1,Managed,Implemented and managed
R054,05 - NETWORKS ,Inadequate system access control,Non-existent or inadequate procedure to review systems access privileges,5,5,25,"A.9.2.5
A.9.2.6",Flexport performs account and access reviews quarterly; corrective action is taken where applicable.,Implemented and managed,1,1,1,M,L,H,7,Accept Risk,No action plans needed at this time,1,1,1,Managed,Implemented and managed
R055,05 - NETWORKS ,Inadequate system access control,Non-existent or inadequate authentication methods and controls,5,5,25,"A.9.3.1
A.9.4.2","IAM-11 Multi-factor authentication is required for:
 	 remote sessions
 - access to environments that host production systems""",Implemented and managed,1,1,1,L,L,H,6,Accept Risk,No action plans needed at this time,1,1,1,Managed,Implemented and managed
R056,05 - NETWORKS ,Disclosure of confidential information,"Non-existent or inadequate controls on use of cryptography for data transitted over the network (i.e. remote access, VPN, TLS, etc).",5,5,25,"A.10.1.1
A.10.1.2
A.13.1.1
A.13.1.2
A.13.1.3
A.13.2.3
A.18.1.5","[Restricted (as defined by the organization's data classification criteria)] data that is transmitted over public networks is encrypted using industry standards.

",Implemented and managed,1,1,1,M,L,M,6,Accept Risk,No action plans needed at this time,1,1,1,Managed,Implemented and managed
R021,02 - INFORMATION,Unauthorized access to information,"Non-existent or inadequate procedures for information classification, labeling, and handling.",4,4,16,"A.8.2.1
A.8.2.2
A.8.2.3
A.13.2.1
A.13.2.2
A.13.2.3","Flexport's data classification criteria are reviewed, approved by management, and communicated to authorized personnel [in accordance with the organization-defined frequency]; the data security management determines the treatment of data according to its designated data classification level.",Implemented but not managed,3,1,3,H,M,M,10,Mitigate Risk,"A.8.2.1
A.8.2.2
A.8.2.3
A.13.2.1
A.13.2.2
A.13.2.3",3,1,3,Managed,Implemented and managed
R103,09 - INTANGIBLES,"Noncompliance with legal, regulatory and contractual requirements",Non-existent or inadequate data retention policy and schedule,4,4,16,A.18.1.3,"Policies are in place to guide personnel in classifying, labeling, protecting, and retaining data based on its sensitivity and in accordance of legal requirements.",Implemented but not managed,2,3,6,L,L,H,11,Mitigate Risk,A.18.1.3,1,1,1,Defined,Implemented and managed
R059,05 - NETWORKS ,Unauthorized acccess to networks,"Undefined network security controls, sevice levels, and management requirements",5,4,20,A.13.1.2,IAM-15 Remote connections to the corporate network are accessed via VPN through managed gateways.,Implemented and managed,1,1,1,L,L,M,5,Accept Risk,No action plans needed at this time,1,1,1,Managed,Implemented and managed
R008,01 - PERSONNEL,Unauthorized or inappropriate use of resources.,Inadequate or unenforced disciplinary process,4,4,16,A.7.2.3,Employees that fail to comply with Flexport policies are subject to a disciplinary process.,Implemented and managed,3,1,3,L,L,L,6,Mitigate Risk,A.7.2.3,1,1,1,Managed,Implemented and managed
R077,06 - INFRASTRUCTURE,Systems not available,Non-existent or inadequate incident management process,5,5,25,A.16,Critical systems are monitored in accordance to predefined security criteria and alerts are sent to authorized personnel. Confirmed incidents are tracked to resolution.,Implemented but not managed,3,2,6,M,M,M,12,Mitigate Risk,A.16,1,1,1,Managed,Implemented and managed
R016,02 - INFORMATION,"Theft of mobile devices (laptops, smartphones, etc.).","Non-existent or inadequate policies and controls to protect mobile devices (laptops, smartphones, etc.).",5,3,15,"A.6.2.1
A.8.1.3","Where applicable, authorized Flexport personnel must enroll mobile devices with the enterprise Mobile Device Management (MDM) solution prior to obtaining access to Flexport network resources on mobile devices.",Implemented but not managed,2,2,4,M,M,L,9,Mitigate Risk,"A.6.2.1
A.8.1.3",2,2,4,Managed,Implemented and managed
R063,06 - INFRASTRUCTURE,Inadequate system access control,Non-existent or inadequate password management process or controls,5,5,25,"A.9.2.4
A.9.3.1
A.9.4.2
A.9.4.3",IAM-10 User and device authentication to information systems is protected by passwords that meet Flexport's password complexity requirements. Flexport requires system users to change passwords [in accordance with the organization-defined frequency].,Implemented and managed,3,1,3,M,L,L,7,Accept Risk,No action plans needed at this time,1,1,1,Managed,Implemented and managed
R018,02 - INFORMATION,Theft or destruction.,Non-existent or inadequate asset inventory.,5,3,15,A.8.1.1,"Flexport maintains an inventory of in-scope ISMS information, data, personnel, hardware, application, infrastructure, and vendors, which is reconciled at least annually.",Implemented but not managed,2,2,4,H,L,L,9,Mitigate Risk,A.8.1.1,1,1,1,Managed,Implemented and managed
R044,04 - HARDWARE,Lost of theft of mobile device,"Non-existent or inadequate security controls to protect mobile devices (laptops, smartphones, etc.)",5,4,20,A.6.2.1,"Where applicable, authorized Flexport personnel must enroll mobile devices with the enterprise Mobile Device Management (MDM) solution prior to obtaining access to Flexport network resources on mobile devices.",Implemented but not managed,2,2,4,H,L,L,9,Mitigate Risk,A.6.2.1,1,1,1,Managed,Implemented and managed
R045,04 - HARDWARE,"Disclosure of sensitive information stored on mobile devices (i.e. laptops, mobile phones, etc).","Non-existent or inadequate termination procedures requiring the collection of mobile devices (i.e. laptops, mobile phones, etc).",5,3,15,A.8.1.4,"Upon employee termination, management is notified to collect Flexport property from the terminated employee.",Implemented but not managed,2,2,4,H,L,L,9,Mitigate Risk,A.8.1.4,1,1,1,Managed,Implemented and managed
R046,04 - HARDWARE,"Disclosure of information stored on Company provided mobile devices (i.e. laptops, mobile phones, etc).","Non-existent or inadequate controls on peripheral or portable media (external drives, USB keys, CDs, etc.) to prevent data leakage.",5,5,25,"A.8.3.1
A.8.3.3","Flexport does not use removable media as part of normal operations. However the Data Classification Policy provides guidelines that removable media (e.g. hard drives, USB keys, DVDs) should be encrypted and use proper access controls.

The Data Classification Policy includes guidelines to ensure appropriate protection of sensitive information during media transfer, including standards on how media should be transferred and required acknowledgement/receipt of media upon delivery. 

IT only provides laptops. Users are required to follow the AUP, which also covers media other than laptops.",Implemented but not managed,2,2,4,M,L,H,10,Mitigate Risk,"A.8.3.1
A.8.3.3",2,2,4,Managed,Implemented and managed
R068,06 - INFRASTRUCTURE,Systems not available,Non-existent or inadequate capacity management procedures,5,5,25,A.12.1.3,"Flexport defines availability monitoring alert criteria, how alert criteria will be flagged, and identifies authorized personnel for flagged system alerts.

Flexport defines availability monitoring alert criteria, how alert criteria will be flagged, and identifies authorized personnel for flagged system alerts.",Implemented and managed,3,1,3,L,L,M,7,Accept Risk,No action plans needed at this time,1,1,1,Managed,Implemented and managed
R069,06 - INFRASTRUCTURE,Inadequate system operation and configuration,"Non-existent or inadequate segregation of environments (development, test, production)",5,5,25,"A.12.1.4
A.14.2.6",Development and testing efforts are performed in distinct development and test environments that are logically separated from the production environment.,Implemented and managed,2,1,2,M,L,M,7,Accept Risk,No action plans needed at this time,1,1,1,Managed,Implemented and managed
R070,06 - INFRASTRUCTURE,"Malware attacks (virus, trojans, spam, spyware, etc.)",Non-existent or inadequate anti-malware measures,5,5,25,A.12.2.1,Flexport conducts vulnerability scans against the production environment; scan tools are updated prior to running scans.,Implemented and managed,3,1,3,M,M,M,9,Accept Risk,No action plans needed at this time,1,1,1,Managed,Implemented and managed
R047,04 - HARDWARE,"Disclosure of information stored on Company provided mobile devices (i.e. laptops, mobile phones, etc).","Non-existent or inadequate process for managing the hardware lifecycle from acquisition to disposal (Acquisition, handling and disposal of systems, hard drives, etc.).",5,5,25,"A.8.3.2
A.11.2.7","The Data Classification Policy includes guidelines for the destruction and disposal of media assets containing sensitive information, including document destruction and hardware sanitization protocols as part of the hardware lifecycle end of use procedures. Paper documents are destroyed by paper shredders. Data should be erased using processes that meet industry accepted methods, but if the process is not secure enough considering the sensitivity of the data, then the storage medium must be destroyed.

IT only provides laptops. Users are required to follow the AUP, which also covers media other than laptops. The disposal of laptops is covered under equipment controls.",Implemented but not managed,2,2,4,M,L,L,8,Mitigate Risk,"A.8.3.2
A.11.2.7",1,1,1,Managed,Implemented and managed
R048,04 - HARDWARE,Unauthorized access to systems,"Inadequate security controls in on mobile devices (ex. authentication, password requirements, session time-out, etc.)",5,5,25,"A.9.2.1
A.9.3.1
A.9.4.1
A.9.4.2
A.9.4.3
A.11.2.8",User and device authentication to information systems is protected by passwords that meet Flexport's password complexity requirements. Flexport requires system users to change passwords [in accordance with the organization-defined frequency].,Implemented and managed,3,1,3,M,L,L,7,Mitigate Risk,"A.9.2.1
A.9.3.1
A.9.4.1
A.9.4.2
A.9.4.3
A.11.2.8",1,1,1,Managed,Implemented and managed
R072,06 - INFRASTRUCTURE,Inadequate system access control,Non-existent or inadequate monitoring measures,5,5,25,"A.12.4.1
A.12.4.2
A.12.4.3",Flexport logs critical information system activity.,Implemented but not managed,4,2,8,M,M,M,14,Mitigate Risk,"A.12.4.1
A.12.4.2
A.12.4.3",1,1,1,Managed,Implemented and managed
R073,06 - INFRASTRUCTURE,Inadequate event detection and monitoring,Non-existent or inadequate log processing and archiving systems,5,5,25,"A.12.4.1
A.12.4.2
A.12.4.3",Flexport logs critical information system activity to a secure repository. Flexport disables administrators ability to delete or modify enterprise audit logs; the number of administrators with access to audit logs is limited.,Implemented but not managed,3,1,3,M,M,M,9,Mitigate Risk,"A.12.4.1
A.12.4.2
A.12.4.3",1,1,1,Managed,Implemented and managed
R075,06 - INFRASTRUCTURE,Inadequate system operation and configuration,Lack of system time synchronization to a master clock,4,3,12,A.12.4.4,Systems are configured to synchronize information system time clocks based on International Atomic Time or Coordinated Universal Time (UTC).,Fully Matured or Automated,1,1,1,L,L,L,4,Accept Risk,No action plans needed at this time,1,1,1,Managed,Implemented and managed
R074,06 - INFRASTRUCTURE,Inadequate event detection and monitoring,Non-existent or inadequate procedures to review system logs,5,5,25,"A.12.4.1
A.12.4.2
A.12.4.3",Flexport defines security monitoring alert criteria for privileged functions executed by both authorized and unauthorized users.,Implemented but not managed,3,2,6,M,M,M,12,Mitigate Risk,"A.12.4.1
A.12.4.2
A.12.4.3",1,1,1,Managed,Implemented and managed
R084,07 - APPLICATIONS,Inadequate event detection and monitoring,Non-existent or inadequate audit trails,5,5,25,"A.12.4.1
A.12.4.2
A.12.4.3",Flexport logs critical information system activity.,Implemented but not managed,3,1,3,M,M,L,8,Mitigate Risk,"A.12.4.1
A.12.4.2
A.12.4.3",1,1,1,Managed,Implemented and managed
R085,07 - APPLICATIONS,Inadequate event detection and monitoring,Non-existent or inadequate monitoring of system use,5,5,25,"A.12.4.1
A.12.4.2
A.12.4.3",Flexport logs critical information system activity.,Implemented but not managed,3,1,3,M,M,L,8,Mitigate Risk,"A.12.4.1
A.12.4.2
A.12.4.3",1,1,1,Managed,Implemented and managed
R057,05 - NETWORKS ,Breakdown or network unavailability,"Non-existent or inadequate network management and monitoring measures (capacity, bandwidth, traffic, routing, etc.).",5,5,25,A.12.1.3,"Flexport defines availability monitoring alert criteria, how alert criteria will be flagged, and identifies authorized personnel for flagged system alerts.

Critical systems are monitored in accordance to predefined availability criteria and alerts are sent to authorized personnel.",Implemented and managed,3,1,3,M,L,H,9,Mitigate Risk,A.12.1.3,1,1,1,Managed,Implemented and managed
R080,07 - APPLICATIONS,Inadequate system access control,Non-existent or inadequate password management process or controls,5,5,25,"A.9.2.4
A.9.3.1
A.9.4.2
A.9.4.3",IAM-10 User and device authentication to information systems is protected by passwords that meet Flexport's password complexity requirements. Flexport requires system users to change passwords [in accordance with the organization-defined frequency].,Implemented and managed,1,1,1,L,L,H,6,Accept Risk,No action plans needed at this time,1,1,1,Managed,Implemented and managed
R058,05 - NETWORKS ,"Systems and/or network attacks (ex: DDoS, spoofing, etc.)",Non-existent or inadequate network routing controls,5,5,25,"A.13.1.1
A.13.1.2
A.13.1.3","Flexport has established a Network Security Policy covering management, services, controls, administration, and authorization. Access to the production environment hosted within AWS requires a VPN (OpenVPN) to establish a secure connection between the end-user and production prior to gaining access to any server. 

Note: By default, the AWS network utilizes a combination of VPCs, subnets and security groups to control ingress/egress rules.  Each VPCs, subnet, and EC2 instance gets assigned Security Groups which is default deny-all unless explicitly authorized.  These logs are provided in Cloudwatch which is configured to send the data to Sumo Logic.  In addition, AWS Guard Duty is utilized to further provide intelligent threat detection and continuous monitoring.",Implemented and managed,3,1,3,M,L,H,9,Mitigate Risk,"A.13.1.1
A.13.1.2
A.13.1.3",1,1,1,Managed,Implemented and managed
R082,07 - APPLICATIONS,Inadequate system access control,Non-existent or inadequate authentication methods and controls,5,5,25,"A.9.3.1
A.9.4.2","IAM-12 Information systems are configured to terminate inactive sessions after [the organization-defined duration] or when the user terminates the session.

IAM-13 Users are locked out of information systems after multiple, consecutive invalid attempts within a defined period; Accounts remain locked for a defined period.",Implemented and managed,1,1,1,L,L,H,6,Accept Risk,No action plans needed at this time,1,1,1,Managed,Implemented and managed
R060,05 - NETWORKS ,Breakdown or network unavailability,Non-existent or inadequate incident management process,5,5,25,A.17.2.1,"Flexport defines the types of incidents that need to be managed, tracked and reported, including:
 - procedures for the identification and management of incidents
 - procedures for the resolution of confirmed incidents
 - key incident response systems
 - incident coordination and communication strategy
 - contact method for internal parties to report incidents
 - support team contact information
 - notification to relevant management in the event of a security breach
 - provisions for updating and communicating the plan
 - provisions for training of support team
 - preservation of incident information
 - management review and approval, [in accordance with frequency], or when major changes to the organization occur""",Implemented and managed,3,1,3,M,L,H,9,Mitigate Risk,A.17.2.1,3,1,3,Managed,Implemented and managed
R065,06 - INFRASTRUCTURE,Inadequate system access control,Non-existent or inadequate authentication methods and controls,5,5,25,"A.9.3.1
A.9.4.2","IAM-12 Information systems are configured to terminate inactive sessions after [the organization-defined duration] or when the user terminates the session.

IAM-13 Users are locked out of information systems after multiple, consecutive invalid attempts within a defined period; Accounts remain locked for a defined period.",Implemented but not managed,5,1,5,M,L,L,9,Mitigate Risk,"A.9.3.1
A.9.4.2",1,1,1,Managed,Implemented and managed
R086,07 - APPLICATIONS,Inadequate event detection and monitoring,Non-existent or inadequate protection of log information,5,5,25,"A.12.4.1
A.12.4.2
A.12.4.3",Flexport logs critical information system activity to a secure repository. Flexport disables administrators ability to delete or modify enterprise audit logs; the number of administrators with access to audit logs is limited.,Implemented and managed,1,1,1,L,L,M,5,Accept Risk,No action plans needed at this time,1,1,1,Managed,Implemented and managed
R087,07 - APPLICATIONS,Inadequate system operation and configuration,System requirements and specifications inadequately or incorrectly defined ,5,5,25,A.14.1.1,A Security Engineering Review process has been implemented for new features or significant changes to the production environment to identify security-related risks early in the project lifecycle.,Implemented and managed,1,1,1,L,L,M,5,Accept Risk,No action plans needed at this time,1,1,1,Managed,Implemented and managed
R088,07 - APPLICATIONS,Inadequate system operation and configuration,"Information involved in application services passing over public networks shall be protected from fraudulent activity, contract dispute and unauthorized disclosure and modification",5,4,20,A.14.1.2,[Restricted (as defined by the organization's data classification criteria)] data that is transmitted over public networks is encrypted using industry standards.,Implemented and managed,1,1,1,M,M,M,7,Accept Risk,No action plans needed at this time,1,1,1,Managed,Implemented and managed
R089,07 - APPLICATIONS,Inadequate system operation and configuration,Non-existent or inadequate processing for on-line service transactions,5,4,20,A.14.1.3,[Restricted (as defined by the organization's data classification criteria)] data that is transmitted over public networks is encrypted using industry standards.,Implemented and managed,1,1,1,L,L,M,5,Accept Risk,No action plans needed at this time,1,1,1,Managed,Implemented and managed
R090,07 - APPLICATIONS,Inadequate system operation and configuration,Secure development processes and practices,5,4,20,"A.14.2.1
A.14.2.5",A Security Engineering Review process has been implemented for new features or significant changes to the production environment to identify security-related risks early in the project lifecycle.,Implemented and managed,4,1,4,L,H,M,10,Accept Risk,No action plans needed at this time,3,1,3,Managed,Implemented and managed
R104,09 - INTANGIBLES,"Noncompliance with legal, regulatory and contractual requirements",Non-existent or inadequate privacy controls,5,5,25,A.18.1.4,"In accordance with Flexport policy, Flexport provides notice to individuals regarding legally-required disclosures of personal information.

In compliance with Flexport policy, Flexport reviews privacy-related inquiries, complaints, and disputes.

Flexport performs privacy readiness reviews to identify high-risk processing activities that impact personal data; identified non- compliance with Flexport privacy practices is tracked through remediation.",Implemented but not managed,3,2,6,H,L,M,12,Mitigate Risk,A.18.1.4,1,1,1,Defined,Implemented and managed
R092,07 - APPLICATIONS,Inadequate system operation and configuration,Non-existent or inadequate software testing and validation,5,5,25,"A.14.2.8
A.14.2.9",Application and infrastructure changes made to the production environment are tested and approved prior to implementation.,Implemented and managed,4,1,4,M,M,M,10,Mitigate Risk,"A.14.2.8
A.14.2.9",3,1,3,Managed,Implemented and managed
R093,08 - THIRD PARTIES,Unauthorized disclosure of information,Lack of nondisclosure agreements within third party relationships,5,3,15,"A.7.1.2
A.13.2.4
A.15.1.1
A.15.1.2
A.15.1.3",Signed nondisclosure agreements are required before sharing information designated as confidential with third parties.,Implemented and managed,1,1,1,M,H,H,9,Accept Risk,No action plans needed at this time,1,1,1,Managed,Implemented and managed
R094,08 - THIRD PARTIES,Unauthorized or inappropriate use of resources.,Non-existent or inadequate access privileges definition (profile based) for the supporting applications related to production.,5,5,25,"A.9.1.2
A.9.2.1
A.9.2.2
A.9.2.3
A.9.4.1","Pre-defined access groups are utilized to assign authorized role-based access privileges as a component of the onboarding process to corporate and production resources, and segregate access to data based on job function.",Implemented and managed,2,2,4,L,L,H,9,Accept Risk,No action plans needed at this time,2,1,2,Managed,Implemented and managed
R095,08 - THIRD PARTIES,Unauthorized or inappropriate use of resources.,Non-existent or inadequate supporting applications related to production user provisioning procedures,5,5,25,"A.9.2.1
A.9.2.2
A.9.2.4",Logical access provisioning to information systems requires approval from appropriate personnel.,Implemented and managed,1,1,1,L,L,M,5,Accept Risk,No action plans needed at this time,1,1,1,Managed,Implemented and managed
R096,08 - THIRD PARTIES,Inadequate system access control,Non-existent or inadequate password management process or controls,5,5,25,"A.9.2.4
A.9.3.1
A.9.4.2
A.9.4.3",User and device authentication to information systems is protected by passwords that meet Flexport's password complexity requirements. Flexport requires system users to change passwords [in accordance with the organization-defined frequency].,Implemented and managed,1,1,1,L,L,H,6,Accept Risk,No action plans needed at this time,1,1,1,Managed,Implemented and managed
R097,08 - THIRD PARTIES,Inadequate system access control,Non-existent or inadequate procedure to review systems access privileges,5,5,25,"A.9.2.5
A.9.2.6",Flexport performs account and access reviews quarterly; corrective action is taken where applicable.,Implemented and managed,1,1,1,M,L,H,7,Accept Risk,No action plans needed at this time,1,1,1,Managed,Implemented and managed
R098,08 - THIRD PARTIES,Inadequate system access control,Non-existent or inadequate authentication methods and controls,5,5,25,"A.9.3.1
A.9.4.2","Information systems are configured to terminate inactive sessions after [the organization-defined duration] or when the user terminates the session.

Users are locked out of information systems after multiple, consecutive invalid attempts within a defined period; Accounts remain locked for a defined period.",Implemented and managed,1,1,1,L,L,H,6,Accept Risk,No action plans needed at this time,1,1,1,Managed,Implemented and managed
R099,08 - THIRD PARTIES,Unauthorized access to facilities and/or information assets,Non-existent or inadequate risk assessment process for third parties.,5,5,25,"A.15.1.2
A.15.1.3","Policies are in place to define requirements for performing security due diligence prior to accepting new vendors, defining vendor security requirements within contractual agreements, and vendor monitoring criteria based on risk.",Implemented but not managed,4,1,4,H,H,H,13,Accept Risk,No action plans needed at this time,3,1,3,Managed,Implemented and managed
R100,08 - THIRD PARTIES,Unauthorized access to facilities and/or information assets,Non-existent or inadequate security responsibility declarations within third party contracts or agreements,5,3,15,"A.15.1.1
A.15.1.2
A.15.1.3
A.15.2.1
A.15.2.2
A.18.1.1","Policies are in place to define requirements for performing security due diligence prior to accepting new vendors, defining vendor security requirements within contractual agreements, and vendor monitoring criteria based on risk.",Implemented and managed,4,1,4,M,L,L,8,Accept Risk,No action plans needed at this time,3,1,3,Managed,Implemented and managed
R007,01 - PERSONNEL,Undefined or uncommunicated information security responsibilities.,Non-existent or inadequate information security awareness and training program.,4,4,16,A.7.2.2,"[Workforce personnel as defined by the organization] complete security awareness training, which includes updates about relevant policies and how to report security events to the authorized response team. Records of training completion are documented and retained for tracking purposes.",Implemented but not managed,3,1,3,M,L,L,7,Mitigate Risk,A.7.2.2,2,1,2,Managed,Implemented and managed
R102,09 - INTANGIBLES,"Noncompliance with legal, regulatory and contractual requirements",Non-existent or inadequate procedures to properly manage Intellectual Property,5,5,25,A.18.1.2,"Flexport has implemented a formal Compliance policy prohibiting the use of unlicensed protected materials and intellectual property. In addition, a PIIA and an AUP are in place. NDAs are required by legal as needed.

Flexport maintains software license contracts and monitors its compliance with usage restrictions.",Implemented and managed,1,1,1,M,L,L,5,Accept Risk,No action plans needed at this time,1,1,1,Managed,Implemented and managed
R010,01 - PERSONNEL,Unauthorized or inappropriate use of resources,Non-existent or inadequate termination or role-change procedures.,5,4,20,"A.7.3.1
A.8.1.4
A.9.2.6","Logical access that is no longer required in the event of a termination is documented, communicated to appropriate personnel, and revoked.",Implemented but not managed,3,1,3,H,M,L,9,Mitigate Risk,"A.7.3.1
A.8.1.4
A.9.2.6",1,1,1,Managed,Implemented and managed
R101,08 - THIRD PARTIES,Inadequate or ineffective third party governance,Lack of adequate controls and oversight of third party providers,4,3,12,"A.15.2.1
A.15.2.2","Policies are in place to define requirements for performing security due diligence prior to accepting new vendors, defining vendor security requirements within contractual agreements, and vendor monitoring criteria based on risk.",Implemented and managed,4,1,4,H,M,M,11,Mitigate Risk,"A.15.2.1
A.15.2.2",3,1,3,Defined,Implemented and managed
R105,09 - INTANGIBLES,"Noncompliance with legal, regulatory and contractual requirements",Non-existent or inadequate cryptographic controls,4,3,12,A.18.1.5,Flexport follows Cyrptographic standards and key management controls in alignment with regulatory requirements where relevant. The security team must approve the encryption technologies being used. Access to the front-end application is performed over TLS/HTTPS for secure communication.,Implemented and managed,4,1,4,M,L,L,8,Accept Risk,No action plans needed at this time,3,1,3,Managed,Implemented and managed
R106,09 - INTANGIBLES,Loss of reputation or goodwill,Non-existent or inadequate procedure to manage internal and external audits of ISMS.,4,3,12,"A.18.2.1
A.18.2.2","Flexport establishes internal audit requirements and executes audits on information systems and processes [in accordance with the organization-defined frequency].

Internal audit establishes and executes a plan to evaluate applicable controls in the Information Security Management System (ISMS) at least once every 3 years.",Implemented but not managed,2,1,2,M,M,M,8,Accept Risk,No action plans needed at this time,1,1,1,Managed,Implemented and managed
R076,06 - INFRASTRUCTURE,Inadequate system access control or systems not available,Non-existent or inadequate vulnerability management process,5,5,25,"A.12.6.1
A.12.6.2","Flexport has an Intrusion Detection System (IDS) or Intrusion Prevention System (IPS) deployment(s) and ensures the following: 
 - signature definitions are updated including the removal of false positive signatures
 - non-signature based attacks are defined
 - IDS/IPS are configured to capture malicious (both signature and non-signature based) traffic
 - alerts are reviewed and resolved by authorized personnel when malicious traffic is detected",Implemented but not managed,3,2,6,H,H,H,15,Mitigate Risk,"A.12.6.1
A.12.6.2",1,1,1,Managed,Implemented and managed