Identifier,Business Critical,Function-Crit,App Model,Application Support Volume,Support Model,PSR Wave,Type,Ascena Product Name,Maurices Product Name (post PSR and TSA),Business Service, Function,Application Location,"Current Version
(Ascena) ","Future Version
(Maurices)",Reference URL (If Any),Remarks
100090,,,,,,,Custom Apps,box.com,Microsoft O365,IT Services,,,,,box.com,Replace with Teams
100018,,,,,,,Custom Apps,THUB/Pre-Audit Processing,THUB/Pre-Audit Processing,Finance,Transation Hub,On Premise,,,,Currently under discussion with Oracle to assess the existing ReSA product. Upon confirmation this functionality will be moved to to Merchandise track
100167,,,,,,,Custom Apps,Store/Style Inquiry,Store/Style Inquiry,Analytics Services,#N/A,,,,,Deeper understanding in Discovery phase
100168,,,,,,,Custom Apps,Used to support T12/T3 reporting,Used to support T12/T3 reporting,Analytics Services,,,,,http://prod.maurices.com/rollingtotals,
100169,,,,,,,Custom Apps,Vendor Analysis,Vendor Analysis,Analytics Services,may be inventory,,,,,"Todd confirmed Julie Plys, custom code written , needs to check
[8/25] RMS feeds data but the application resides within RDW database. So, it should be included in RDW scope. Todd confirmed on 7/14 that ""Vendor Analysis"" is being handled by PSRT 12 so it should be mapped to PSRT12
[9/9] Cindy confirmed this is mapped to PSRT12"
100182,,,,,,,Custom Apps,Assortment Planning,Assortment Planning,Merchandising Services,Plannning,On Premise,,,http://apps.maurices.com/aptool_ui/,
100183,,,,,,,Custom Apps,Combo Upload,Combo Upload,Merchandising Services,Planning/Allocation,On Premise,,,,
100184,,,,,,,Custom Apps,Commercial Invoice,Commercial Invoice,Merchandising Services,Merchandising,On Premise,,,,
100186,,,,,,,Custom Apps,Effective /Allow Dates,Effective /Allow Dates,Merchandising Services,MDO,On Premise,,,http://l02pwappweb01/MDO_Effective_Date_Prod/LoginT.aspx,
100187,,,,,,,Custom Apps,Effective Discount Rates,Effective Discount Rates,Merchandising Services,MDO,On Premise,,,http://l02pwappweb01/MDO_Effective_Discount_Rate_Prod/LoginT.aspx,
100188,,,,,,,Custom Apps,Gift Card/Non Merchandise Item Creation,Gift Card/Non Merchandise Item Creation,Merchandising Services,Merchandising,On Premise,,,"http://prod.maurices.com/eco_NonMerch_ui/AddGiftCard.aspx         & http://prod.maurices.com/eco_NonMerch_ui/Default.aspx
",
100189,,,,,,,Custom Apps,Interstore Transfer Requests,Interstore Transfer Requests,Merchandising Services,Merchandising,On Premise,,,http://prod.maurices.com/mtf0300/interstore_open.aspx,
100190,,,,,,,Custom Apps,Location Attribute Upload,Location Attribute Upload,Merchandising Services,Planning/Allocation,On Premise,,,,
100191,,,,,,,Custom Apps,Merchandise Check-in,Merchandise Check-in,Merchandising Services,Merchandising,On Premise,,,,"Store Inventory Lookup and Transit - Custom App, Tt is not a separate application. It is part of ""Merchandise check-in""
[9/9] Scope Covered in ""Merch Check-in"""
100192,,,,,,,Custom Apps,Model Upload,Model Upload,Merchandising Services,Planning/Allocation,On Premise,,,,
100193,,,,,,,Custom Apps,Non-Merchandise Interface,Non-Merchandise Interface,Merchandising Services,,On Premise,,,http://prod.maurices.com/eco_NonMerch_ui/Default.aspx,
100195,,,,,,,Custom Apps,PO Secondary Approval,PO Secondary Approval,Merchandising Services,Merchandising,On Premise,,,,
100196,,,,,,,Custom Apps,Sample Turn In and Allocation Guide,Sample Turn In and Allocation Guide,Merchandising Services,Merchandising,On Premise,,,http://prod.maurices.com/STAG/Login.aspx,
100198,,,,,,,Custom Apps,Stock Count Adjustments,Stock Count Adjustments,Merchandising Services,Merchandising,On Premise,,,http://prod.maurices.com/mrk5525/default.aspx,
100199,,,,,,,Custom Apps,Store Attributes,Store Attributes,Merchandising Services,Merchandising,On Premise,,,,
100203,,,,,,,Custom Apps,User Dept & Role Support,User Dept & Role Support,Merchandising Services,Merchandising,On Premise,,,,Confirmed under Merch Track
100204,,,,,,,Custom Apps,Web Service for Merchandise Transfers,Web Service for Merchandise Transfers,Merchandising Services,,On Premise,,,http://prod.maurices.com/wsTransfers,
100208,,,,,,,Custom Apps,POS Events,POS Events,Merchandising Services,#N/A,On Premise,,,http://prod.maurices.com/mfj2000/eventsmenu.aspx,"Track ownership mentioned by BA after discussions with Ascena team during Merch Discovery sessions 
Original Supp C mapped this to PSRT-17_POS_StoreSystem, but during Prepare phase, it was decided to include in PSRT13
[9/9] Keep it in PSRT-13_Merchandising"
100253,,,,,,,Custom Apps,Ecomm,Ecomm,eComm Services,,,,,,http://prod.maurices.com/ecomm
100254,,,,,,,Custom Apps,Ecommerce Site,Ecommerce Site,eComm Services,,,,,,https://www.maurices.com/
100306,,,,,,,Custom Apps,3-Digit Sales ID List,3-Digit Sales ID List,Store Systems Services,,Retain,,,,http://stores.maurices.com/Apps/MPS8300/Webform1.aspx
100307,,,,,,,Custom Apps,ADP Employee and Manager Self Service,ADP Employee and Manager Self Service,Store Systems Services,,Shutdown,,,,http://stores.maurices.com/kiosklinks/ADP.lnk
100308,,,,,,,Custom Apps,Annual Reviews,Annual Reviews,Store Systems Services,,Shutdown,,,,http://stores.maurices.com/Kiosklinks/annualreviews.lnk
100309,,,,,,,Custom Apps,ATG AOS Test,ATG AOS Test,Store Systems Services,,Shutdown,,,,http://stores.maurices.com/kiosklinks/atgaosff.lnk
100310,,,,,,,Custom Apps,ATG SInF Test,ATG SInF Test,Store Systems Services,,Shutdown,,,,http://stores.maurices.com/kiosklinks/atgsinfff.lnk
100311,,,,,,,Custom Apps,Check Meter,Check Meter,Store Systems Services,,Shutdown,,,,http://stores.maurices.com/checkmeter
100312,,,,,,,Custom Apps,CustomerCenter,CustomerCenter,Store Systems Services,,Retain,,,,
100313,,,,,,,Custom Apps,"District Manager Reports Location, similar to Stores","District Manager Reports Location, similar to Stores",Store Systems Services,,Retain,,,,http://prod.maurices.com/dmreport
100316,,,,,,,Custom Apps,Interstore Transfer Document to Delete,Interstore Transfer Document to Delete,Store Systems Services,,Retain,,,,http://stores.maurices.com/MPS5111/
100317,,,,,,,Custom Apps,Inventory Management and Rummage and Transfers for Stores,Inventory Management and Rummage and Transfers for Stores,Store Systems Services,,Retain,,,,http://prod.maurices.com/mtf0500
100318,,,,,,,Custom Apps,Item Lookup,Item Lookup,Store Systems Services,,Retain,,,,"http://<register_url>/POS0100
http://<some_url>/POS0100BO"
100319,,,,,,,Custom Apps,MDO version of WSPOSStaging,MDO version of WSPOSStaging,Store Systems Services,,Retain,,,,http://prod.maurices.com/MDO_WSPOSStaging
100320,,,,,,,Custom Apps,Online Order/Store (Maurices My Way) ,Online Order/Store (Maurices My Way) ,Store Systems Services,,Retain,,,,
100321,,,,,,,Custom Apps,our collective voices,our collective voices,Store Systems Services,,Shutdown,,,,https://app.glintinc.com/q/ascena/#/attribute-login/e996b26c-29ff-4979-8066-4e093fefd178
100322,,,,,,,Custom Apps,Points to store reports?,Points to store reports?,Store Systems Services,,Retain,,,,http://prod.maurices.com/reports
100323,,,,,,,Custom Apps,POS Associate Web Service,POS Associate Web Service,Store Systems Services,,Retain,,,,http://prod.maurices.com/wsPOSAssoc
100324,,,,,,,Custom Apps,POS Constants Web Service,POS Constants Web Service,Store Systems Services,,Retain,,,,http://prod.maurices.com/wsPOSConstants
100325,,,,,,,Custom Apps,POS Staging Web Service,POS Staging Web Service,Store Systems Services,,Retain,,,,http://prod.maurices.com/wsposstaging
100326,,,,,,,Custom Apps,POS ToolKit,POS ToolKit,Store Systems Services,#N/A,Retain,,,,
100327,,,,,,,Custom Apps,POS ToolKit (MDO Version),POS ToolKit (MDO Version),Store Systems Services,,Retain,,,,http://prod.maurices.com/MDO_POS0300
100328,,,,,,,Custom Apps,Regional Manager Reports?,Regional Manager Reports?,Store Systems Services,,Retain,,,,http://prod.maurices.com/RSMReports
100329,,,,,,,Custom Apps,RetailZipline,RetailZipline,Store Systems Services,,Retain,,,,
100330,,,,,,,Custom Apps,Sales Audit Cash Count,Sales Audit Cash Count,Store Systems Services,,Retain,,,,http://stores.maurices.com/MPS5112/
100331,,,,,,,Custom Apps,Similar to store reports?,Similar to store reports?,Store Systems Services,,Retain,,,,http://prod.maurices.com/fieldreports
100332,,,,,,,Custom Apps,Store Information and Events,Store Information and Events,Store Systems Services,,Retain,,,,http://stores.maurices.com/apps/MDN0100/events.aspx
100334,,,,,,,Custom Apps,Store Promotions,Store Promotions,Store Systems Services,#N/A,Retain,,,,
100335,,,,,,,Custom Apps,Store Reporting,Store Reporting,Store Systems Services,#N/A,Retain,,,,
100336,,,,,,,Custom Apps,Store Search (New),Store Search (New),Store Systems Services,,Retain,,,,https://api.maurices.com/static/store_browser
100338,,,,,,,Custom Apps,Store Signing Request,Store Signing Request,Store Systems Services,,Retain,,,,https://store.serviceprinters.com/DSF/SmartStore.aspx?6xni2of2cF2ezNX5hqo+mjNtvFGGwElxlidR+kz1e9xsdoS26NizJndewRjF7wS6#!/Storefront
100339,,,,,,,Custom Apps,Stores - Damaged Merchandise,Stores - Damaged Merchandise,Store Systems Services,,Retain,,,,http://stores.maurices.com/mps5100/default.aspx
100342,,,,,,,Custom Apps,Supply Ordering System - Schwarz,Supply Ordering System - Schwarz,Store Systems Services,,Shutdown,,,,http://stores.maurices.com/kiosklinks/schwarz.lnk
100343,,,,,,,Custom Apps,Traffic Count Adjustments,Traffic Count Adjustments,Store Systems Services,#N/A,Retain,,,,
100344,,,,,,,Custom Apps,Inventory Management and Rummage,Inventory Management and Rummage,Store Systems Services,Merchandising,Retain,,,,http://prod.maurices.com/mtf0400/
100348,,,,,,,Custom Apps,Active Directory Web Service API,Active Directory Web Service API,Integration Services,Web Service integration for Custom Apps,Retain,Cloud,,,http://prod.maurices.com/wsactivedirectory
100349,,,,,,,Custom Apps,API Homepage,API Homepage,Integration Services,,,,,,http://api.maurices.com
100350,,,,,,,Custom Apps,Centralized Authentication for some web apps,Centralized Authentication for some web apps,Integration Services,,,,,,http://prod.maurices.com/OracleLogin
100351,,,,,,,Custom Apps,DevOps Portal,DevOps Portal,Integration Services,,,,,,http://devops/
100352,,,,,,,Custom Apps,Generic Permission Denied page,Generic Permission Denied page,Integration Services,,,,,,http://prod.maurices.com/securitypage
100353,,,,,,,Custom Apps,MAD Page,MAD Page,Integration Services,,,,,,http://prod.maurices.com/MADPage/default2.aspx
100354,,,,,,,Custom Apps,Main Web App Test Site for older apps,Main Web App Test Site for older apps,Integration Services,,,,,,http://test.maurices.com
100355,,,,,,,Custom Apps,NuGet (ProGet),NuGet (ProGet),Integration Services,,,,,,http://devops:81/
100356,,,,,,,Custom Apps,On Call Information,On Call Information,Integration Services,,,,,,http://devops/oncall
100357,,,,,,,Custom Apps,"Web Reference for ""S:\maurices"" Share?","Web Reference for ""S:\maurices"" Share?",Integration Services,,,,,,http://prod.maurices.com/SMauricesShare
100358,,,,,,,Custom Apps,Web Service Interface to Purolator Vendor,Web Service Interface to Purolator Vendor,Integration Services,,,,,,http://prod.maurices.com/wsPurolator
100359,,,,,,,Custom Apps,Web Service Interface to UPS,Web Service Interface to UPS,Integration Services,,,,,,http://prod.maurices.com/wsUPS