Identifier,Business Critical,Function-Crit,App Model,Application Support Volume,Support Model,PSR Wave,Type,Ascena Product Name,Maurices Product Name (post PSR and TSA),Business Service, Function,"Current Status
(Maurices)",Application Location,"Current Version
(Ascena) ","Future Version
(Maurices)",Reference URL (If Any),Remarks
100209,,,,,,,Application,Adobe Analytics,Adobe Analytics,eComm Services,Website Analytics,Retain,SAAS,JS 2.6.0,,,"Customer enagement metrics are prepared.  Tag stiching is done by Allant. weAnalytics are done.  Epslon bridge is feeding to Adobe in future. Google analytics might be one of the options to consider around this area, move to google 360  would need to rewire the site and rebuild history for a LY compares"
100210,,,,,,,Application,Adobe Scene 7,Adobe Scene 7,eComm Services,Image Management,Retain,SAAS,0,,,"Image repository , would need to find a new image repository"
100211,,,,,,,Application,Adobe Test & Target,Adobe Test & Target,eComm Services,#N/A,Retain,SAAS,v1.7.1,,,"Injest dif content from IP Range , A/B testing / content testing/personalisation tool, business is aligned to replace"
100212,,,,,,,Application,Akamai,Akamai,eComm Services,CDN and Site Optimization,Retain,SAAS,0,,,"Content delivery mgt , Akamai mostly continued. "
100213,,,,,,,Application,akamai bot,akamai bot,eComm Services,CDN Optiomization,,,,,,Bot manager to manage interactions
100214,,,,,,,Application,Alliance Data Services (PLCC),Alliance Data Services (PLCC),eComm Services,PLCC Provider,Retain,,0,,,"provide private label credit card, vendor. Already standlone with them. Integration with payment gateway, sign up, e-commerce and customer data movement. Needs to tagged around customer sign up area "
100215,,,,,,,Application,Applause,Applause,eComm Services,ADA audit vendor,Shutdown,3rd Party,0,,,no integration exists as per initial observation. They audit site and provide info. Audit complaince needs to be tracked. May be Jira. Customer not planned to engage this vendor for ADA Testing
100216,,,,,,,Application,Auth/Settle eComm (CYBS),Auth/Settle eComm (CYBS),eComm Services,,,,,,,eComm - Integrated with E-commerce. May be there or may be not. Cyber source - auth proivder for ecomm
100217,,,,,,,Application,BazaarVoice conversations,BazaarVoice conversations,eComm Services,Ratings/Reviews,Retain,SAAS,v12.13.0,,,ratings and reviews 2 instance running on the site in May (employee and customers)
100218,,,,,,,Application,BazaarVoice curations,BazaarVoice curations,eComm Services,Ratings/Reviews,Retain,SAAS,v12.13.0,,,"ugc for social media, social media curation"
100219,,,,,,,Application,BounceExchange,BounceExchange,eComm Services,Re-Targeting,Shutdown,SAAS,0,,,"no longer used, behavioral targeting - would like to consolidate in June with Dynamic Yield"
100220,,,,,,,Application,Capital One Financial (PLCC),Capital One Financial (PLCC),eComm Services,PLCC Provider,Shutdown,,0,,,no longer used
100221,,,,,,,Application,CommerceHub,CommerceHub,eComm Services,#N/A,Shutdown,SAAS,0,,,"no longer used, validate when business is decomming service"
100222,,,,,,,Application,Criteo,Criteo,eComm Services,Display Ads,Shutdown,SAAS,0,,,"tag injestion method is used to provide data. Needs to validate on usage, EOL 10/16, move to Google or shutdown, validate if business is happy with/using product"
100223,,,,,,,Application,Cybersource,Cybersource,eComm Services,Payment Gateway,Retain,SAAS,0,,,payment gateway
100224,,,,,,,Application,Datalogix,Datalogix,eComm Services,,Shutdown,On Premise,,,,"Todd confirmed this is not in use, out of scope"
100225,,,,,,,Application,Decibel,Decibel,eComm Services,session manager and session playback,Shutdown,SAAS,5.2.3.9,,,"decommissioned for Maurices in Feb 2020. Pls validate, session manager and session playback (connected to Adobe)"
100226,,,,,,,Application,Discovery platform(Ovative),Discovery platform(Ovative),eComm Services,,Shutdown,On Premise,,,,"Todd confirmed this is not in use, out of scope"
100227,,,,,,,Application,dynamic yield,dynamic yield,eComm Services,personalization engine,retain,SAAS,latest version,,,will continue in new world at maurices. APT is in place along with it.  We are already sending data to APT. personalizati and recommedation engine. It will continue to exist.No effort by TCS - Recommendations Vendor 1/1/20
100228,,,,,,,Application,DynaTrace ,DynaTrace ,eComm Services,real and synthetic user monitoring,Retain,SAAS,n/a,,,"will continue to be configured, real and synthetic user monitoring"
100229,,,,,,,Application,Ensighten (manage),Ensighten (manage),eComm Services,Tag Manager,Retain,SAAS,v2_20191031,,,"will continue, Tag Manager, consolidate only if massive move to Adobe/Google"
100230,,,,,,,Application,Ensighten (pulse),Ensighten (pulse),eComm Services,Analytics ,Retain,SAAS,0,,,"not yet gone, might be in future. Bridge sow has dependency.  Integration through ensighten. Validate In discovery, Analytics to stitch digital to offline CRM data (could replace when Epsilon)"
100231,,,,,,,Application,Feedonomics,Feedonomics,eComm Services,Feed manipulator,Retain,SAAS,latest version,,,"replaces commercehub. Feed out of FMW (mercent feed integration, mercent became commercehub.part of Tinuiti service offering"
100232,,,,,,,Application,Flipp,Flipp,eComm Services,digitized printed mailer,Shutdown,SAAS,latest version,,,"no longer used, digitized printed mailer"
100233,,,,,,,Application,Google Analytics,Google Analytics,eComm Services,Analytics ,,,,,,"we are installing google analytics. Google Ads, fail safe for Adobe. Tag injestion. It will co-exist along with Adobe analytics."
100234,,,,,,,Application,Google/Facebook/Twitter,Google/Facebook/Twitter,eComm Services,paid ads ,Retain,SAAS,0,,,"paid ads - google, facebook. Pixels injested. Twitter please validate. Ingration feed back to CRM needs validation"
100235,,,,,,,Application,InMoment,InMoment,eComm Services,Voice of Customer,Retain,SAAS,0,,,"customer feedback. We get survery results from stores, feedback tag injestion, Customer Feedback Surveys"
100236,,,,,,,Application,liveclicker,liveclicker,eComm Services,e-mail,retain,SAAS,latest version,,,"dynamic content in e-mails, No effort by TCS - Dynamic Content for Emails"
100237,,,,,,,Application,LiveRamp,LiveRamp,eComm Services,Decision Support Tool,Retain,SAAS,latest version,,,"print media and profiling - talk to christine and renie, media audience targeting and modeling (crm data fed analytics)"
100238,,,,,,,Application,Narvar,Narvar,eComm Services,Rapid Returns,Retain,SAAS,0,,,E-commerce systems used in Distribution center. Will continue
100239,,,,,,,Application,ObservePoint,ObservePoint,eComm Services,Web Tag Monitoring,Shutdown,SAAS,n/a,,,"no longer used, replaced with inMomment, Customer Journey and Tag Monitoring, looking to replace later this year"
100240,,,,,,,Application,"Oracle ATG (BCC, Endeca, Experience Manager)","Oracle ATG (BCC, Endeca, Experience Manager)",eComm Services,"move is separation of rack space, Extended Support Required",Retain,On Premise,v11,,,"move is separation of rack space, Extended Support Required"
100241,,,,,,,Application,Oracle Right Now,Oracle Right Now,eComm Services,Incident Management,Retain,SAAS,v19A,,,"carecenter / customer service platform. Stay with care team. Basically e-commerce customer call center, may want to consolidate Incident Tracking in the future"
100242,,,,,,,Application,PayPal/Google/Applepay,PayPal/Google/Applepay,eComm Services,Alternative Tender,Retain,,n/a,,,"we may not do google pay. Needs to validate. Visa check out is there - do not use. Pls validate. Paypal and ApplePay-  yes we use it. Pls validate, PART OF THE POS SCOPE OF WORK, NonTraditional Tender"
100243,,,,,,,Application,Pixelz,Pixelz,eComm Services,Image Editor,Shutdown, , ,,,no longer used. Image editing and clipping bacground.Remove background from images - removing this contract as we go away from Amazon
100244,,,,,,,Application,QAS,QAS,eComm Services,Address Verification,Retain,SAAS, ,,,QAS may be going away and we might use Vertex address verification system.leave as is unless we consolidate with existing software
100245,,,,,,,Application,Rakuten/LinkShare ,Rakuten/LinkShare ,eComm Services,"Paid Media, Decision Support Tool",Retain,,,,,"Rakuten/LinkShare - platform for paid media affiliates, Linkshare/Affiliate Markerting"
100246,,,,,,,Application,Reflektion,Reflektion,eComm Services,,Shutdown,SAAS,v4.2,,,"Product recommendations - no long used. Replaced with dynamic yield,On choping block, consolidating with Dynamic Yield"
100247,,,,,,,Application,Sprinklr,Sprinklr,eComm Services,Social Media Marketing,Retain,SAAS,0,,,we use it for social media marketing. Social media posting by the customer center (could consolidate with BazaarVoice)
100248,,,,,,,Application,Stylitics,Stylitics,eComm Services,Outfitting,Retain,SAAS,v2,,,outfit recommendations
100249,,,,,,,Application,Talkable,Talkable,eComm Services,Refer a Friend,Retain,SAAS,0,,,"yes, it exists, Refer a Friend"
100250,,,,,,,Application,Tinuiti,Tinuiti,eComm Services,Marketing agency,,,,,,they get feeds via integraiton
100251,,,,,,,Application,XC Commerce,XC Commerce,eComm Services,Events Engine,Retain,SAAS,4.26,,,"promotions engine, integrations do exist"
100252,,,,,,,Application,Yext,Yext,eComm Services,Store Locator,Retain,SAAS,latest version,,,"integration in the forms of DNS, Cnames etc. network admin. Feeds from RMS might be going to them. Store Location/Local Search"
100253,,,,,,,Custom Apps,Ecomm,Ecomm,eComm Services,,,,,,http://prod.maurices.com/ecomm,
100254,,,,,,,Custom Apps,Ecommerce Site,Ecommerce Site,eComm Services,,,,,,https://www.maurices.com/,