Id,Status
313308896,Active
313312641,Active
401005956,Active
401005967,Active
401006185,Active
401006203,Active
483518923,Active
219107849,Active
219995381,Active
219995432,Active
219995664,Active
313308148,Active
313308152,Active
313308153,Active
313308154,Active
313308156,Active
313308165,Active
313308182,Active
313308200,Active
313308229,Active
313308262,Active
313308279,Active
313308283,Active
313308296,Active
313308327,Active
313308329,Active
313308352,Active
313308382,Active
313308386,Active
313308417,Active
313308467,Active
313308489,Active
313308495,Active
313308496,Active
313308513,Active
313308516,Active
313308525,Active
313308528,Active
313308532,Active
313308576,Active
313308577,Active
313308591,Active
313308593,Active
313308598,Active
313308607,Active
313308620,Active
313308629,Active
313308630,Active
313308662,Active
313308667,Active
313308674,Active
313308678,Active
313308679,Active
313308680,Active
313308692,Active
313308697,Active
313308706,Active
313308712,Active
313308720,Active
313308729,Active
313308733,Active
313308738,Active
313308762,Active
313308826,Active
313308864,Active
313308869,Active
313308894,Active
313308898,Active
313308909,Active
313308910,Active
313308920,Active
313308939,Active
313308944,Active
313308962,Active
313308965,Active
313308973,Active
313309011,Active
313309110,Active
313309153,Active
313309158,Active
313309159,Active
313309163,Active
313309184,Active
313309247,Active
313309257,Active
313309258,Active
313309273,Active
313309298,Active
313309324,Active
313309333,Active
313309339,Active
313309396,Active
313309402,Active
313309480,Active
313309497,Active
313309513,Active
313309516,Active
313309522,Active
313309524,Active
313309546,Active
313309554,Active
313309625,Active
313309684,Active
313309689,Active
313309702,Active
313309703,Active
313309706,Active
313309731,Active
313309736,Active
313309769,Active
313309773,Active
313309778,Active
313309798,Active
313309813,Active
313309815,Active
313309826,Active
313309842,Active
313309885,Active
313309907,Active
313309917,Active
313309924,Active
313309949,Active
313309955,Active
313309978,Active
313310021,Active
313310039,Active
313310046,Active
313310052,Active
313310068,Active
313310070,Active
313310074,Active
313310083,Active
313310084,Active
313310095,Active
313310280,Active
313310302,Active
313310310,Active
313310346,Active
313310351,Active
313310353,Active
313310356,Active
313310371,Active
313310376,Active
313310391,Active
313310406,Active
313310410,Active
313310426,Active
313310428,Active
313310441,Active
313310478,Active
313310496,Active
313310509,Active
313310515,Active
313310626,Active
313310647,Active
313310668,Active
313310681,Active
313310699,Active
313310708,Active
313310712,Active
313310724,Active
313310735,Active
313310738,Active
313310750,Active
313310780,Active
313310788,Active
313310813,Active
313310821,Active
313310876,Active
313310917,Active
313310949,Active
313310968,Active
313310983,Active
313310984,Active
313311006,Active
313311009,Active
313311013,Active
313311021,Active
313311043,Active
313311059,Active
313311072,Active
313311077,Active
313311135,Active
313311175,Active
313311194,Active
313311210,Active
313311223,Active
313311249,Active
313311281,Active
313311293,Active
313311294,Active
313311308,Active
313311330,Active
313311352,Active
313311359,Active
313311371,Active
313311373,Active
313311380,Active
313311383,Active
313311415,Active
313311419,Active
313311420,Active
313311479,Active
313311526,Active
313311549,Active
313311578,Active
313311581,Active
313311585,Active
313311587,Active
313311603,Active
313311614,Active
313311657,Active
313311705,Active
313311716,Active
313311720,Active
313311738,Active
313311748,Active
313311756,Active
313311785,Active
313311789,Active
313311797,Active
313311807,Active
313311837,Active
313311855,Active
313311902,Active
313311917,Active
313311942,Active
313311954,Active
313311994,Active
313311997,Active
313312009,Active
313312031,Active
313312038,Active
313312048,Active
313312071,Active
313312072,Active
313312082,Active
313312088,Active
313312101,Active
313312127,Active
313312128,Active
313312143,Active
313312149,Active
313312155,Active
313312156,Active
313312238,Active
313312242,Active
313312276,Active
313312289,Active
313312301,Active
313312328,Active
313312336,Active
313312343,Active
313312347,Active
313312377,Active
313312385,Active
313312389,Active
313312402,Active
313312411,Active
313312430,Active
313312455,Active
313312457,Active
313312461,Active
313312470,Active
313312479,Active
313312493,Active
313312502,Active
313312507,Active
313312529,Active
313312534,Active
313312548,Active
313312558,Active
313312565,Active
313312571,Active
313312579,Active
313312585,Active
313312586,Active
313312598,Active
313312600,Active
313312614,Active
313312631,Active
313312642,Active
313312653,Active
313312654,Active
313312666,Active
313312669,Active
313312675,Active
313312678,Active
313312688,Active
313312745,Active
313312774,Active
313312820,Active
313312845,Active
313312859,Active
313312867,Active
313312893,Active
313312921,Active
313312929,Active
313312943,Active
313312955,Active
313312986,Active
313312988,Active
313312989,Active
313313001,Active
313313002,Active
313313012,Active
313313023,Active
313313064,Active
313313065,Active
313313075,Active
313313084,Active
313313085,Active
313313110,Active
313313145,Active
313313162,Active
313313177,Active
313313182,Active
313313206,Active
313313209,Active
313313219,Active
313313231,Active
313313242,Active
313313250,Active
313313251,Active
313313272,Active
313313323,Active
313313325,Active
313313327,Active
313313332,Active
313313352,Active
313313358,Active
313313368,Active
313313379,Active
313313408,Active
313313421,Active
313313450,Active
313313464,Active
313313475,Active
313313502,Active
367004111,Active
367004115,Active
367004117,Active
367004128,Active
401005446,Active
401005481,Active
401005482,Active
401005487,Active
401005488,Active
401005532,Active
401005534,Active
401005570,Active
401005572,Active
401005579,Active
401005587,Active
401005590,Active
401005650,Active
401005657,Active
401005661,Active
401005663,Active
401005664,Active
401005684,Active
401005687,Active
401005689,Active
401005690,Active
401005704,Active
401005706,Active
401005777,Active
401005778,Active
401005782,Active
401005786,Active
401005802,Active
401005803,Active
401005808,Active
401005858,Active
401005860,Active
401005869,Active
401005871,Active
401005877,Active
401005878,Active
401005926,Active
401005930,Active
401005951,Active
401005959,Active
401005966,Active
401005968,Active
401005973,Active
401006085,Active
401006086,Active
401006125,Active
401006129,Active
401006130,Active
401006137,Active
401006154,Active
401006157,Active
401006187,Active
401006204,Active
401006212,Active
401006231,Active
403632246,Active
403632275,Active
403632443,Active
403632611,Active
403632632,Active
403632675,Active
403632740,Active
403632889,Active
403632974,Active
403632976,Active
403633001,Active
403633270,Active
403633280,Active
403633325,Active
403633402,Active
403633559,Active
403633773,Active
430576771,Active
483518604,Active
483518702,Active
483518727,Active
483518728,Active
483518747,Active
483518748,Active
483518750,Active
483518753,Active
483518754,Active
483518764,Active
483518765,Active
483518769,Active
483518858,Active
483518859,Active
483518870,Active
483518886,Active
483518911,Active
483518919,Active
483518948,Active
483518952,Active
483518992,Active
483519002,Active
483519007,Active
483519010,Active
483519029,Active
483519030,Active
483519031,Active
483519048,Active
483519050,Active
483519058,Active
483519062,Active
483519063,Active
483519091,Active
483519095,Active
483519109,Active
483519113,Active
483519115,Active
483519137,Active
483519203,Active
483519219,Active
483519364,Active
483519417,Active
483519426,Active
483519470,Active
483519479,Active
483519483,Active
483519492,Active
483519493,Active
483519499,Active
483519502,Active
483519519,Active
483519528,Active
483519532,Active
483519533,Active
483519534,Active
483519537,Active
483519626,Active
483519646,Active
483519652,Active
483519709,Active
483519719,Active
483519721,Active
483519722,Active
219108232,Active
219995382,Active
219995585,Active
313308167,Active
313308230,Active
313308345,Active
313308431,Active
313308449,Active
313308477,Active
313308531,Active
313308617,Active
313308676,Active
313308681,Active
313308723,Active
313308727,Active
313308732,Active
313308763,Active
313308784,Active
313309001,Active
313309029,Active
313309081,Active
313309093,Active
313309129,Active
313309140,Active
313309207,Active
313309242,Active
313309350,Active
313309466,Active
313309468,Active
313309572,Active
313309618,Active
313309873,Active
313310131,Active
313310175,Active
313310203,Active
313310275,Active
313310294,Active
313310309,Active
313310381,Active
313310418,Active
313310602,Active
313310664,Active
313310711,Active
313310803,Active
313310852,Active
313310952,Active
313310971,Active
313310994,Active
313311041,Active
313311196,Active
313311232,Active
313311376,Active
313311464,Active
313311575,Active
313311763,Active
313311821,Active
313311824,Active
313311857,Active
313312003,Active
313312030,Active
313312113,Active
313312114,Active
313312241,Active
313312248,Active
313312315,Active
313312363,Active
313312433,Active
313312544,Active
313312561,Active
313312617,Active
313312832,Active
313312856,Active
313312864,Active
313312926,Active
313313049,Active
313313146,Active
313313168,Active
313313313,Active
313313364,Active
313313477,Active
313313497,Active
313313536,Active
401005380,Active
401005447,Active
401005524,Active
401005529,Active
401005563,Active
401005569,Active
401005577,Active
401005578,Active
401005588,Active
401005589,Active
401005596,Active
401005604,Active
401005618,Active
401005660,Active
401005671,Active
401005696,Active
401005699,Active
401005702,Active
401005703,Active
401005801,Active
401005806,Active
401005807,Active
401005830,Active
401005831,Active
401005835,Active
401005855,Active
401005857,Active
401005866,Active
401005868,Active
401005876,Active
401005916,Active
401005927,Active
401005928,Active
401005974,Active
401005975,Active
401005983,Active
401006015,Active
401006047,Active
401006091,Active
401006092,Active
401006143,Active
401006148,Active
401006152,Active
401006160,Active
401006162,Active
401006166,Active
401006234,Active
401006237,Active
401006269,Active
401006297,Active
401006312,Active
401006362,Active
401006365,Active
401006366,Active
401006369,Active
403632285,Active
403632308,Active
403632411,Active
403632452,Active
403632456,Active
403632477,Active
403632489,Active
403632494,Active
403632543,Active
403632546,Active
403632570,Active
403632584,Active
403632596,Active
403632603,Active
403632641,Active
403632661,Active
403632666,Active
403632669,Active
403632692,Active
403632699,Active
403632771,Active
403632780,Active
403632803,Active
403632810,Active
403632817,Active
403632824,Active
403632825,Active
403632831,Active
403632888,Active
403632904,Active
403632923,Active
403632937,Active
403632990,Active
403633013,Active
403633020,Active
403633026,Active
403633059,Active
403633098,Active
403633112,Active
403633145,Active
403633174,Active
403633188,Active
403633224,Active
403633230,Active
403633241,Active
403633244,Active
403633249,Active
403633250,Active
403633266,Active
403633293,Active
403633303,Active
403633307,Active
403633313,Active
403633321,Active
403633340,Active
403633355,Active
403633357,Active
403633373,Active
403633382,Active
403633403,Active
403633426,Active
403633457,Active
403633485,Active
403633487,Active
403633492,Active
403633497,Active
403633535,Active
403633536,Active
403633549,Active
403633555,Active
403633568,Active
403633571,Active
403633584,Active
403633591,Active
403633592,Active
403633612,Active
483518610,Active
483518629,Active
483518636,Active
483518641,Active
483518645,Active
483518670,Active
483518680,Active
483518681,Active
483518683,Active
483518708,Active
483518710,Active
483518725,Active
483518726,Active
483518755,Active
483518758,Active
483518760,Active
483518801,Active
483518812,Active
483518818,Active
483518852,Active
483518863,Active
483518866,Active
483518910,Active
483518930,Active
483518936,Active
483518949,Active
483518950,Active
483518967,Active
483518969,Active
483518970,Active
483518973,Active
483518978,Active
483518980,Active
483518988,Active
483519023,Active
483519027,Active
483519028,Active
483519082,Active
483519084,Active
483519094,Active
483519100,Active
483519110,Active
483519123,Active
483519136,Active
483519143,Active
483519156,Active
483519157,Active
483519159,Active
483519162,Active
483519180,Active
483519196,Active
483519198,Active
483519201,Active
483519214,Active
483519228,Active
483519240,Active
483519250,Active
483519267,Active
483519318,Active
483519326,Active
483519328,Active
483519340,Active
483519355,Active
483519374,Active
483519385,Active
483519391,Active
483519397,Active
483519399,Active
483519416,Active
483519420,Active
483519428,Active
483519433,Active
483519434,Active
483519464,Active
483519481,Active
483519482,Active
483519511,Active
483519547,Active
483519562,Active
483519577,Active
483519586,Active
483519588,Active
483519589,Active
483519593,Active
483519595,Active
483519597,Active
483519631,Active
483519640,Active
483519642,Active
483519648,Active
483519654,Active
483519692,Active
483519704,Active
483519715,Active