Id,First Discovered On,Last Discovered On,Workflow Id,Workflow State
313310080,7/13/21,11/4/22,"SYS#0000038,SYS#0000013","Reworked,Approved"
483518656,3/1/22,11/5/22,"RA#0000030,RA#0000004","Requested,Expired"
483519003,3/1/22,11/5/22,"RA#0000030,RA#0000004","Requested,Expired"
483519008,3/1/22,11/4/22,"RA#0000030,RA#0000004","Requested,Expired"
483519051,3/1/22,11/5/22,"RA#0000030,RA#0000004","Requested,Expired"
483519122,3/1/22,11/5/22,"RA#0000030,RA#0000004","Requested,Expired"
483519176,3/1/22,11/5/22,"RA#0000030,RA#0000004","Requested,Expired"
483519287,3/1/22,11/5/22,"SYS#0000038,SYS#0000025,RA#0000004","Reworked,Approved,Expired"
483519322,3/1/22,11/5/22,"RA#0000030,RA#0000004","Requested,Expired"
483519398,3/1/22,11/5/22,"SYS#0000038,RM#0000092,SYS#0000026,RM#0000006","Reworked,Approved,Reworked,Expired"
483519405,3/1/22,11/5/22,"RA#0000030,RA#0000004","Requested,Expired"
483519431,3/1/22,11/5/22,"SYS#0000038,SYS#0000025,RM#0000006","Reworked,Approved,Expired"
483519447,3/1/22,11/5/22,"RA#0000030,RA#0000004","Requested,Expired"
483519616,3/1/22,11/5/22,"RA#0000030,RA#0000004","Requested,Expired"
483519617,3/1/22,11/5/22,"RA#0000030,RA#0000004","Requested,Expired"
666637586,7/12/22,11/2/22,"SYS#0000034,RM#0000113","Reworked,Approved"
666637628,7/12/22,11/3/22,"SYS#0000034,RM#0000134","Reworked,Approved"
666637659,7/12/22,11/3/22,"SYS#0000034,RM#0000113","Reworked,Approved"
666637798,7/12/22,11/2/22,"RM#0000171,RM#0000049","Requested,Expired"
666638379,7/12/22,11/2/22,"SYS#0000034,RM#0000113","Reworked,Approved"
666638437,7/12/22,11/3/22,"SYS#0000034,RM#0000113","Reworked,Approved"
666638496,7/12/22,11/1/22,"SYS#0000034,RM#0000134","Reworked,Approved"
666638836,7/12/22,11/2/22,"SYS#0000034,RM#0000113","Reworked,Approved"
666638894,7/12/22,11/1/22,"SYS#0000034,RM#0000134","Reworked,Approved"
666639087,7/12/22,11/2/22,"SYS#0000034,RM#0000134","Reworked,Approved"
666639119,7/12/22,11/2/22,"SYS#0000034,RM#0000113","Reworked,Approved"
666640114,7/12/22,11/2/22,"SYS#0000034,RM#0000113","Reworked,Approved"
666640204,7/12/22,11/2/22,"SYS#0000034,RM#0000134","Reworked,Approved"
666643268,7/12/22,11/2/22,"SYS#0000034,RM#0000113,RM#0000087","Reworked,Approved,Approved"
666643406,7/13/22,11/3/22,"SYS#0000034,RM#0000113","Reworked,Approved"
690595577,8/9/22,11/4/22,"RM#0000183,SYS#0000040,RM#0000047","Requested,Reworked,Approved"
690747342,8/11/22,11/3/22,"RM#0000183,SYS#0000032,RM#0000170","Requested,Reworked,Approved"
690748299,8/10/22,11/3/22,RA#0000023,Requested
690750643,8/11/22,11/3/22,RA#0000023,Requested
690750644,8/11/22,11/3/22,RA#0000022,Requested
893352821,11/3/22,11/3/22,,
893353103,11/3/22,11/3/22,,
893365877,10/30/22,11/1/22,,
893365891,10/30/22,11/1/22,,
893366304,11/2/22,11/2/22,,
893366341,11/1/22,11/2/22,,
893366433,10/30/22,11/1/22,,
893366663,11/2/22,11/3/22,,
893366716,11/2/22,11/2/22,,
893366819,11/1/22,11/1/22,,
893367038,10/30/22,11/1/22,,
893367162,10/30/22,11/1/22,,
893367343,11/2/22,11/2/22,,
893367349,11/1/22,11/2/22,,
893367594,10/30/22,11/1/22,,
893367609,10/30/22,11/1/22,,
893367700,11/1/22,11/1/22,,
893525302,11/5/22,11/5/22,,
893530976,11/2/22,11/3/22,,
893531147,11/2/22,11/2/22,,
893531400,11/3/22,11/3/22,,