Capability Type,Capability,Sub-Capability,Description,Crticality,Asset Class
IT,Core Technology ,DNS,Domain Name System (DNS) is one of the industry-standard suite of protocols that provide computer name-to-IP address mapping name resolution services to computers and users,High,DNS
IT,Core Technology ,DHCP,Dynamic Host Configuration Protocol (DHCP) is a client/server protocol that automatically provides an Internet Protocol (IP) host with its IP address and other related configuration information such as the subnet mask and default gateway.,High,DHCP
IT,Core Technology ,Email,Electronic Mail Service,High,Email
IT,Core Technology ,SPAM,Functionality to filter non-pertinent email,Low,SPAM
IT,Core Technology ,Sharepoint,Platform for file sharing and organization,High,Sharepoint
IT,Core Technology ,File shares (CIFS),Platform for storing and sharing files,High,File shares (CIFS)
IT,Core Technology ,File shares (NFS),Platform for storing and sharing files,High,File shares (NFS)
IT,Core Technology ,Backups,Service to back up pertinent files and data,High,Backups
IT,Core Technology ,Patching,Tools and processes to deploy security update to manage corporate laptops and desktops,High,Patching
IT,Core Technology ,Storage,"Various storage products, systems and services being offered which include disk, flash and hybrid storage ",High,Storage
IT,Identity/Access Mgmt,Active Directory,Directory Service that provides domain management and a broad range of directory based identity services,High,Active Directory
IT,Identity/Access Mgmt,Identity Manager,,High,Identity Manager
IT,Identity/Access Mgmt,Single Sign-on,Identity Store providing solution for employees to sign on once to provide access to a suite of applications,Med,Single Sign-on
IT,Identity/Access Mgmt,Password Portal,Solution to manage a single password for an employee across a suite of applications,Med,Password Portal
IT,Video/Voice,Voice Services,"Facilitates session and call control for video, voice, messaging, mobility, and presence",High,Voice Services
IT,Video/Voice,Web Conference,,Med,Web Conference
IT,Video/Voice,Instant Messenger,,High,Instant Messenger
IT,Video/Voice,Video Conferencing,Tools and service providing video conferencing capabilities,High,Video Conferencing
IT,Video/Voice,Wi-Fi,Tools and service providing wireless network capabilities,High,Wi-Fi
IT,Video/Voice,VPN,Software application for connecting to virtual private networks based on Internet Key Exchange,High,VPN
IT,Video/Voice,Connectivity,IP and Ethernet networks providing connectivity services,High,Connectivity