Source Column Name,SmarterD Field Name,Exclude,Unique,Field Type,Value Type,Rule,Notes
Number,ticketRef,N,Y,Core,Text,,
Category,Category,N,N,Extension,Text,,
SLA definition,SLA definition,N,N,Extension,Text,,
Assigned to,itstakeholder,N,N,Core,Text,,
Assignment group,Assignment Group,N,N,Extension,Text,,
Original breach time,Original breach time,N,N,Extension,Date,,
SLA due,SLA due,N,N,Extension,Text,,
Short description,name,N,N,Core,Text,,
Business elapsed percentage,Business elapsed percentage,N,N,Extension,Text,,
Business elapsed time,Business elapsed time,N,N,Extension,Text,,
Has breached,Has breached,N,N,Extension,Boolean,,
Priority,priority,N,N,Core,Text,"{'1 - Critical':'P1','2 - High':'P2','3 - Moderate':'P3','4 - Low':'P4','5 - Individual Store P2':'P5'}",
Location,Location,N,N,Extension,Text,,
Active,Active,N,N,Extension,Boolean,,
Problem,Problem,N,N,Extension,Text,,
Severity,Severity,N,N,Extension,Text,,
Urgency,Urgency,N,N,Extension,Text,,
Business duration,Duration,N,N,Extension,Text,,
Business impact,Impact,N,N,Extension,Text,,
Child Incidents,Child Incidents,N,N,Extension,Text,,
Actual start,Actual start,N,N,Extension,Text,,
Incident state,lifecycle,N,N,Core,Text,,
Incident cause,Root Cause,N,N,Extension,Text,,
Impact,ImpactDetails,N,N,Core,Text,,
Created,incidentTime,N,N,Core,Text,,
Created by,Created by,N,N,Extension,Text,,
Configuration item,ecosystem,N,N,Core,Array,,