Id,First Discovered On,Last Discovered On,Workflow Id,Workflow State
219995382,10/19/21,11/4/22,"SYS#0000038,RM#0000065","Reworked,Approved"
219995429,10/19/21,11/5/22,"SYS#0000026,RM#0000020,SYS#0000004,SYS#0000001","Reworked,Expired,Reworked,Approved"
219995513,10/19/21,11/5/22,"SYS#0000026,RM#0000020,SYS#0000004,SYS#0000001","Reworked,Expired,Reworked,Approved"
219995673,10/19/21,11/5/22,"SYS#0000026,RM#0000020","Reworked,Expired"
313308147,7/12/21,11/3/22,"SYS#0000024,SYS#0000015,RM#0000020","Reworked,Approved,Expired"
313308163,7/12/21,11/2/22,"SYS#0000024,RM#0000020","Reworked,Expired"
313308167,7/12/21,11/2/22,RM#0000156,Rejected
313308508,7/13/21,11/5/22,"SYS#0000038,SYS#0000025,RM#0000020","Reworked,Approved,Expired"
313308784,7/12/21,11/3/22,"SYS#0000040,RM#0000051","Reworked,Expired"
313309147,7/13/21,11/5/22,"SYS#0000038,SYS#0000025,RM#0000020","Reworked,Approved,Expired"
313309264,7/13/21,11/2/22,"SYS#0000024,RM#0000020","Reworked,Expired"
313309288,7/13/21,11/4/22,"SYS#0000026,RM#0000020","Reworked,Expired"
313309330,7/12/21,11/2/22,"SYS#0000024,SYS#0000015,RM#0000020","Reworked,Approved,Expired"
313309350,7/12/21,11/2/22,"RM#0000156,SYS#0000024,SYS#0000015","Rejected,Reworked,Approved"
313309429,7/13/21,11/5/22,"SYS#0000026,RM#0000020","Reworked,Expired"
313309658,7/12/21,8/9/22,"SYS#0000024,SYS#0000015,RM#0000020","Reworked,Approved,Expired"
313309727,7/13/21,11/5/22,"SYS#0000026,RM#0000020","Reworked,Expired"
313310040,7/12/21,11/3/22,"SYS#0000024,SYS#0000015,RM#0000020","Reworked,Approved,Expired"
313310275,7/13/21,11/5/22,,
313310309,7/13/21,11/3/22,,
313310354,7/13/21,11/4/22,"SYS#0000024,RM#0000020","Reworked,Expired"
313310711,7/13/21,11/5/22,,
313310941,7/12/21,11/2/22,"SYS#0000024,SYS#0000015,RM#0000020","Reworked,Approved,Expired"
313310952,7/12/21,11/2/22,"RM#0000156,SYS#0000024,SYS#0000015","Rejected,Reworked,Approved"
313311041,7/13/21,8/9/22,,
313311148,7/13/21,11/4/22,"SYS#0000026,RM#0000020","Reworked,Expired"
313311196,7/13/21,11/4/22,,
313311232,7/12/21,11/3/22,"SYS#0000040,RM#0000065","Reworked,Approved"
313311269,7/13/21,11/5/22,"SYS#0000026,RM#0000020","Reworked,Expired"
313311283,7/13/21,11/4/22,"SYS#0000026,RM#0000020","Reworked,Expired"
313311576,7/13/21,11/3/22,"SYS#0000024,RM#0000020","Reworked,Expired"
313311733,7/13/21,11/5/22,"SYS#0000026,RM#0000020","Reworked,Expired"
313311793,7/13/21,11/3/22,"SYS#0000024,RM#0000020","Reworked,Expired"
313311852,7/13/21,11/3/22,"SYS#0000024,RM#0000020","Reworked,Expired"
313311985,7/12/21,11/2/22,"SYS#0000024,SYS#0000015,RM#0000020","Reworked,Approved,Expired"
313312003,7/12/21,11/2/22,"RM#0000156,SYS#0000024,SYS#0000015","Rejected,Reworked,Approved"
313312030,7/13/21,11/4/22,,
313312052,7/13/21,8/9/22,"SYS#0000024,RM#0000020","Reworked,Expired"
313312056,7/13/21,11/5/22,"SYS#0000026,RM#0000020","Reworked,Expired"
313312241,7/12/21,11/2/22,"SYS#0000040,RM#0000060","Reworked,Approved"
313312248,7/12/21,11/2/22,"SYS#0000040,RM#0000065","Reworked,Approved"
313312458,7/13/21,11/4/22,"SYS#0000024,RM#0000020","Reworked,Expired"
313312506,7/13/21,8/5/22,"SYS#0000026,RM#0000020","Reworked,Expired"
313312521,7/13/21,8/9/22,"SYS#0000024,RM#0000020","Reworked,Expired"
313312864,7/12/21,11/4/22,"SYS#0000040,RM#0000065","Reworked,Approved"
313312962,7/13/21,11/5/22,"SYS#0000038,SYS#0000025,RM#0000020","Reworked,Approved,Expired"
313313168,7/12/21,11/3/22,"SYS#0000040,RM#0000065","Reworked,Approved"
313313458,7/12/21,11/2/22,"SYS#0000024,SYS#0000015,RM#0000020","Reworked,Approved,Expired"
313313468,7/13/21,11/4/22,"SYS#0000024,RM#0000020","Reworked,Expired"
313313477,7/13/21,11/4/22,,
401005380,10/19/21,11/4/22,RM#0000045,Rejected
401005447,10/19/21,11/4/22,RM#0000045,Rejected
401005524,10/19/21,11/5/22,RM#0000045,Rejected
401005529,10/19/21,11/5/22,"SYS#0000038,SYS#0000025,RM#0000045","Reworked,Approved,Rejected"
401005530,10/19/21,11/5/22,"SYS#0000038,SYS#0000025,RM#0000020","Reworked,Approved,Expired"
401005563,10/19/21,11/5/22,RM#0000045,Rejected
401005569,10/19/21,11/5/22,RM#0000045,Rejected
401005577,10/19/21,11/4/22,"SYS#0000038,RM#0000089,RM#0000072","Reworked,Approved,Approved"
401005578,10/19/21,11/5/22,RM#0000045,Rejected
401005588,10/19/21,11/4/22,"SYS#0000038,RM#0000089,RM#0000072","Reworked,Approved,Approved"
401005589,10/19/21,11/4/22,"SYS#0000038,RM#0000065","Reworked,Approved"
401005660,10/19/21,11/4/22,,
401005696,10/19/21,11/5/22,RM#0000045,Rejected
401005699,10/19/21,11/4/22,"SYS#0000026,SYS#0000017,RM#0000045","Reworked,Approved,Rejected"
401005702,10/19/21,11/5/22,RM#0000045,Rejected
401005703,10/19/21,11/5/22,RM#0000045,Rejected
401005801,10/19/21,11/5/22,,
401005806,10/20/21,11/5/22,RM#0000045,Rejected
401005830,10/19/21,11/5/22,RM#0000045,Rejected
401005831,10/19/21,11/5/22,"SYS#0000038,SYS#0000025,RM#0000045","Reworked,Approved,Rejected"
401005835,10/19/21,11/4/22,"SYS#0000026,SYS#0000017,RM#0000045","Reworked,Approved,Rejected"
401005855,10/19/21,11/4/22,RM#0000045,Rejected
401005856,10/19/21,11/4/22,"SYS#0000026,RM#0000020","Reworked,Expired"
401005857,10/19/21,11/4/22,RM#0000045,Rejected
401005866,10/19/21,11/5/22,RM#0000045,Rejected
401005867,10/19/21,11/5/22,"SYS#0000026,RM#0000020","Reworked,Expired"
401005868,10/19/21,11/5/22,RM#0000045,Rejected
401005875,10/19/21,11/4/22,"SYS#0000026,SYS#0000017,RM#0000020","Reworked,Approved,Expired"
401005876,10/19/21,11/4/22,"SYS#0000026,SYS#0000017,RM#0000045","Reworked,Approved,Rejected"
401005916,10/19/21,11/5/22,,
401005927,10/19/21,11/4/22,"SYS#0000038,RM#0000089,RM#0000072","Reworked,Approved,Approved"
401005928,10/19/21,11/4/22,"SYS#0000038,RM#0000065","Reworked,Approved"
401005974,10/19/21,11/5/22,"SYS#0000038,RM#0000089","Reworked,Approved"
401005975,10/19/21,11/5/22,"SYS#0000038,RM#0000065","Reworked,Approved"
401005983,10/19/21,11/5/22,RM#0000045,Rejected
401006015,10/19/21,8/6/22,RM#0000045,Rejected
401006019,10/19/21,11/4/22,"SYS#0000038,RM#0000089,RM#0000072","Reworked,Approved,Approved"
401006020,10/19/21,11/4/22,"SYS#0000038,RM#0000065","Reworked,Approved"
401006047,10/19/21,11/4/22,RM#0000045,Rejected
401006091,10/19/21,11/5/22,"SYS#0000038,SYS#0000025,RM#0000045","Reworked,Approved,Rejected"
401006092,10/19/21,11/5/22,RM#0000045,Rejected
401006143,10/19/21,11/5/22,RM#0000045,Rejected
401006148,10/19/21,11/5/22,RM#0000045,Rejected
401006152,10/19/21,11/5/22,"SYS#0000038,SYS#0000025,RM#0000045","Reworked,Approved,Rejected"
401006153,10/19/21,11/5/22,"SYS#0000038,SYS#0000025,RM#0000020","Reworked,Approved,Expired"
401006160,10/19/21,11/4/22,RM#0000045,Rejected
401006162,10/19/21,11/4/22,"SYS#0000026,SYS#0000017,RM#0000045","Reworked,Approved,Rejected"
401006166,10/19/21,11/5/22,RM#0000045,Rejected
401006269,10/19/21,11/5/22,RM#0000045,Rejected
401006297,10/19/21,8/5/22,RM#0000045,Rejected
401006312,10/19/21,11/5/22,RM#0000045,Rejected
401006318,10/19/21,11/4/22,"SYS#0000038,RM#0000089,RM#0000072","Reworked,Approved,Approved"
401006319,10/19/21,11/4/22,"SYS#0000038,RM#0000065","Reworked,Approved"
401006362,10/19/21,11/5/22,,
401006365,10/19/21,11/5/22,RM#0000045,Rejected
401006366,10/19/21,11/5/22,"SYS#0000038,SYS#0000025,RM#0000045","Reworked,Approved,Rejected"
401006369,10/19/21,11/5/22,RM#0000045,Rejected
403632308,10/29/21,11/3/22,"SYS#0000024,SYS#0000015,RM#0000045","Reworked,Approved,Rejected"
403632411,10/29/21,8/9/22,"SYS#0000024,SYS#0000015,RM#0000045","Reworked,Approved,Rejected"
403632456,10/29/21,11/3/22,RM#0000045,Rejected
403632477,10/29/21,11/5/22,RM#0000045,Rejected
403632489,10/29/21,11/3/22,RM#0000045,Rejected
403632543,10/29/21,11/4/22,RM#0000045,Rejected
403632584,10/29/21,11/2/22,RM#0000045,Rejected
403632596,10/29/21,11/2/22,"SYS#0000040,RM#0000089,RM#0000072","Reworked,Approved,Approved"
403632603,10/29/21,11/3/22,"SYS#0000024,SYS#0000015,RM#0000045","Reworked,Approved,Rejected"
403632641,10/29/21,11/3/22,RM#0000045,Rejected
403632669,10/29/21,11/4/22,RM#0000045,Rejected
403632692,10/29/21,8/9/22,,
403632699,10/29/21,11/2/22,"SYS#0000040,SYS#0000015","Reworked,Approved"
403632771,10/29/21,11/3/22,,
403632780,10/29/21,11/2/22,"SYS#0000024,SYS#0000015,RM#0000045","Reworked,Approved,Rejected"
403632810,10/29/21,8/9/22,RM#0000045,Rejected
403632817,10/29/21,8/9/22,RM#0000045,Rejected
403632824,10/29/21,11/5/22,RM#0000045,Rejected
403632825,10/29/21,11/4/22,"SYS#0000040,RM#0000089,RM#0000072","Reworked,Approved,Approved"
403632831,10/29/21,11/2/22,"SYS#0000024,SYS#0000015,RM#0000045","Reworked,Approved,Rejected"
403632904,10/29/21,11/4/22,RM#0000045,Rejected
403633013,10/29/21,8/9/22,RM#0000045,Rejected
403633026,10/29/21,11/2/22,RM#0000045,Rejected
403633059,10/29/21,11/4/22,"SYS#0000024,SYS#0000015,RM#0000045","Reworked,Approved,Rejected"
403633174,10/29/21,11/4/22,RM#0000045,Rejected
403633188,10/29/21,11/3/22,RM#0000045,Rejected
403633230,10/29/21,11/4/22,"SYS#0000024,SYS#0000015,RM#0000045","Reworked,Approved,Rejected"
403633241,10/29/21,11/4/22,RM#0000045,Rejected
403633244,10/29/21,11/2/22,"SYS#0000030,SYS#0000015,RM#0000045","Reworked,Approved,Rejected"
403633249,10/29/21,8/9/22,RM#0000045,Rejected
403633250,10/29/21,11/3/22,"SYS#0000040,SYS#0000015","Reworked,Approved"
403633293,10/29/21,11/4/22,RM#0000045,Rejected
403633303,10/29/21,11/2/22,"SYS#0000024,SYS#0000015,RM#0000045","Reworked,Approved,Rejected"
403633307,10/29/21,8/9/22,"SYS#0000024,SYS#0000015","Reworked,Approved"
403633355,10/29/21,11/3/22,"SYS#0000024,SYS#0000015,RM#0000045","Reworked,Approved,Rejected"
403633357,10/29/21,11/3/22,RM#0000045,Rejected
403633403,10/29/21,11/5/22,RM#0000045,Rejected
403633485,10/29/21,8/9/22,RM#0000045,Rejected
403633492,10/29/21,11/3/22,"SYS#0000040,RM#0000089,RM#0000072","Reworked,Approved,Approved"
403633497,10/29/21,11/3/22,"SYS#0000040,RM#0000089,RM#0000072","Reworked,Approved,Approved"
403633535,10/29/21,8/9/22,"SYS#0000024,SYS#0000015","Reworked,Approved"
403633555,10/29/21,11/2/22,"SYS#0000024,SYS#0000015,RM#0000045","Reworked,Approved,Rejected"
403633584,10/29/21,8/9/22,"SYS#0000024,SYS#0000015","Reworked,Approved"
483518609,3/2/22,11/4/22,"SYS#0000024,RM#0000020","Reworked,Expired"
483518610,3/2/22,11/4/22,RM#0000045,Rejected
483518636,3/1/22,11/5/22,RM#0000045,Rejected
483518680,3/1/22,11/5/22,RM#0000045,Rejected
483518681,3/1/22,11/5/22,,
483518725,3/1/22,11/4/22,RM#0000045,Rejected
483518801,3/1/22,11/5/22,RM#0000045,Rejected
483518812,3/1/22,11/5/22,RM#0000045,Rejected
483518852,3/1/22,11/5/22,,
483518928,3/1/22,11/5/22,"SYS#0000026,RM#0000020","Reworked,Expired"
483518930,3/1/22,11/5/22,RM#0000045,Rejected
483518949,3/1/22,11/4/22,"SYS#0000038,RM#0000089","Reworked,Approved"
483518950,3/1/22,11/4/22,"SYS#0000038,RM#0000065","Reworked,Approved"
483518969,3/1/22,11/5/22,RM#0000045,Rejected
483518978,3/1/22,11/4/22,RM#0000045,Rejected
483519023,3/1/22,11/5/22,,
483519027,3/1/22,11/4/22,,
483519084,3/1/22,11/5/22,,
483519100,3/1/22,11/5/22,RM#0000045,Rejected
483519123,3/1/22,11/5/22,RM#0000045,Rejected
483519136,3/1/22,11/5/22,,
483519153,3/2/22,11/4/22,"SYS#0000024,RM#0000020","Reworked,Expired"
483519156,3/2/22,11/4/22,RM#0000045,Rejected
483519157,3/1/22,11/5/22,RM#0000045,Rejected
483519162,3/1/22,11/5/22,RM#0000045,Rejected
483519175,3/2/22,11/4/22,"SYS#0000024,RM#0000020","Reworked,Expired"
483519180,3/2/22,11/4/22,RM#0000045,Rejected
483519198,3/1/22,11/5/22,,
483519240,3/1/22,11/5/22,RM#0000045,Rejected
483519267,3/1/22,11/5/22,RM#0000045,Rejected
483519318,3/1/22,11/5/22,"SYS#0000038,SYS#0000025","Reworked,Approved"
483519328,3/3/22,11/3/22,RM#0000045,Rejected
483519355,3/1/22,11/5/22,,
483519391,3/1/22,11/5/22,RM#0000045,Rejected
483519397,3/1/22,11/5/22,RM#0000045,Rejected
483519416,3/1/22,11/5/22,,
483519428,3/1/22,11/5/22,RM#0000045,Rejected
483519433,3/1/22,11/5/22,"SYS#0000038,SYS#0000025","Reworked,Approved"
483519464,3/1/22,11/5/22,,
483519562,3/1/22,11/4/22,RM#0000045,Rejected
483519586,3/1/22,11/5/22,,
483519589,3/1/22,11/5/22,,
483519593,3/1/22,11/5/22,RM#0000045,Rejected
483519631,3/1/22,11/5/22,"SYS#0000038,SYS#0000017","Reworked,Approved"
483519640,3/1/22,11/5/22,"SYS#0000038,SYS#0000017","Reworked,Approved"
483519642,3/1/22,11/5/22,,
483519648,3/1/22,11/5/22,,
483519651,3/3/22,11/2/22,"SYS#0000024,SYS#0000015,RM#0000020","Reworked,Approved,Expired"
483519654,3/3/22,11/2/22,"SYS#0000024,SYS#0000015,RM#0000045","Reworked,Approved,Rejected"
483519704,3/1/22,11/5/22,RM#0000045,Rejected
666637529,7/12/22,11/2/22,,
666637532,7/12/22,11/2/22,,
666637533,7/12/22,11/2/22,,
666637558,7/12/22,11/2/22,,
666637561,7/12/22,11/2/22,,
666637562,7/12/22,11/2/22,,
666637620,7/12/22,11/2/22,,
666637621,7/12/22,11/2/22,,
666637624,7/12/22,11/2/22,,
666637625,7/12/22,11/2/22,,
666637629,7/12/22,11/3/22,,
666637678,7/12/22,11/3/22,,
666637681,7/12/22,11/3/22,,
666637682,7/12/22,11/3/22,,
666637700,7/12/22,11/2/22,,
666637703,7/12/22,11/2/22,,
666637704,7/12/22,11/2/22,,
666637743,7/12/22,11/1/22,,
666637746,7/12/22,11/1/22,,
666637747,7/12/22,11/1/22,,
666637799,7/12/22,11/2/22,,
666637802,7/12/22,11/2/22,,
666637803,7/12/22,11/2/22,,
666637830,7/12/22,11/2/22,,
666637831,7/12/22,11/2/22,,
666637832,7/12/22,11/2/22,,
666637882,7/12/22,11/2/22,,
666637894,7/12/22,11/2/22,,
666637895,7/12/22,11/2/22,,
666637936,7/12/22,11/3/22,,
666637942,7/12/22,11/3/22,,
666637943,7/12/22,11/3/22,,
666637983,7/12/22,11/3/22,,
666637984,7/12/22,11/3/22,,
666638015,7/12/22,11/2/22,,
666638020,7/12/22,11/2/22,,
666638021,7/12/22,11/2/22,,
666638069,7/12/22,11/1/22,,
666638081,7/12/22,11/1/22,,
666638082,7/12/22,11/1/22,,
666638111,7/12/22,11/2/22,,
666638112,7/12/22,11/2/22,,
666638120,7/12/22,11/2/22,,
666638123,7/12/22,11/2/22,,
666638130,7/12/22,11/2/22,,
666638131,7/12/22,11/2/22,,
666638132,7/12/22,11/2/22,,
666638140,7/12/22,11/2/22,,
666638146,7/12/22,11/2/22,,
666638147,7/12/22,11/2/22,,
666638193,7/12/22,11/2/22,,
666638198,7/12/22,11/2/22,,
666638199,7/12/22,11/2/22,,
666638360,7/12/22,11/2/22,,
666638363,7/12/22,11/2/22,,
666638364,7/12/22,11/2/22,,
666638424,7/12/22,11/2/22,,
666638425,7/12/22,11/2/22,,
666638428,7/12/22,11/2/22,,
666638429,7/12/22,11/2/22,,
666638486,7/12/22,11/3/22,,
666638487,7/12/22,11/3/22,,
666638490,7/12/22,11/3/22,,
666638491,7/12/22,11/3/22,,
666638499,7/12/22,11/1/22,,
666638531,7/12/22,11/1/22,,
666638532,7/12/22,11/1/22,,
666638533,7/12/22,11/1/22,,
666638569,7/12/22,11/2/22,,
666638572,7/12/22,11/2/22,,
666638573,7/12/22,11/2/22,,
666638594,7/12/22,11/3/22,,
666638595,7/12/22,11/3/22,,
666638596,7/12/22,11/3/22,,
666638738,7/12/22,11/2/22,,
666638741,7/12/22,11/2/22,,
666638743,7/12/22,11/2/22,,
666638745,7/12/22,11/2/22,,
666638746,7/12/22,11/2/22,,
666638767,7/12/22,11/2/22,,
666638770,7/12/22,11/2/22,,
666638771,7/12/22,11/2/22,,
666638808,7/12/22,11/1/22,,
666638811,7/12/22,11/1/22,,
666638812,7/12/22,11/1/22,,
666638856,7/12/22,11/2/22,,
666638859,7/12/22,11/2/22,,
666638860,7/12/22,11/2/22,,
666638885,7/12/22,11/3/22,,
666638888,7/12/22,11/3/22,,
666638889,7/12/22,11/3/22,,
666638897,7/12/22,11/1/22,,
666638929,7/12/22,11/1/22,,
666638930,7/12/22,11/1/22,,
666638931,7/12/22,11/1/22,,
666638954,7/12/22,11/2/22,,
666638957,7/12/22,11/2/22,,
666638958,7/12/22,11/2/22,,
666638975,7/12/22,11/2/22,,
666638976,7/12/22,11/2/22,,
666638984,7/12/22,11/2/22,,
666638987,7/12/22,11/2/22,,
666639017,7/12/22,11/2/22,,
666639020,7/12/22,11/2/22,,
666639021,7/12/22,11/2/22,,
666639062,7/12/22,11/1/22,,
666639065,7/12/22,11/1/22,,
666639066,7/12/22,11/1/22,,
666639088,7/12/22,11/2/22,,
666639153,7/12/22,11/2/22,,
666639154,7/12/22,11/2/22,,
666639157,7/12/22,11/2/22,,
666639158,7/12/22,11/2/22,,
666639161,7/12/22,11/2/22,,
666639162,7/12/22,11/2/22,,
666639224,7/12/22,11/2/22,,
666639227,7/12/22,11/2/22,,
666639228,7/12/22,11/2/22,,
666639247,7/12/22,11/2/22,,
666639250,7/12/22,11/2/22,,
666639251,7/12/22,11/2/22,,
666639258,7/12/22,11/2/22,,
666639261,7/12/22,11/2/22,,
666639262,7/12/22,11/2/22,,
666639682,7/12/22,11/2/22,,
666639683,7/12/22,11/2/22,,
666639684,7/12/22,11/2/22,,
666639718,7/12/22,11/2/22,,
666639722,7/12/22,11/2/22,,
666639723,7/12/22,11/2/22,,
666639724,7/12/22,11/2/22,,
666639725,7/12/22,11/2/22,,
666639745,7/12/22,11/2/22,,
666639746,7/12/22,11/2/22,,
666639747,7/12/22,11/2/22,,
666639784,7/12/22,11/2/22,,
666639787,7/12/22,11/2/22,,
666639788,7/12/22,11/2/22,,
666639830,7/12/22,11/2/22,,
666639833,7/12/22,11/2/22,,
666639834,7/12/22,11/2/22,,
666639879,7/12/22,11/2/22,,
666639884,7/12/22,11/2/22,,
666639887,7/12/22,11/2/22,,
666639888,7/12/22,11/2/22,,
666639911,7/12/22,11/2/22,,
666639912,7/12/22,11/2/22,,
666639913,7/12/22,11/2/22,,
666639958,7/12/22,11/2/22,,
666639961,7/12/22,11/2/22,,
666639962,7/12/22,11/2/22,,
666639964,7/12/22,11/2/22,,
666639967,7/12/22,11/2/22,,
666639968,7/12/22,11/2/22,,
666640029,7/12/22,11/1/22,,
666640032,7/12/22,11/1/22,,
666640033,7/12/22,11/1/22,,
666640036,7/12/22,11/1/22,,
666640039,7/12/22,11/1/22,,
666640040,7/12/22,11/1/22,,
666640078,7/12/22,11/2/22,,
666640081,7/12/22,11/2/22,,
666640082,7/12/22,11/2/22,,
666640083,7/12/22,11/3/22,,
666640086,7/12/22,11/3/22,,
666640087,7/12/22,11/3/22,,
666640147,7/13/22,11/3/22,,
666640150,7/13/22,11/3/22,,
666640151,7/13/22,11/3/22,,
666640167,7/12/22,11/2/22,,
666640168,7/12/22,11/2/22,,
666640171,7/12/22,11/2/22,,
666640172,7/12/22,11/2/22,,
666640193,7/12/22,11/2/22,,
666640194,7/12/22,11/2/22,,
666640196,7/12/22,11/3/22,,
666640199,7/12/22,11/3/22,,
666640200,7/12/22,11/3/22,,
666640206,7/12/22,11/2/22,,
666640247,7/12/22,11/2/22,,
666640248,7/12/22,11/2/22,,
666640253,7/12/22,11/2/22,,
666640256,7/12/22,11/2/22,,
666640257,7/12/22,11/2/22,,
666640312,7/12/22,11/2/22,,
666640315,7/12/22,11/2/22,,
666640316,7/12/22,11/2/22,,
666640361,7/12/22,11/3/22,,
666640362,7/12/22,11/3/22,,
666640369,7/12/22,11/3/22,,
666640379,7/12/22,11/1/22,,
666640380,7/12/22,11/1/22,,
666640381,7/12/22,11/1/22,,
666640407,7/12/22,11/2/22,,
666640408,7/12/22,11/2/22,,
666640416,7/12/22,11/2/22,,
666640420,7/12/22,11/2/22,,
666640459,7/12/22,11/1/22,,
666640460,7/12/22,11/1/22,,
666640486,7/12/22,11/1/22,,
666640487,7/12/22,11/1/22,,
666640495,7/12/22,11/1/22,,
666640524,7/12/22,11/2/22,,
666640525,7/12/22,11/2/22,,
666640557,7/12/22,11/2/22,,
666640558,7/12/22,11/2/22,,
666640559,7/12/22,11/2/22,,
666640575,7/12/22,11/2/22,,
666640578,7/12/22,11/2/22,,
666640579,7/12/22,11/2/22,,
666640595,7/12/22,11/1/22,,
666640598,7/12/22,11/1/22,,
666640599,7/12/22,11/1/22,,
666643024,7/12/22,11/2/22,,
666643027,7/12/22,11/2/22,,
666643028,7/12/22,11/2/22,,
666643062,7/12/22,11/2/22,,
666643074,7/12/22,11/2/22,,
666643075,7/12/22,11/2/22,,
666643123,7/12/22,11/2/22,,
666643126,7/12/22,11/2/22,,
666643127,7/12/22,11/2/22,,
666643149,7/12/22,11/2/22,,
666643150,7/12/22,11/2/22,,
666643151,7/12/22,11/2/22,,
666643183,7/12/22,11/2/22,,
666643186,7/12/22,11/2/22,,
666643187,7/12/22,11/2/22,,
666643232,7/12/22,11/3/22,,
666643233,7/12/22,11/3/22,,
666643244,7/12/22,11/3/22,,
666643250,7/12/22,11/3/22,,
666643251,7/12/22,11/3/22,,
666643321,7/12/22,11/2/22,,
666643322,7/12/22,11/2/22,,
666643325,7/12/22,11/2/22,,
666643326,7/12/22,11/2/22,,
666643351,7/12/22,11/1/22,,
666643354,7/12/22,11/1/22,,
666643355,7/12/22,11/1/22,,
666643391,7/12/22,11/2/22,,
666643394,7/12/22,11/2/22,,
666643395,7/12/22,11/2/22,,
666643447,7/13/22,11/3/22,,
666643448,7/13/22,11/3/22,,
666643451,7/13/22,11/3/22,,
666643452,7/13/22,11/3/22,,
666643499,7/12/22,11/2/22,,
666643500,7/12/22,11/2/22,,
666643535,7/12/22,11/2/22,,
666643541,7/12/22,11/2/22,,
666643542,7/12/22,11/2/22,,
666643585,7/12/22,11/2/22,,
666643588,7/12/22,11/2/22,,
666643589,7/12/22,11/2/22,,
666643615,7/12/22,11/1/22,,
666643624,7/12/22,11/1/22,,
666643625,7/12/22,11/1/22,,
666643651,7/12/22,11/3/22,,
666643652,7/12/22,11/3/22,,
666643660,7/12/22,11/3/22,,
666643663,7/12/22,11/3/22,,
666643667,7/12/22,11/3/22,,
666643700,7/12/22,11/1/22,,
666643701,7/12/22,11/1/22,,
666643702,7/12/22,11/1/22,,
666643721,7/12/22,11/2/22,,
666643722,7/12/22,11/2/22,,
666643730,7/12/22,11/2/22,,
666643735,7/12/22,11/2/22,,
666643760,7/12/22,11/2/22,,
666643761,7/12/22,11/2/22,,
666643762,7/12/22,11/2/22,,
666643812,7/12/22,11/2/22,,
666643816,7/12/22,11/2/22,,
666643818,7/12/22,11/2/22,,
666643821,7/12/22,11/2/22,,
666643822,7/12/22,11/2/22,,
666643860,7/12/22,11/1/22,,
666643861,7/12/22,11/1/22,,
666643864,7/12/22,11/1/22,,
666644006,7/12/22,11/3/22,,
666644009,7/12/22,11/3/22,,
666644010,7/12/22,11/3/22,,
675747706,7/29/22,7/29/22,,
675747707,7/29/22,7/29/22,,
675747708,7/29/22,7/29/22,,
675747709,7/29/22,7/29/22,,
690595714,8/9/22,11/3/22,,
690595715,8/9/22,11/3/22,,
690599028,8/9/22,11/3/22,,
690658762,8/6/22,11/5/22,,
690658763,8/6/22,11/5/22,,
690658778,8/6/22,11/5/22,,
690659232,8/5/22,11/4/22,,
690659233,8/5/22,11/4/22,,
690660419,8/6/22,11/5/22,,
690660847,8/5/22,11/5/22,,
690661674,8/6/22,11/5/22,,
690661675,8/6/22,11/5/22,,
690661767,8/6/22,8/6/22,,
690661768,8/6/22,8/6/22,,
690661769,8/6/22,8/6/22,,
690661784,8/6/22,8/6/22,,
690668279,8/6/22,11/5/22,,
690668280,8/6/22,11/5/22,,
690668295,8/6/22,11/5/22,,
690744810,8/10/22,11/3/22,,
690744812,8/11/22,11/3/22,,
690744831,8/10/22,11/3/22,,
690744832,8/10/22,11/3/22,,
690744834,8/10/22,11/3/22,,
690744852,8/10/22,11/3/22,,
690744866,8/10/22,11/3/22,,
690744867,8/10/22,11/3/22,,
690744882,8/10/22,11/3/22,,
690744883,8/10/22,11/3/22,,
690744891,8/11/22,11/3/22,,
690744913,8/11/22,11/3/22,,
690744915,8/11/22,11/3/22,,
690744976,8/11/22,11/3/22,,
690744977,8/11/22,11/3/22,,
690744981,8/10/22,11/3/22,,
690744983,8/11/22,11/3/22,,
690744985,8/10/22,11/3/22,RM#0000132,Rejected
690744994,8/11/22,11/3/22,,
690744995,8/11/22,11/3/22,,
690745055,8/11/22,11/3/22,RM#0000132,Rejected
690745117,8/10/22,11/3/22,RM#0000132,Rejected
690745122,8/11/22,11/3/22,,
690745123,8/11/22,11/3/22,,
690745126,8/11/22,11/3/22,,
690745132,8/11/22,11/3/22,,
690745133,8/11/22,11/3/22,,
690745135,8/11/22,11/3/22,,
690745523,8/11/22,11/3/22,,
690745531,8/11/22,11/3/22,,
690745533,8/11/22,11/3/22,RM#0000132,Rejected
690746152,8/11/22,11/3/22,,
690746154,8/11/22,11/3/22,,
690746248,8/11/22,11/3/22,,
690746249,8/11/22,11/3/22,"SYS#0000032,RM#0000154","Reworked,Approved"
690746252,8/11/22,11/3/22,"SYS#0000032,RM#0000154","Reworked,Approved"
690746541,8/11/22,11/3/22,,
690746547,8/11/22,11/3/22,,
690746548,8/11/22,11/3/22,,
690746552,8/10/22,11/3/22,,
690746553,8/10/22,11/3/22,,
690746559,8/10/22,11/3/22,,
690746599,8/11/22,11/3/22,,
690746606,8/11/22,11/3/22,,
690746607,8/11/22,11/3/22,,
690746640,8/11/22,8/11/22,,
690746641,8/11/22,8/11/22,,
690746670,8/11/22,11/3/22,"SYS#0000032,RM#0000154","Reworked,Approved"
690746721,8/11/22,11/3/22,,
690746722,8/11/22,11/3/22,,
690746723,8/11/22,11/3/22,,
690746724,8/11/22,11/3/22,,
690746783,8/11/22,11/3/22,,
690746786,8/11/22,11/3/22,,
690746797,8/10/22,11/3/22,,
690746802,8/11/22,11/3/22,,
690746807,8/10/22,11/3/22,,
690746809,8/10/22,11/3/22,,
690746813,8/10/22,11/3/22,RM#0000132,Rejected
690746816,8/10/22,11/3/22,,
690746831,8/10/22,11/3/22,,
690746835,8/10/22,11/3/22,RM#0000132,Rejected
690746843,8/11/22,11/3/22,,
690746861,8/11/22,11/3/22,,
690746867,8/11/22,11/3/22,,
690746868,8/11/22,11/3/22,,
690746870,8/11/22,11/3/22,,
690746886,8/10/22,11/3/22,,
690746887,8/10/22,11/3/22,,
690746888,8/11/22,11/3/22,,
690746891,8/11/22,11/3/22,,
690746892,8/11/22,11/3/22,,
690746902,8/11/22,11/3/22,,
690746903,8/11/22,11/3/22,,
690746914,8/11/22,11/3/22,,
690746915,8/11/22,11/3/22,,
690746916,8/11/22,11/3/22,,
690746938,8/11/22,11/3/22,,
690746942,8/11/22,11/3/22,,
690746973,8/10/22,11/3/22,,
690746974,8/10/22,11/3/22,,
690746985,8/11/22,11/3/22,,
690746986,8/11/22,11/3/22,,
690747005,8/10/22,11/3/22,RM#0000132,Rejected
690747232,8/11/22,11/3/22,,
690747336,8/11/22,11/3/22,,
690747337,8/11/22,11/3/22,RM#0000132,Rejected
690747350,8/11/22,11/3/22,,
690747357,8/11/22,11/3/22,,
690747358,8/11/22,11/3/22,RM#0000132,Rejected
690747385,8/10/22,11/3/22,,
690747386,8/10/22,11/3/22,,
690747542,8/11/22,11/3/22,RM#0000132,Rejected
690747557,8/10/22,11/3/22,,
690747587,8/11/22,11/3/22,,
690747588,8/11/22,11/3/22,,
690747603,8/11/22,11/3/22,,
690747612,8/11/22,8/11/22,,
690747613,8/11/22,8/11/22,,
690747616,8/11/22,11/3/22,,
690747617,8/11/22,11/3/22,"SYS#0000032,RM#0000154","Reworked,Approved"
690747623,8/10/22,11/3/22,,
690747624,8/10/22,11/3/22,RM#0000132,Rejected
690747633,8/11/22,11/3/22,,
690747634,8/11/22,11/3/22,RM#0000132,Rejected
690747659,8/11/22,11/3/22,,
690747661,8/10/22,11/3/22,,
690747663,8/11/22,11/3/22,RM#0000132,Rejected
690747670,8/11/22,8/11/22,,
690747910,8/11/22,11/3/22,,
690747911,8/11/22,11/3/22,RM#0000132,Rejected
690748002,8/11/22,11/3/22,,
690748003,8/11/22,11/3/22,,
690748128,8/11/22,11/3/22,,
690748129,8/11/22,11/3/22,,
690748131,8/11/22,11/3/22,,
690748289,8/11/22,11/3/22,RM#0000132,Rejected
690748293,8/10/22,11/3/22,,
690748294,8/10/22,11/3/22,,
690748303,8/11/22,11/3/22,,
690748399,8/10/22,11/3/22,,
690748459,8/11/22,11/3/22,,
690748461,8/10/22,11/3/22,,
690748463,8/10/22,8/10/22,,
690748472,8/10/22,11/3/22,,
690748473,8/10/22,11/3/22,,
690748475,8/10/22,11/3/22,,
690748477,8/11/22,8/11/22,,
690748573,8/11/22,11/3/22,,
690748574,8/11/22,11/3/22,RM#0000132,Rejected
690748584,8/11/22,11/3/22,,
690748586,8/11/22,11/3/22,,
690748629,8/10/22,11/3/22,,
690748632,8/11/22,11/3/22,,
690748647,8/11/22,11/3/22,,
690748651,8/11/22,11/3/22,,
690748653,8/11/22,11/3/22,,
690748655,8/11/22,11/3/22,,
690748658,8/11/22,11/3/22,,
690748664,8/11/22,11/3/22,RM#0000132,Rejected
690748948,8/11/22,8/11/22,RM#0000133,Rejected
690748951,8/11/22,11/3/22,"SYS#0000032,RM#0000154","Reworked,Approved"
690748953,8/11/22,11/3/22,,
690748955,8/10/22,11/3/22,,
690749122,8/11/22,8/11/22,,
690749128,8/11/22,11/3/22,,
690749129,8/11/22,11/3/22,RM#0000132,Rejected
690749168,8/11/22,11/3/22,,
690749351,8/10/22,11/3/22,,
690749399,8/11/22,11/3/22,"SYS#0000032,RM#0000154","Reworked,Approved"
690749430,8/10/22,11/3/22,,
690749512,8/10/22,11/3/22,,
690749513,8/10/22,11/3/22,RM#0000132,Rejected
690749700,8/11/22,11/3/22,,
690749788,8/11/22,11/3/22,"SYS#0000032,RM#0000154","Reworked,Approved"
690749790,8/11/22,11/3/22,,
690749792,8/11/22,11/3/22,,
690749897,8/11/22,11/3/22,,
690749898,8/11/22,11/3/22,,
690749901,8/10/22,11/3/22,,
690749903,8/10/22,11/3/22,,
690749905,8/11/22,11/3/22,,
690749906,8/11/22,11/3/22,,
690750574,8/11/22,11/3/22,,
690750577,8/11/22,11/3/22,RM#0000132,Rejected
690750582,8/11/22,11/3/22,"SYS#0000032,RM#0000154","Reworked,Approved"
690750584,8/11/22,11/3/22,RM#0000131,Rejected
690750585,8/11/22,11/3/22,,
690750611,8/11/22,11/3/22,"SYS#0000032,RM#0000154","Reworked,Approved"
690750613,8/10/22,11/3/22,,
690750614,8/10/22,11/3/22,RM#0000132,Rejected
690750626,8/11/22,11/3/22,RM#0000131,Rejected
690750627,8/11/22,11/3/22,,
690750629,8/11/22,11/3/22,,
690750630,8/11/22,11/3/22,RM#0000131,Rejected
690750637,8/11/22,11/3/22,,
690750638,8/11/22,11/3/22,,
690750647,8/10/22,11/3/22,,
690750649,8/11/22,11/3/22,"SYS#0000032,RM#0000154","Reworked,Approved"
690750651,8/11/22,11/3/22,,
690750655,8/11/22,8/11/22,RM#0000131,Rejected
690750656,8/11/22,8/11/22,,
690750661,8/11/22,11/3/22,"SYS#0000032,RM#0000154","Reworked,Approved"
690750671,8/11/22,8/11/22,,
690750674,8/10/22,11/3/22,,
690750684,8/11/22,11/3/22,,
690750897,8/10/22,11/3/22,,
690750899,8/10/22,11/3/22,,
690750900,8/10/22,11/3/22,,
690750904,8/11/22,11/3/22,,
690750905,8/11/22,11/3/22,,
690750912,8/11/22,11/3/22,,
690750914,8/11/22,11/3/22,"SYS#0000032,RM#0000154","Reworked,Approved"
690750935,8/11/22,11/3/22,"SYS#0000032,RM#0000154","Reworked,Approved"
690751168,8/11/22,11/3/22,,
690751188,8/11/22,11/3/22,,
690751197,8/10/22,11/3/22,,
690751202,8/10/22,11/3/22,,
690751208,8/10/22,11/3/22,,
690751209,8/10/22,11/3/22,,
690751211,8/10/22,11/3/22,,
690751214,8/11/22,11/3/22,,
690751216,8/10/22,11/3/22,,
690751220,8/10/22,11/3/22,,
690751221,8/10/22,11/3/22,,
690751230,8/11/22,11/3/22,,
690751234,8/10/22,11/3/22,,
690751235,8/10/22,11/3/22,,
690751237,8/11/22,11/3/22,,
690751321,8/11/22,11/3/22,,
690751322,8/11/22,11/3/22,,
690751324,8/11/22,11/3/22,,
690751326,8/10/22,11/3/22,,
690751330,8/11/22,11/3/22,,
690751360,8/10/22,11/3/22,"SYS#0000032,RM#0000154","Reworked,Approved"
690751362,8/11/22,11/3/22,,
690751364,8/11/22,11/3/22,,
690751568,8/11/22,11/3/22,,
690751569,8/11/22,11/3/22,,
690751572,8/11/22,11/3/22,,
690751574,8/11/22,11/3/22,,
690751576,8/11/22,11/3/22,,
690751581,8/11/22,11/3/22,,
690751672,8/10/22,11/3/22,,
690751673,8/10/22,11/3/22,,
690751675,8/10/22,11/3/22,,
690751681,8/10/22,11/3/22,,
690751682,8/10/22,11/3/22,,
690751716,8/10/22,11/3/22,,
690751717,8/10/22,11/3/22,,
690751787,8/11/22,11/3/22,,
690752316,8/10/22,11/3/22,,
690752317,8/10/22,11/3/22,"SYS#0000032,RM#0000154","Reworked,Approved"
690752325,8/11/22,11/3/22,,
690752327,8/10/22,11/3/22,,
690752532,8/11/22,11/3/22,,
690752536,8/11/22,11/3/22,,
690752538,8/10/22,11/3/22,,
690752541,8/11/22,11/3/22,,
690752543,8/10/22,11/3/22,"SYS#0000032,RM#0000154","Reworked,Approved"
690752545,8/10/22,11/3/22,,
690752547,8/10/22,11/3/22,,
690752572,8/10/22,11/3/22,,
690752575,8/11/22,11/3/22,,
690752582,8/11/22,11/3/22,,
690752583,8/11/22,11/3/22,,
690752604,8/11/22,11/3/22,,
690752606,8/11/22,11/3/22,,
690752607,8/11/22,11/3/22,,
690752619,8/11/22,11/3/22,,
690752620,8/11/22,11/3/22,,
690752624,8/11/22,11/3/22,,
690752736,8/11/22,11/3/22,,
690752737,8/11/22,11/3/22,"SYS#0000032,RM#0000154","Reworked,Approved"
690752747,8/11/22,11/3/22,,
690752749,8/11/22,11/3/22,,
690752753,8/11/22,11/3/22,,
690752917,8/11/22,11/3/22,,
690752921,8/11/22,11/3/22,,
690752923,8/10/22,11/3/22,,
690752931,8/11/22,11/3/22,,
690752932,8/11/22,11/3/22,,
690752945,8/11/22,11/3/22,,
690752946,8/11/22,11/3/22,,
690752966,8/10/22,11/3/22,,
690752974,8/11/22,11/3/22,,
690752976,8/10/22,11/3/22,,
690752977,8/10/22,11/3/22,,
690752979,8/10/22,11/3/22,,
690752981,8/11/22,11/3/22,"SYS#0000032,RM#0000154","Reworked,Approved"
690752983,8/11/22,11/3/22,,
690752984,8/11/22,11/3/22,,
690752986,8/10/22,11/3/22,,
690753015,8/10/22,11/3/22,,
690753016,8/10/22,11/3/22,,
690753110,8/10/22,11/3/22,,
690753111,8/10/22,11/3/22,,
690753126,8/10/22,11/3/22,,
690753137,8/11/22,11/3/22,,
690753189,8/11/22,11/3/22,"SYS#0000032,RM#0000154","Reworked,Approved"
690753250,8/10/22,11/3/22,,
690753251,8/10/22,11/3/22,,
690753253,8/11/22,11/3/22,,
690753255,8/11/22,11/3/22,,
690753278,8/11/22,11/3/22,,
690753282,8/10/22,11/3/22,,
690753284,8/11/22,11/3/22,,
690753285,8/11/22,11/3/22,,
690753298,8/10/22,11/3/22,,
690753312,8/10/22,11/3/22,,
690753318,8/10/22,11/3/22,,
690753319,8/10/22,11/3/22,,
893352237,11/3/22,11/3/22,,
893352307,11/3/22,11/3/22,,
893352308,11/3/22,11/3/22,,
893352387,11/3/22,11/3/22,,
893352479,11/3/22,11/3/22,,
893352496,11/3/22,11/3/22,,
893352535,11/3/22,11/3/22,,
893352546,11/3/22,11/3/22,,
893352572,11/3/22,11/3/22,,
893352629,11/3/22,11/3/22,,
893352765,11/3/22,11/3/22,,
893352766,11/3/22,11/3/22,,
893352933,11/3/22,11/3/22,,
893352968,11/3/22,11/3/22,,
893353049,11/3/22,11/3/22,,
893353171,11/3/22,11/3/22,,
893353241,11/3/22,11/3/22,,
893353277,11/3/22,11/3/22,,
893353291,11/3/22,11/3/22,,
893353296,11/3/22,11/3/22,,
893353315,11/3/22,11/3/22,,
893353316,11/3/22,11/3/22,,
893353319,11/3/22,11/3/22,,
893353320,11/3/22,11/3/22,,
893353454,11/3/22,11/3/22,,
893353455,11/3/22,11/3/22,,
893353462,11/3/22,11/3/22,,
893353532,11/3/22,11/3/22,,
893353623,11/3/22,11/3/22,,
893353640,11/3/22,11/3/22,,
893353775,11/3/22,11/3/22,,
893353788,11/3/22,11/3/22,,
893353789,11/3/22,11/3/22,,
893353941,11/3/22,11/3/22,,
893353981,11/3/22,11/3/22,,
893354001,11/3/22,11/3/22,,
893354002,11/3/22,11/3/22,,
893354014,11/3/22,11/3/22,,
893354037,11/3/22,11/3/22,,
893354073,11/3/22,11/3/22,,
893354078,11/3/22,11/3/22,,
893354291,11/3/22,11/3/22,,
893354415,11/3/22,11/3/22,,
893354416,11/3/22,11/3/22,,
893365824,10/30/22,11/2/22,,
893365826,10/30/22,11/2/22,,
893366317,11/2/22,11/3/22,,
893366693,11/2/22,11/3/22,,
893367044,11/2/22,11/3/22,,
893367115,11/2/22,11/3/22,,
893367118,11/1/22,11/2/22,,
893367298,11/1/22,11/1/22,,
893367336,11/2/22,11/2/22,,
893367384,11/1/22,11/2/22,,
893367739,11/1/22,11/2/22,,
893427488,11/3/22,11/3/22,,
893427506,11/3/22,11/4/22,,
893427510,11/3/22,11/3/22,,
893525386,11/5/22,11/5/22,,
893525387,11/5/22,11/5/22,,
893531759,11/2/22,11/2/22,,