ID,Category,Label,Description,,,,,,,,,,,,,,
3.1.1,Access Control,"Limit information system access to authorized users, processes acting on behalf of authorized users, or devices (including other information systems).","Maintain list of authorized users defining their identity and associated role and sync with system, application and data layers. Account requests must be authorized before access is granted. ",,,,,,,,,,,,,,
3.1.2,Access Control,Limit information system access to the types of transactions and functions that authorized users are permitted to execute.,Utilize access control lists (derived from 3.1.1) to limit access to applications and data based on role and/or identity. Log access as appropriate.,,,,,,,,,,,,,,
3.1.3,Access Control,Control the flow of CUI in accordance with approved authorizations.,Enforce approved authorizations for controlling the flow of information within the system and between interconnected systems based on University policies.,,,,,,,,,,,,,,
3.1.4,Access Control,Separate the duties of individuals to reduce the risk of malevolent activity without collusion.,"If a system user accesses data as well as maintains the system in someway, create separate accounts with approriate access levels to separate functions.",,,,,,,,,,,,,,
3.1.5,Access Control,"Employ the principle of least privilege, including for specific security functions and privileged accounts.",Only grant enough privileges to a system user to allow them to sufficiently fulfill their job duties. 3.1.4 references account separation.,,,,,,,,,,,,,,
3.1.6,Access Control,Use non-privileged accounts or roles when accessing nonsecurity functions.,Users with multiple accounts (as defined in 3.1.4 and 3.1.5) must logon with the least privileged account. Access to non-security functions must be performed with an unprivileged account.,,,,,,,,,,,,,,
3.1.7,Access Control,Prevent non-privileged users from executing privileged functions and audit the execution of such functions.,"Enable auditing of all privileged functions, and control access using access control lists based on identity or role.",,,,,,,,,,,,,,
3.1.8,Access Control,Limit unsuccessful logon attempts.,Configure system to lock logon mechanism for a predetermined time and lock user account out of system after a predetermined number of invalid logon attempts.,,,,,,,,,,,,,,
3.1.9,Access Control,Provide privacy and security notices consistent with applicable CUI rules.,Logon screen should display appropriate notices.,,,,,,,,,,,,,,
3.1.10,Access Control,Use session lock with pattern-hiding displays to prevent access/viewing of data after period of inactivity.,Configure system to lock session after a predetermined time of inactivity. Allow user to lock session for temporary absence.,,,,,,,,,,,,,,
3.1.11,Access Control,Terminate (automatically) a user session after a defined condition.,Configure system to end a user session after a predetermined time based on duration and/or inactivity of session.,,,,,,,,,,,,,,
3.1.12,Access Control,Monitor and control remote access sessions.,Run network and system monitoring applications to monitor remote system access and log accordingly.,,,,,,,,,,,,,,
3.1.13,Access Control,Employ cryptographic mechanisms to protect the confidentiality of remote access sessions.,Any application used to remotely access the system must use approved encryption methods.,,,,,,,,,,,,,,
3.1.14,Access Control,Route remote access via managed access control points.,The information system routes all remote access through managed network access control points.,,,,,,,,,,,,,,
3.1.15,Access Control,Authorize remote execution of privileged commands and remote access to security-relevant information.,"The organization authorizes the execution of privileged commands and access to security-relevant information via remote access only for emergency purposes, and documents the rationale for such access in the security plan for the information system",,,,,,,,,,,,,,
3.1.16,Access Control,Authorize wireless access prior to allowing such connections.,"The organization establishes usage restrictions, configuration/ connection requirements, and implementation guidance for wireless access; and authorizes wireless access to the IS before allowing such connections",,,,,,,,,,,,,,
3.1.17,Access Control,Protect wireless access using authentication and encryption.,The information system protects wireless access to the system using authentication of users and encryption.,,,,,,,,,,,,,,
3.1.18,Access Control,Control connection of mobile devices.,"The organization establishes usage restrictions, configuration requirements, connection requirements, and implementation guidance for organization-controlled mobile devices, and authorizes the connection of mobile devices to the information system.",,,,,,,,,,,,,,
3.1.19,Access Control,Encrypt CUI on mobile devices.,The organization employs full-device drive encryption to protect the confidentiality and integrity of information on organization-defined mobile devices,,,,,,,,,,,,,,
3.1.20,Access Control,Verify and control/limit connections to and use of external information systems.,"The organization establishes terms and conditions, consistent with any trust relationships established with other external information systems, allowing authorized individuals to access the UI information system from external locations; and process, store, and transmit organization-controlled information using external information systems.",,,,,,,,,,,,,,
3.1.21,Access Control,Limit use of organizational portable storage devices on external information systems.,The organization restricts the use of portable storage devices by authorized individuals on external information systems.,,,,,,,,,,,,,,
3.1.22,Access Control,Control information posted or processed on publicly accessible information systems.,The organization designates individuals authorized to post information at publicly-accessible locations; trains authorized individuals to ensure public information does not contain non-public information; reviews proposed content prior to public posting; and annually reviews the content of public data for non-public information release (and removes such information if discovered).,,,,,,,,,,,,,,
3.2.1,Awareness and Training,"Ensure that managers, systems administrators, and users of organizational information systems are made aware of the security risks associated with their activities and of the applicable policies, standards, and procedures related to the security of organizational information systems.","Users, managers, and system administrators of the information system will receive initial and annual training commensurate with their role and responsibilities.  The training will provide a basic understanding of the need for information security, applicable policies, standards, and procedures related to the security of the information system, as well as user actions to maintain security and respond to suspected security incidents.  The content will also address awareness of the need for operations security.",,,,,,,,,,,,,,
3.2.2,Awareness and Training,Ensure that organizational personnel are adequately trained to carry out their assigned information security-related duties and responsibilities.,"Personnel with security-related duties and responsibilities will receive initial and annual training on their specific operational, managerial, and technical roles and responsibilities covering physical, personnel, and technical safeguards and countermeasures.  Training will address required security controls related to environmental and physical security risks, as well as training on indications of potentially suspicious email or web communications, to include suspicious communications and other anomalous system behavior.",,,,,,,,,,,,,,
3.2.3,Awareness and Training,Provide security awareness training on recognizing and reporting potential indicators of insider threat.,"Users, managers, and administrators of the information system will receive annual training on potential indicators and possible precursors of insider threat, to include long-term job dissatisfaction, attempts to gain unauthorized accesss to information, unexplained access to financial resources, bullying or sexual harassment of fellow employees, workplace violence, and other serious violations of organizational policies, procedures, directives, rules, or practices.  Security training will include how to communicate employee and management concerns regarding potential indicators of insider threat in accordance with established organizational policies and procedures.",,,,,,,,,,,,,,
3.3.1,Audit and Accountability,"Create, protect, and retain information system audit records to the extent needed to enable the monitoring, analysis, investigation, and reporting of unlawful, unauthorized, or inappropriate information system activity.","The organization creates, protects, retains information system audit records for between 30-days and 1-year (depending on data source) in order to enable the monitoring, analysis, investigation, and reporting of unlawful, unauthorized, or inappropriate information system activity.",,,,,,,,,,,,,,
3.3.2,Audit and Accountability,Ensure that the actions of individual information system users can be uniquely traced to those users so they can be held accountable for their actions.,The organization correlates network activity to individual user information order to uniquely trace and hold accountable users responsible for unauthorized actions.,,,,,,,,,,,,,,
3.3.3,Audit and Accountability,Review and update audited events.,The organization reviews and updates audited events annually.,,,,,,,,,,,,,,
3.3.4,Audit and Accountability,Alert in the event of an audit process failure.,"The information system alerts the Security Office in the event of an audit processing failure, and maintains audit records on host servers",,,,,,,,,,,,,,
3.3.5,Audit and Accountability,"Use automated mechanisms to integrate and correlate audit review, analysis, and reporting processes for investigation and response to indications of inappropriate, suspicious, or unusual activity.",The organization analyzes and correlates audit records across different repositories to gain organization-wide situational awareness.,,,,,,,,,,,,,,
3.3.6,Audit and Accountability,Provide audit reduction and report generation to support on-demand analysis and reporting.,"The information system's audit capability provides an audit reduction and report generation capability that supports on-demand audit review, analysis, and reporting requirements and after-the-fact security investigations; and does not alter the original content or time ordering of audit records.",,,,,,,,,,,,,,
3.3.7,Audit and Accountability,Provide an information system capability that compares and synchronizes internal system clocks with an authoritative source to generate time stamps for audit records.,"The information system uses internal system clocks to generate time stamps for audit records, and records time stamps that can be mapped to UTC; compares system clocks with authoritative NTP servers, and synchronizes system clocks when the time difference is greater than 1 second.",,,,,,,,,,,,,,
3.3.8,Audit and Accountability,"Protect audit information and audit tools from unauthorized access, modification, and deletion.","The information system protects audit information and audit tools from unauthorized access, modification, and deletion.",,,,,,,,,,,,,,
3.3.9,Audit and Accountability,Limit management of audit functionality to a subset of privileged users.,The organization authorizes access to management of audit functionality to only authorized individuals,,,,,,,,,,,,,,
3.4.1,Configuration Management,"Establish and maintain baseline configurations and inventories of organizational information systems (including hardware, software, firmware, and documentation) throughout the respective system development life cycles.","Baseline configurations will be developed, documented, and maintained for each information system type. Baseline configurations will include software versions and patch level, configuration parameters, network information including topologies, and communications with connected systems. Baseline configurations will be updated as needed to accomodate security risks or software changes. Baseline configurations will be developed and approved in conjunction with the CISO (or equivalent) and the information security owner. Deviations from baseline configurations will be documented.",,,,,,,,,,,,,,
3.4.2,Configuration Management,Establish and enforce security configuration settings for information technology products employed in organizational information systems.,Security settings will be included as part of baseline configurations. Security settings will reflect the most restrictive appropriate for compliance requirements. Changes or deviations to security settings will be documented.,,,,,,,,,,,,,,
3.4.3,Configuration Management,"Track, review, approve/disapprove, and audit changes to information systems.",Changes or deviations to information system security control configurations that affect compliance requirements will be reviewed and approved by a change advisory board. The changes will also be tracked and documented in an approved service management system (ITSM) or equivalent tracking service. Change control tracking will be audited annually.,,,,,,,,,,,,,,
3.4.4,Configuration Management,Analyze the security impact of changes prior to implementation.,Changes or deviations that affect information system security controls pertaining to compliance requirments will be tested prior to implementation to test their effectiveness. Only those changes or deviations that continue to meet compliance requirements will be approved and implemented.,,,,,,,,,,,,,,
3.4.5,Configuration Management,"Define, document, approve, and enforce physical and logical access restrictions associated with changes to the information system.",Only those individuals approved to make physical or logical changes on information systems will be allowed to do so. Authorized personnel will be approved and documented by the service owner and IT security. All change documentation will include the authorized personnel making the change.,,,,,,,,,,,,,,
3.4.6,Configuration Management,Employ the principle of least functionality by configuring the information system to provide only essential capabilities.,Information systems will be configured to deliver one function per system where practical.,,,,,,,,,,,,,,
3.4.7,Configuration Management,"Restrict, disable, and prevent the use of nonessential programs, functions, ports, protocols, and services.",Only those ports and protocols necessary to provide the service of the information system will be configured for that system. Applications and services not necessary to provide the service of the information system will not be configured or enabled. Systems services will be reviewed to determine what is essential for the function of that system.,,,,,,,,,,,,,,
3.4.8,Configuration Management,"Apply deny-by-exception (blacklist) policy to prevent the use of unauthorized software or deny-all, permit-by-exception (whitelisting) policy to allow the execution of authorized software.",The information system will be configured to only allow authorized software to run. The system will be configured to disallow running unauthorized software. The controls for allowing or disallowing the running of software may include but is not limited to the use of firewalls to restrict port access and user operational controls.,,,,,,,,,,,,,,
3.4.9,Configuration Management,Control and monitor user-installed software.,User controls will be in place to prohibit the installation of unauthorized software. All software for information systems must be approved.,,,,,,,,,,,,,,
3.5.1,Identification and Authentication,"Identify information system users, processes acting on behalf of users, or devices.","Systems will make use of institutionally assigned accounts for unique access by individual. Should service accounts be necessary for device or process authentication, the accounts will be created by the central identity management team and assigned to a member of the research team. Institutional and service accounts are managed centrally and deprovisioned automatically when an individual leaves.",,,,,,,,,,,,,,
3.5.2,Identification and Authentication,"Authenticate (or verify) the identities of those users, processes, or devices, as a prerequisite to allowing access to organizational information systems.","Per control 3.5.1, the accounts in use will be assigned and managed by the university's central identity management system. Accounts are provisioned as part of the established account creation process. Accounts are uniquely assigned to faculty, staff upon hire; students upon matriculation; or affiliates when sponsored by an authorized faculty or staff member. Access to data associated with the project is controlled through role-based authorization by the project's PI. Initial passwords are randomly generated strings provided via a password reset mechanism to each facutly, staff, student or affiliate. The password must be reset upon first use. All passwords are at least 8 characters, and require a mix of upper and lower case letters, numbers, and special characters. ",,,,,,,,,,,,,,
3.5.3,Identification and Authentication,Use multifactor authentication for local and network access to privileged accounts and for network access to non-privileged accounts.,Any network access to servers and virtual machines hosting the project data requires multifactor authentication regardless if the account is privileged or unprivileged.,,,,,,,,,,,,,,
3.5.4,Identification and Authentication,Employ replay-resistant authentication mechanisms for network access to privileged and non-privileged accounts.,"Only anti-replay authentication mechanisms will be used. The authentication front-end technologies include shibboleth, SSH, Microsoft remote desktop protocol, and Cisco SSL VPN. Backend authentication mechanisms in use include Kerberos and Active Directory.",,,,,,,,,,,,,,
3.5.5,Identification and Authentication,Prevent reuse of identifiers for a defined period.,"Per control 3.5.1, the accounts in use will be assigned and managed by the university's central identity management system. Accounts are provisioned as part of the established account creation process. Accounts are uniquely assigned to faculty, staff, students and affiliates (guests). Account identifiers are not reused.",,,,,,,,,,,,,,
3.5.6,Identification and Authentication,Disable identifiers after a defined period of inactivity.,User accounts or identifiers associated with a project or contract covered by NIST 800-171 are monitored for inactivity. Account access to the in-scope systems after 90/180/365 days of inactivity.,,,,,,,,,,,,,,
3.5.7,Identification and Authentication,Enforce a minimum password complexity and change of characters when new passwords are created.,"Account passwords must be a minimum of 8 characters and a mix of upper/lower case, numbers and symbols.",,,,,,,,,,,,,,
3.5.8,Identification and Authentication,Prohibit password reuse for a specified number of generations.,"Passwords may not be re-used for <XX days>.Users may not re-use the same password when changing their password for at least XX changes.",,,,,,,,,,,,,,
3.5.9,Identification and Authentication,Allow temporary password use for system logons with an immediate change to a permanent password.,"New employees will receive an account and instructions for creating a password from HR during the hiring process. New students receive notification of their account via email with an activation link to set their initial password. Temporary password activation links are sent to validated faculty, staff and students should they require a password reset or change. Temporary passwords are only good to allow for a password reset.",,,,,,,,,,,,,,
3.5.10,Identification and Authentication,Store and transmit only encrypted representation of passwords.,"Passwords are not stored in reversible encryption form in any of our systems. Instead, they are stored as one-way hashes constructed from passwords.",,,,,,,,,,,,,,
3.5.11,Identification and Authentication,Obscure feedback of authentication information.,The most basic feedback control is never informing the user in an error message what part of the of the authentication transaction failed.,,,,,,,,,,,,,,
3.6.1,Incident Response,"Establish an operational incident-handling capability for organizational information systems that includes adequate preparation, detection, analysis, containment, recovery, and user response activities.","The organization maintains a standardized incident-response framework that includes adequate preparation, detection, analysis, containment, recovery, and user response activities.",,,,,,,,,,,,,,
3.6.2,Incident Response,"Track, document, and report incidents to appropriate officials and/or authorities both internal and external to the organization.","The organization tracks, documents, and reports incidents to appropriate authorities and/or officials both inside and outside the organization.",,,,,,,,,,,,,,
3.6.3,Incident Response,Test the organizational incident response capability.,The organization tests the incident response capability for the information system at least annually using tabletop exercises and simulations to determine incident response effectiveness and documents the results.,,,,,,,,,,,,,,
3.7.1,Maintenance,Perform maintenance on organizational information systems.,"All systems, devices, supporting systems for organizational information systems must be maintained according to manufacturer recommendations or organizationally defined schedules ",,,,,,,,,,,,,,
3.7.2,Maintenance,"Provide effective controls on the tools, techniques, mechanisms, and personnel used to conduct information system maintenance.","Organizations will put in place controls that limit the tools, techniques, mechanisms and personnel that will be used to maintain information systems, devices, and supporting systems.  This can include a lists of authorized tools, authorized personnel, and authorized techniques and mechanisms.  Any such maintenance must occur within the context of other information systems controls in place.",,,,,,,,,,,,,,
3.7.3,Maintenance,Ensure equipment removed for off-site maintenance is sanitized of any CUI.,Any media that is removed from the premises for maintenance or disposal must be sanitized according to the organization's media sanitization policies.,,,,,,,,,,,,,,
3.7.4,Maintenance,Check media containing diagnostic and test programs for malicious code before the media are used in the information system.,"Any media that is provided by authorized maintenance personnel (and not normal Systems administrators/owners) for troubleshooting, diagnostics, or other maintenance must be run through an anti-virus/anti-malware program prior to use in an organizational information system.",,,,,,,,,,,,,,
3.7.5,Maintenance,Require multifactor authentication to establish nonlocal maintenance sessions via external network connections and terminate such connections when nonlocal maintenance is complete.,All remote access to an information system for maintenance or diagnostics must occur via an approved remote solution using multi-factor authentication.  A remote session must be disconnected when maintenance is complete,,,,,,,,,,,,,,
3.7.6,Maintenance,Supervise the maintenance activities of maintenance personnel without required access authorization.,All activities of maintenance personnel who do not normally have access to a system must be monitored.  The organization will define approved methods for supervision.,,,,,,,,,,,,,,
3.8.1,Media Protection,"Protect (i.e., physically control and securely store) information system media containing CUI, both paper and digital.","Responsible parties for data in these systems will document and ensure proper authorization controls for data in media and print.  Documented workflow, data access contols and media policy will be enforced to ensure proper access controls.",,,,,,,,,,,,,,
3.8.2,Media Protection,Limit access to CUI on information system media to authorized users.,All CUI systems will be managed under least access rules.,,,,,,,,,,,,,,
3.8.3,Media Protection,Sanitize or destroy information system media containing CUI before disposal or release for reuse.,"All managed data storage will be erased, encrypted or destroyed using mechanisms with sufficient power to ensure that no usable data is retrievable from storage devices identified in the workflow of these systems/services.",,,,,,,,,,,,,,
3.8.4,Media Protection,Mark media with necessary CUI markings and distribution limitations.,All CUI system will be identified with an asset control identifier,,,,,,,,,,,,,,
3.8.5,Media Protection,Control access to media containing CUI and maintain accountability for media during transport outside of controlled areas.,Only approved individuals are to have access to media from CUI systems.  Chain of evidence will be maintained for any media removed from these systems.,,,,,,,,,,,,,,
3.8.6,Media Protection,Implement cryptographic mechanisms to protect the confidentiality of CUI stored on digital media during transport unless otherwise protected by alternative physical safeguards.,All CUI data on media will be encrypted or physically locked prior to transport outside of the institutions secure locations.,,,,,,,,,,,,,,
3.8.7,Media Protection,Control the use of removable media on information system components.,Removable media will only be allowed if there are processes in place to control them. Removable media must be able to support physical encryption and key vaulting must be utilized to ensure recoverabliity,,,,,,,,,,,,,,
3.8.8,Media Protection,Prohibit the use of portable storage devices when such devices have no identifiable owner.,Only approved portable storage devices under asset management are to be used to store CUI data.,,,,,,,,,,,,,,
3.8.9,Media Protection,Protect the confidentiality of backup CUI at storage locations.,Data backups will be encrypted on media before removal from a secured facility,,,,,,,,,,,,,,
3.9.1,Personnel Security,Screen individuals prior to authorizing access to information systems containing CUI.,"The organization will screen individuals prior to authorizing access to the information system, in accordance with applicable federal laws, Executive Orders, directives, regulations, policies, standards, guidance, and specific criteria established for the risk designations of assigned positions.  Criteria may include, for example, position sensitivity background screening requirements.",,,,,,,,,,,,,,
3.9.2,Personnel Security,Ensure that CUI and information systems containing CUI are protected during and after personnel actions such as terminations and transfers.,"The organzation will disable information system accesss prior to individual termination or transfer.  Within 24 hours of termination or transfer, the organization will revoke any authenticators/credentials associated with the individual, retrieve all organizational information system-related property from the individual, retain access to organizational information and information systems formerly controlled by the individual, and notify the information security office and data owner of the change in authorization.",,,,,,,,,,,,,,
3.10.1,Physical Protection,"Limit physical access to organizational information systems, equipment, and the respective operating environments to authorized individuals.","The Area/Building Manager will desginate building areas as ""sensitve"" and design physical security protections (including guards, locks, cameras, card readers, etc) as necessary to limit physical access to the area to only authorized individuals.  Output devices such as printers should be placed in areas where their use does not expose data to unauthorized individuals.",,,,,,,,,,,,,,
3.10.2,Physical Protection,Protect and monitor the physical facility and support infrastructure for those information systems.,"The Area/Building Manager will review the location and type of physical security in use (including guards, locks, card readers, etc) and evaluate its suitability for the organization's needs.",,,,,,,,,,,,,,
3.10.3,Physical Protection,Escort visitors and monitor visitor activity.,All visitors to sensitive areas will be escorted by an authorized employee at all times.,,,,,,,,,,,,,,
3.10.4,Physical Protection,Maintain audit logs of physical access.,Logs of physical access to sensitive areas are maintained according to retention policies.  This includes authorized access as well as visitor access.,,,,,,,,,,,,,,
3.10.5,Physical Protection,Control and manage physical access devices.,"Physical access devices (such as card readers, proximity readers, and locks) will be maintained and operated according to the manufacturer recommendations.  These devices will be updated with any changed access control information as necessary to prevent unauthorized access.   The Area/Building Manager will review the location and type of each physical access device and evaluate its suitability for the organization's needs.",,,,,,,,,,,,,,
3.10.6,Physical Protection,"Enforce safeguarding measures for CUI at alternate work sites (e.g., telework sites).",All alternate sites where sensitive data is stored or processed must meet the same physical security requirements as the main site.,,,,,,,,,,,,,,
3.11.1,Risk Assessment,"Periodically assess the risk to organizational operations (including mission, functions, image, or reputation), organizational assets, and individuals, resulting from the operation of organizational information systems and the associated processing, storage, or transmission of CUI.","The stewards of the system/services will provide an initial and periodic risk assessment.  The assessments will be impact scored using FIPS 199.  Changes in the environment that may affect the system or service, changes in use of or infrastructure will be documented and assessed as modified.  The impact analysis is to be a living document and incorporated into a larger risk assessment profile for the system/service.",,,,,,,,,,,,,,
3.11.2,Risk Assessment,Scan for vulnerabilities in the information system and applications periodically and when new vulnerabilities affecting the system are identified.,Systems will be periodically scanned for common and new vulnerabilities.  Any vulnerability not documented will be risk assessed and documented.  Reports regarding the scans will be made available to system stewards and owners in a timely manner.  ,,,,,,,,,,,,,,
3.11.3,Risk Assessment,Remediate vulnerabilities in accordance with assessments of risk.,"Stewards and owners upon recognition of any vulnerablity will provide an action plan for remediation, acceptance, aversion or transferance of the vulnerability risk including a reasonable time frame for implementation.  All high vulnerabilities will be prioritized.",,,,,,,,,,,,,,
3.12.1,Security Assessment,Periodically assess the security controls in organizational information systems to determine if the controls are effective in their application.,"An annual security assessment will be conducted to ensure that security controls are implemented correctly and meet the security requirements for the compliance environment. The assessment scope includes all information systems and networks in or directly connected to the compliance environment and all security controls and procedures necessary to meet the compliance requirements of the environment. The assessment will include, but is not limited to, vulnerability scanning, penetration testing, security control testing and reviews, configuration testing and reviews, log reviews, and personnel interviews. A representative sampling of systems will be assessed. Information Security, or an independent security auditor, will conduct the assessment. A final written assessment report and findings will be provided to the CIO at the conclusion of the assessment.",,,,,,,,,,,,,,
3.12.2,Security Assessment,  ,"An action plan to remediate identified weaknesses or deficiencies will be maintained. The action plan will designate remediation dates and milestones for each item. Definiciencies and weaknesses identified in security controls assessments, security impact analyses, and continuous monitoring activities will be added to the action plan within 30 days of the findings being reported.",,,,,,,,,,,,,,
3.12.3,Security Assessment,Monitor information system security controls on an ongoing basis to ensure the continued effectiveness of the controls.,"At a minimum, systems will be monitored for privileged access, permission changes, kernel modifications, and binary changes, against a control and system baseline. Continuous monitoring reports and alerts will be reviewed daily. Unauthorized changes or unauthorized access will be reported to the CISO and information system owner within 24 hours of it being reported.",,,,,,,,,,,,,,
3.13.1,System and Communications Protection,"Monitor, control, and protect organizational communications (i.e., information transmitted or received by organizational information systems) at the external boundaries and key internal boundaries of the information systems.","Enumerate policies for managed interfaces such as gateways, routers, firewalls, VPNs; organizational DMZs; and restricting external web traffic to only designated servers.",,,,,,,,,,,,,,
3.13.2,System and Communications Protection,"Employ architectural designs, software development techniques, and systems engineering principles that promote effective information security within organizational information systems.","Outline organizational information security policies, to include standards for architectural design, software development, and system engineering principles designed to promote information security.",,,,,,,,,,,,,,
3.13.3,System and Communications Protection,Separate user functionality from information system management functionality.,"Enumerate the physical or logical controls used to separate user functionality from system management-related functionality (e.g., to ensure that administration (e.g. privilege) options are not available to general users).",,,,,,,,,,,,,,
3.13.4,System and Communications Protection,Prevent unauthorized and unintended information transfer via shared system resources.,Enumerate the controls implemented to prevent object reuse and to protect residual information.,,,,,,,,,,,,,,
3.13.5,System and Communications Protection,Implement subnetworks for publicly accessible system components that are physically or logically separated from internal networks.,Outline the policies for organizational DMZs.,,,,,,,,,,,,,,
3.13.6,System and Communications Protection,"Deny network communications traffic by default and allow network communications traffic by exception (i.e., deny all, permit by exception).",Document all business need exceptions to network communications traffic (inbound/outbound) deny all policies.,,,,,,,,,,,,,,
3.13.7,System and Communications Protection,Prevent remote devices from simultaneously establishing non-remote connections with the information system and communicating via some other connection to resources in external networks.,"Outline controls to prevent split tunneling in remote devices, and to mandate VPN use when necessary for business functions.",,,,,,,,,,,,,,
3.13.8,System and Communications Protection,Implement cryptographic mechanisms to prevent unauthorized disclosure of CUI during transmission unless otherwise protected by alternative physical safeguards.,Outline the processes and automated mechanisms used to provide encryption of CUI during transmission; or document all alternative physical safeguards used to provide confidentiality of CUI during transmission.,,,,,,,,,,,,,,
3.13.9,System and Communications Protection,Terminate network connections associated with communications sessions at the end of the sessions or after a defined period of inactivity.,"Outline controls for terminating communications sessions on both internal and external networks (e.g., deallocating TCP/IP addresses/port pairs); and institute time periods of inactivity based on type of network accesses.",,,,,,,,,,,,,,
3.13.10,System and Communications Protection,Establish and manage cryptographic keys for cryptography employed in the information system;,"Outline the processes and automated mechanisms used to provide key management within the information system (should also follow any relevant laws, regulations, and policies).",,,,,,,,,,,,,,
3.13.11,System and Communications Protection,Employ FIPS-validated cryptography when used to protect the confidentiality of CUI.,Outline where FIPS-validated cryptographic is used.,,,,,,,,,,,,,,
3.13.12,System and Communications Protection,Prohibit remote activation of collaborative computing devices and provide indication of devices in use to users present at the device.,"Enumerate actions to remove or disable collaborative computing devices from information systems housing CUI; and to notify users when collaborative computing devices are in use (e.g., cameras, microphones, etc.).",,,,,,,,,,,,,,
3.13.13,System and Communications Protection,Control and monitor the use of mobile code.,"Define limits of mobile code usage, establish usage restrictions, and specifically authorize use of mobile code (e.g., Java, ActiveX, Flash, etc.) within an information system.",,,,,,,,,,,,,,
3.13.14,System and Communications Protection,Control and monitor the use of Voice over Internet Protocol (VoIP) technologies.,"Define and establish usage restrictions, and specifically authorize the business necessary use of VoIP technologies within an information system.",,,,,,,,,,,,,,
3.13.15,System and Communications Protection,Protect the authenticity of communications sessions.,"Outline the controls implemented to protect session communications (e.g., the controls implemented to validate identities and information transmitted to protect against MITM attacks, session hijacking, and insertion of false information into sessions).",,,,,,,,,,,,,,
3.13.16,System and Communications Protection,Protect the confidentiality of CUI at rest.,Outline controls used to protect CUI while stored in organizational information systems.,,,,,,,,,,,,,,
3.14.1,System and Information Integrity,"Identify, report, and correct information and information system flaws in a timely manner.","The organization will perform all security-relevant software updates, to include patching, service packs, hot fixes, and anti-virus signature additions in response to identified system flas and vulnerabilities within the time prescribed by organizational policy (Critical/High: 5 days, Moderate: 30 days, Low: As-Available).  When available, managers and administrators of the information system will rely on centralized management of the flaw remediation process, to include the use of automated update software, patch management tools, and automated status scanning.  ",,,,,,,,,,,,,,
3.14.2,System and Information Integrity,Provide protection from malicious code at appropriate locations within organizational information systems.,"The organization will employ malicious code protection mechanisms at information system entry and exit points to minimize the presence of malicious code.  These protection mechanisms may include, for example, firewalls, electronic mail servers, web servers, proxy servers, remote-access servers, workstations, notebook computers, and mobile devices.",,,,,,,,,,,,,,
3.14.3,System and Information Integrity,Monitor information system security alerts and advisories and take appropriate actions in response.,"The organization will receive security alerts, advisories, and directives from reputable external agencies, and disseminate this information to individuals with need-to-know in the organization.  In the event of alerts, advisories, or directives that have widespread impact on the organization, internal security directives will be disseminated directly to information system users, managers, and administrators.",,,,,,,,,,,,,,
3.14.4,System and Information Integrity,Update malicious code protection mechanisms when new releases are available.,The organization will update information system protection mechanisms within 5 days of new releases.,,,,,,,,,,,,,,
3.14.5,System and Information Integrity,"Perform periodic scans of the information system and real-time scans of files from external sources as files are downloaded, opened, or executed.","The organization will perform quarterly scans of the information system, as well as real-time scanning of files from external sources. ",,,,,,,,,,,,,,
3.14.6,System and Information Integrity,"Monitor the information system including inbound and outbound communications traffic, to detect attacks and indicators of potential attacks.","The organizaiton will monitor the information system to detect attacks and indicators of potential attacks, as well as unauthorized local, network, and remote connections.  The organization will strategically deploy monitoring devices within the information system to collect essential information system.  Information gained from these monitoring tools will be protected from unauthorized access, modification, and deletion. ",,,,,,,,,,,,,,
3.14.7,System and Information Integrity,Identify unauthorized use of the information system.,"The organization will monitor the information system to identify unauthorized access and use, as well as potential misuse of the information system.",,,,,,,,,,,,,,