Category ID,Category Title,Category Description,Sub-Control,In-scope Asset,Enabling Asset,Security Function,Title,Description,Priority,PCI DSS,
ID.AM,Asset Management,"Asset Management (ID.AM): The data, personnel, devices, systems, and facilities that enable the organization to achieve business purposes are identified and managed consistent with their relative importance to organizational objectives and the organization's risk strategy.",ID.AM-1,IT Asset,"Active Device Discovery System,
Asset Inventory System,
Asset Management Policy",IDENTIFY,Hardware Inventory,ID.AM-1: Physical devices and systems within the organization are inventoried,1,,
ID.AM,Asset Management,"Asset Management (ID.AM): The data, personnel, devices, systems, and facilities that enable the organization to achieve business purposes are identified and managed consistent with their relative importance to organizational objectives and the organization's risk strategy.",ID.AM-2,Software,"Software Application Inventory,
Asset Management Policy",IDENTIFY,Software Inventory,ID.AM-2: Software platforms and applications within the organization are inventoried,1,,
ID.AM,Asset Management,"Asset Management (ID.AM): The data, personnel, devices, systems, and facilities that enable the organization to achieve business purposes are identified and managed consistent with their relative importance to organizational objectives and the organization's risk strategy.",ID.AM-3,Business App,Asset Inventory System,IDENTIFY,Communication and data flows,ID.AM-3: Organizational communication and data flows are mapped,3,,
ID.AM,Asset Management,"Asset Management (ID.AM): The data, personnel, devices, systems, and facilities that enable the organization to achieve business purposes are identified and managed consistent with their relative importance to organizational objectives and the organization's risk strategy.",ID.AM-4,"BYOD, Cloud Device, SaaS, CDN, PaaS","Asset Inventory System,
Software Application Inventory",IDENTIFY,External information systems,ID.AM-4: External information systems are catalogued,3,,
ID.AM,Asset Management,"Asset Management (ID.AM): The data, personnel, devices, systems, and facilities that enable the organization to achieve business purposes are identified and managed consistent with their relative importance to organizational objectives and the organization's risk strategy.",ID.AM-5,"Application, IT Asset, People","Asset Inventory System,
Resource Classification Process,
Asset Management Policy",IDENTIFY,Resource prioritization,"ID.AM-5: Resources (e.g., hardware, devices, data, time, personnel, and software) are prioritized based on their classification, criticality, and business value ",1,,
ID.AM,Asset Management,"Asset Management (ID.AM): The data, personnel, devices, systems, and facilities that enable the organization to achieve business purposes are identified and managed consistent with their relative importance to organizational objectives and the organization's risk strategy.",ID.AM-6,"IT Asset, Application, Software, People","Information Security Policy,
Security Org Chart",IDENTIFY,Establishing Cybersecurity roles and responsibilities,"ID.AM-6: Cybersecurity roles and responsibilities for the entire workforce and third-party stakeholders (e.g., suppliers, customers, partners) are established",1,,
ID.BE,Business Environment,"Business Environment (ID.BE): The organization's mission, objectives, stakeholders, and activities are understood and prioritized; this information is used to inform cybersecurity roles, responsibilities, and risk management decisions.",ID.BE-1,,Role doc,IDENTIFY,Organization's role,ID.BE-1: The organization's role in the supply chain is identified and communicated,3,,
ID.BE,Business Environment,"Business Environment (ID.BE): The organization's mission, objectives, stakeholders, and activities are understood and prioritized; this information is used to inform cybersecurity roles, responsibilities, and risk management decisions.",ID.BE-2,,,IDENTIFY,Organization's place,ID.BE-2: The organization's place in critical infrastructure and its industry sector is identified and communicated,3,,
ID.BE,Business Environment,"Business Environment (ID.BE): The organization's mission, objectives, stakeholders, and activities are understood and prioritized; this information is used to inform cybersecurity roles, responsibilities, and risk management decisions.",ID.BE-3,,,IDENTIFY,Organizational Prorities,"ID.BE-3: Priorities for organizational mission, objectives, and activities are established and communicated",3,,
ID.BE,Business Environment,"Business Environment (ID.BE): The organization's mission, objectives, stakeholders, and activities are understood and prioritized; this information is used to inform cybersecurity roles, responsibilities, and risk management decisions.",ID.BE-4,"Data, voice, power, cabaling, generator",,IDENTIFY,Dependencies and critical functions,ID.BE-4: Dependencies and critical functions for delivery of critical services are established,3,,
ID.BE,Business Environment,"Business Environment (ID.BE): The organization's mission, objectives, stakeholders, and activities are understood and prioritized; this information is used to inform cybersecurity roles, responsibilities, and risk management decisions.",ID.BE-5,"Business App, Storage, RACI",,IDENTIFY,Resilience requirements to support delivery of critical services,"ID.BE-5: Resilience requirements to support delivery of critical services are established for all operating states (e.g. under duress/attack, during recovery, normal operations)",3,,
ID.GV,Governance,"Governance (ID.GV): The policies, procedures, and processes to manage and monitor the organization's regulatory, legal, risk, environmental, and operational requirements are understood and inform the management of cybersecurity risk.",ID.GV-1,"IT Asset, Application, Software, People",Information Security Policy,IDENTIFY,Organizational cybersecurity policy communicated,ID.GV-1: Organizational cybersecurity policy is established and communicated,1,,
ID.GV,Governance,"Governance (ID.GV): The policies, procedures, and processes to manage and monitor the organization's regulatory, legal, risk, environmental, and operational requirements are understood and inform the management of cybersecurity risk.",ID.GV-2,"IT Asset, Application, Software, People",Information Security Policy,IDENTIFY,Cybersecurity roles and responsibilities coordination,ID.GV-2: Cybersecurity roles and responsibilities are coordinated and aligned with internal roles and external partners,1,,
ID.GV,Governance,"Governance (ID.GV): The policies, procedures, and processes to manage and monitor the organization's regulatory, legal, risk, environmental, and operational requirements are understood and inform the management of cybersecurity risk.",ID.GV-3,"IT Asset, Application, Software, People",Information Security Policy,IDENTIFY,Cybersecurity legal and regulatory requirements understanding and management,"ID.GV-3: Legal and regulatory requirements regarding cybersecurity, including privacy and civil liberties obligations, are understood and managed",1,,
ID.GV,Governance,"Governance (ID.GV): The policies, procedures, and processes to manage and monitor the organization's regulatory, legal, risk, environmental, and operational requirements are understood and inform the management of cybersecurity risk.",ID.GV-4,"IT Asset, Application, Software, People",Governance and Risk Management Process,IDENTIFY,Governance and risk management,ID.GV-4: Governance and risk management processes address cybersecurity risks,1,,
ID.RA,Risk Assessment ,"Risk Assessment (ID.RA): The organization understands the cybersecurity risk to organizational operations (including mission, functions, image, or reputation), organizational assets, and individuals.",ID.RA-1,"IT Asset, Application, Software, People","Vulnerability Management System,
Vulnerability Patch Management Policy",IDENTIFY,Vulnerability identification and documentation,ID.RA-1: Asset vulnerabilities are identified and documented,1,,
ID.RA,Risk Assessment ,"Risk Assessment (ID.RA): The organization understands the cybersecurity risk to organizational operations (including mission, functions, image, or reputation), organizational assets, and individuals.",ID.RA-2,"IT Asset, Application, Software",Threat Intelligence Feed,IDENTIFY,External cyber threat intelligence source,ID.RA-2: Cyber threat intelligence is received from information sharing forums and sources,1,,
ID.RA,Risk Assessment ,"Risk Assessment (ID.RA): The organization understands the cybersecurity risk to organizational operations (including mission, functions, image, or reputation), organizational assets, and individuals.",ID.RA-3,"IT Asset, Application, Software","Threat Management,
Active Device Discovery System,
Asset Inventory System,
Software Application Inventory,
Asset Inventory System,
Resource Classification Process
",IDENTIFY,Threat identification and documentation,"ID.RA-3: Threats, both internal and external, are identified and documented",1,,
ID.RA,Risk Assessment ,"Risk Assessment (ID.RA): The organization understands the cybersecurity risk to organizational operations (including mission, functions, image, or reputation), organizational assets, and individuals.",ID.RA-4,"IT Asset, Application, Software","Risk Assessment System,
Risk Management Policy",IDENTIFY,Identification of business impacts,ID.RA-4: Potential business impacts and likelihoods are identified,1,,
ID.RA,Risk Assessment ,"Risk Assessment (ID.RA): The organization understands the cybersecurity risk to organizational operations (including mission, functions, image, or reputation), organizational assets, and individuals.",ID.RA-5,"IT Asset, Application, Software","Risk Assessment System,
Risk Management Policy",IDENTIFY,Risk determination,"ID.RA-5: Threats, vulnerabilities, likelihoods, and impacts are used to determine risk",1,,
ID.RA,Risk Assessment ,"Risk Assessment (ID.RA): The organization understands the cybersecurity risk to organizational operations (including mission, functions, image, or reputation), organizational assets, and individuals.",ID.RA-6,Risk Management,"Risk Assessment System,
Risk Management Policy",IDENTIFY,Risk response identification and prioritization,ID.RA-6: Risk responses are identified and prioritized,1,,
ID.RM,Risk Management Strategy,"Risk Management Strategy (ID.RM): The organization's priorities, constraints, risk tolerances, and assumptions are established and used to support operational risk decisions.",ID.RM-1,Risk Management,,IDENTIFY,Risk management process,"ID.RM-1: Risk management processes are established, managed, and agreed to by organizational stakeholders",2,,
ID.RM,Risk Management Strategy,"Risk Management Strategy (ID.RM): The organization's priorities, constraints, risk tolerances, and assumptions are established and used to support operational risk decisions.",ID.RM-2,Process,,IDENTIFY,Organizational risk tolerance,ID.RM-2: Organizational risk tolerance is determined and clearly expressed,2,,
ID.RM,Risk Management Strategy,"Risk Management Strategy (ID.RM): The organization's priorities, constraints, risk tolerances, and assumptions are established and used to support operational risk decisions.",ID.RM-3,Process,,IDENTIFY,Determination of risk tolerance,ID.RM-3: The organization's determination of risk tolerance is informed by its role in critical infrastructure and sector specific risk analysis,2,,
ID.SC,Supply Chain Risk Management,"Supply Chain Risk Management (ID.SC):
The organization's priorities, constraints, risk tolerances, and assumptions are established and used to support risk decisions associated with managing supply chain risk. The organization has established and implemented the processes to identify, assess and manage supply chain risks.",ID.SC-1,Process,,IDENTIFY,Cyber supply chain risk management processes,"ID.SC-1: Cyber supply chain risk management processes are identified, established, assessed, managed, and agreed to by organizational stakeholders",3,,
ID.SC,Supply Chain Risk Management,"Supply Chain Risk Management (ID.SC):
The organization's priorities, constraints, risk tolerances, and assumptions are established and used to support risk decisions associated with managing supply chain risk. The organization has established and implemented the processes to identify, assess and manage supply chain risks.",ID.SC-2,Vendor Management,,IDENTIFY,IT Suppliers and third party partners risk assessment process,"ID.SC-2: Suppliers and third party partners of information systems, components, and services are identified, prioritized, and assessed using a cyber supply chain risk assessment process ",3,,
ID.SC,Supply Chain Risk Management,"Supply Chain Risk Management (ID.SC):
The organization's priorities, constraints, risk tolerances, and assumptions are established and used to support risk decisions associated with managing supply chain risk. The organization has established and implemented the processes to identify, assess and manage supply chain risks.",ID.SC-3,Process,,IDENTIFY,Contracts with suppliers and third-party partners,ID.SC-3: Contracts with suppliers and third-party partners are used to implement appropriate measures designed to meet the objectives of an organization's cybersecurity program and Cyber Supply Chain Risk Management Plan.,2,,
ID.SC,Supply Chain Risk Management,"Supply Chain Risk Management (ID.SC):
The organization's priorities, constraints, risk tolerances, and assumptions are established and used to support risk decisions associated with managing supply chain risk. The organization has established and implemented the processes to identify, assess and manage supply chain risks.",ID.SC-4,Process,,IDENTIFY,Suppliers and third-party partners audits,"ID.SC-4: Suppliers and third-party partners are routinely assessed using audits, test results, or other forms of evaluations to confirm they are meeting their contractual obligations.",3,,
ID.SC,Supply Chain Risk Management,"Supply Chain Risk Management (ID.SC):
The organization's priorities, constraints, risk tolerances, and assumptions are established and used to support risk decisions associated with managing supply chain risk. The organization has established and implemented the processes to identify, assess and manage supply chain risks.",ID.SC-5,Process,,IDENTIFY,Vendor Response and recovery planning and testing,ID.SC-5: Response and recovery planning and testing are conducted with suppliers and third-party providers,3,,
PR.AC,Access Control,"Identity Management, Authentication and Access Control (PR.AC): Access to physical and logical assets and associated facilities is limited to authorized users, processes, and devices, and is managed consistent with the assessed risk of unauthorized access to authorized activities and transactions.",PR.AC-1,"IT Asset, Application, Software","Identity & Access Management System,
New Hire Provisioning Process,
Provisioning Process,
Termination Process,
User Access Reviews Process",PROTECT,Identity and Credentials,"PR.AC-1: Identities and credentials are issued, managed, verified, revoked, and audited for authorized devices, users and processes",1,,
PR.AC,Access Control,"Identity Management, Authentication and Access Control (PR.AC): Access to physical and logical assets and associated facilities is limited to authorized users, processes, and devices, and is managed consistent with the assessed risk of unauthorized access to authorized activities and transactions.",PR.AC-2,IT Asset,"Review of  software  that manages access to DC,
Physical Inspection of DC (entrie points) - Process to enter DC,
Physical & Environmental Security Policy",PROTECT,Physical Access,PR.AC-2: Physical access to assets is managed and protected,1,"9.1, 9.2, 9.3, 9.4, 9.5, 9.6, 9.7, 9.9, 9.10",
PR.AC,Access Control,"Identity Management, Authentication and Access Control (PR.AC): Access to physical and logical assets and associated facilities is limited to authorized users, processes, and devices, and is managed consistent with the assessed risk of unauthorized access to authorized activities and transactions.",PR.AC-3,"IT Asset, Application","Multi-Factor Authentication System,
Provisioning and De-Provisiioning Process,
Information Security Policy,
Data Classification & Handling Policy",PROTECT,Remote Access,PR.AC-3: Remote access is managed,1," 2.3, 8.1.5, 8.3, 8.5.1, 12.3.8, 12.3.9, 12.3.10",
PR.AC,Access Control,"Identity Management, Authentication and Access Control (PR.AC): Access to physical and logical assets and associated facilities is limited to authorized users, processes, and devices, and is managed consistent with the assessed risk of unauthorized access to authorized activities and transactions.",PR.AC-4,"IT Asset, Application","Privileged Account Management System,
New Hire Provisioning Process,
Provisioning Process",PROTECT,Least-Privilege,"PR.AC-4: Access permissions and authorizations are managed, incorporating the principles of least privilege and separation of duties",1,,
PR.AC,Access Control,"Identity Management, Authentication and Access Control (PR.AC): Access to physical and logical assets and associated facilities is limited to authorized users, processes, and devices, and is managed consistent with the assessed risk of unauthorized access to authorized activities and transactions.",PR.AC-5,"Firewall, ZPA","Network Firewall, Acess Control System,
Network Security Policy",PROTECT,Network Segmentation,"PR.AC-5: Network integrity is protected (e.g., network segregation, network segmentation)",1,,
PR.AC,Access Control,"Identity Management, Authentication and Access Control (PR.AC): Access to physical and logical assets and associated facilities is limited to authorized users, processes, and devices, and is managed consistent with the assessed risk of unauthorized access to authorized activities and transactions.",PR.AC-6,"IT Asset, Application, Software","Identity & Access Management System,
Identification & Authentication Policy",PROTECT,"Authentication, authorization and identify proofing",PR.AC-6: Identities are proofed and bound to credentials and asserted in interactions,1,,
PR.AC,Access Control,"Identity Management, Authentication and Access Control (PR.AC): Access to physical and logical assets and associated facilities is limited to authorized users, processes, and devices, and is managed consistent with the assessed risk of unauthorized access to authorized activities and transactions.",PR.AC-7,"IT Asset, Application","Multi-Factor Authentication System, Directory Services, Local Authentication
",PROTECT,"Single-factor, multi-factor authentication","PR.AC-7: Users, devices, and other assets are authenticated (e.g., single-factor, muloi-factor) commensurate with the risk of the transaction (e.g., individuals' security and privacy risks and other organizational risks)",1,,
PR.AT,Awareness and Training ,"Awareness and Training (PR.AT): The organization's personnel and partners are provided cybersecurity awareness education and are trained to perform their cybersecurity-related duties and responsibilities consistent with related policies, procedures, and agreements.",PR.AT-1,People,,PROTECT,All users are informed and trained ,PR.AT-1: All users are informed and trained ,2,,
PR.AT,Awareness and Training ,"Awareness and Training (PR.AT): The organization's personnel and partners are provided cybersecurity awareness education and are trained to perform their cybersecurity-related duties and responsibilities consistent with related policies, procedures, and agreements.",PR.AT-2,"enterprise architects, information system developers, software developers, acquisition official, procurement officials, information system manager, system admin, system administrator, network administrator, network admin, EA",,PROTECT,Privileged users understand their roles and responsibilities,PR.AT-2: Privileged users understand their roles and responsibilities ,2,,
PR.AT,Awareness and Training ,"Awareness and Training (PR.AT): The organization's personnel and partners are provided cybersecurity awareness education and are trained to perform their cybersecurity-related duties and responsibilities consistent with related policies, procedures, and agreements.",PR.AT-3,"Consultant, Contractor, Managed Services, Professional Service, service bureaus",,PROTECT,Third-party stakeholders understand their roles and responsibilities,"PR.AT-3: Third-party stakeholders (e.g., suppliers, customers, partners) understand their roles and responsibilities ",2,,
PR.AT,Awareness and Training ,"Awareness and Training (PR.AT): The organization's personnel and partners are provided cybersecurity awareness education and are trained to perform their cybersecurity-related duties and responsibilities consistent with related policies, procedures, and agreements.",PR.AT-4,"CISO, CTO, CIO, VP IT Security, VP IT, VP Information Technology, VP Software Engineering",,PROTECT,Senior executives understand their roles and responsibilities,PR.AT-4: Senior executives understand their roles and responsibilities ,2,,
PR.AT,Awareness and Training ,"Awareness and Training (PR.AT): The organization's personnel and partners are provided cybersecurity awareness education and are trained to perform their cybersecurity-related duties and responsibilities consistent with related policies, procedures, and agreements.",PR.AT-5,"SOC Manager, Security Director, SecOps Lead, Security Architect, SIEM Engineer, Security Device Engineer",,PROTECT,Security Users,PR.AT-5: Physical and cybersecurity personnel understand their roles and responsibilities ,2,,
PR.DS,Data Security,"Data Security (PR.DS): Information and records (data) are managed consistent with the organization's risk strategy to protect the confidentiality, integrity, and availability of information.",PR.DS-1,"Cloud Storage, NAS, Storage Device, Storage Array, Backup, VTL, Tape Drive, Databases","Host Based Data Loss Prevention (DLP) System,
Data Classification & Handling Policy,
Cryptographic Protections Policy",PROTECT,Data-at-rest is protected,PR.DS-1: Data-at-rest is protected,1,,
PR.DS,Data Security,"Data Security (PR.DS): Information and records (data) are managed consistent with the organization's risk strategy to protect the confidentiality, integrity, and availability of information.",PR.DS-2,"Business App, Middleware","System Configuration Enforcement System,
Data Classification & Handling Policy,
Cryptographic Protections Policy",PROTECT,Data-in-transit is protected,PR.DS-2: Data-in-transit is protected,1,,
PR.DS,Data Security,"Data Security (PR.DS): Information and records (data) are managed consistent with the organization's risk strategy to protect the confidentiality, integrity, and availability of information.",PR.DS-3,"IT Asset, Software, Digital Document, Print Media","Disposal Process,
Data Retention Policy",PROTECT,Data Disposal,"PR.DS-3: Assets are formally managed throughout removal, transfers, and disposition",1,,
PR.DS,Data Security,"Data Security (PR.DS): Information and records (data) are managed consistent with the organization's risk strategy to protect the confidentiality, integrity, and availability of information.",PR.DS-4,"Cloud Storage, NAS, Storage Device, Storage Array, Backup, VTL, Tape Drive, Local Storage, Capacity Planning Analyst","Capacity Planning process,
Capacity & Performance Planning Policy",PROTECT,Data Capacity,PR.DS-4: Adequate capacity to ensure availability is maintained,1,,
PR.DS,Data Security,"Data Security (PR.DS): Information and records (data) are managed consistent with the organization's risk strategy to protect the confidentiality, integrity, and availability of information.",PR.DS-5,"People, gateways, routers, guards, encrypted tunnels, firewall, Web Security, URL Filtering","Network Based Data Loss Prevention System, DLP",PROTECT,Data Leak Protection,PR.DS-5: Protections against data leaks are implemented,1,,
PR.DS,Data Security,"Data Security (PR.DS): Information and records (data) are managed consistent with the organization's risk strategy to protect the confidentiality, integrity, and availability of information.",PR.DS-6,Software,,PROTECT,Data Integrity Check,"PR.DS-6: Integrity checking mechanisms are used to verify software, firmware, and information integrity",2,,
PR.DS,Data Security,"Data Security (PR.DS): Information and records (data) are managed consistent with the organization's risk strategy to protect the confidentiality, integrity, and availability of information.",PR.DS-7,IT Asset,,PROTECT,Segregated Environments,PR.DS-7: The development and testing environment(s) are separate from the production environment,2,,
PR.DS,Data Security,"Data Security (PR.DS): Information and records (data) are managed consistent with the organization's risk strategy to protect the confidentiality, integrity, and availability of information.",PR.DS-8,IT Asset,,PROTECT,Hardware Integrity check,PR.DS-8: Integrity checking mechanisms are used to verify hardware integrity,2,,
PR.IP,Information Protection Processes and Procedures,"Information Protection Processes and Procedures (PR.IP): Security policies (that address purpose, scope, roles, responsibilities, management commitment, and coordination among organizational entities), processes, and procedures are maintained and used to manage protection of information systems and assets.",PR.IP-1,"IT Asset, Software","System Configuration Enforcement System,
Hardening Configuration Standards",PROTECT,Baseline Config,PR.IP-1: A baseline configuration of information technology/industrial control systems is created and maintained incorporating security principles (e.g. concept of least functionality),1,,
PR.IP,Information Protection Processes and Procedures,"Information Protection Processes and Procedures (PR.IP): Security policies (that address purpose, scope, roles, responsibilities, management commitment, and coordination among organizational entities), processes, and procedures are maintained and used to manage protection of information systems and assets.",PR.IP-2,"IT Asset, Software, Application",,PROTECT,SDLC,PR.IP-2: A System Development Life Cycle to manage systems is implemented,3,,
PR.IP,Information Protection Processes and Procedures,"Information Protection Processes and Procedures (PR.IP): Security policies (that address purpose, scope, roles, responsibilities, management commitment, and coordination among organizational entities), processes, and procedures are maintained and used to manage protection of information systems and assets.",PR.IP-3,"IT Asset, Software, Application",,PROTECT,Config Change Control,PR.IP-3: Configuration change control processes are in place,2,,
PR.IP,Information Protection Processes and Procedures,"Information Protection Processes and Procedures (PR.IP): Security policies (that address purpose, scope, roles, responsibilities, management commitment, and coordination among organizational entities), processes, and procedures are maintained and used to manage protection of information systems and assets.",PR.IP-4,"Application, IT Asset","Backup, Recovery System",PROTECT,Backups and Recovery,"PR.IP-4: Backups of information are conducted, maintained, and tested ",1,,
PR.IP,Information Protection Processes and Procedures,"Information Protection Processes and Procedures (PR.IP): Security policies (that address purpose, scope, roles, responsibilities, management commitment, and coordination among organizational entities), processes, and procedures are maintained and used to manage protection of information systems and assets.",PR.IP-5,IT Asset,,PROTECT,Assessments,PR.IP-5: Policy and regulations regarding the physical operating environment for organizational assets are met,3,,
PR.IP,Information Protection Processes and Procedures,"Information Protection Processes and Procedures (PR.IP): Security policies (that address purpose, scope, roles, responsibilities, management commitment, and coordination among organizational entities), processes, and procedures are maintained and used to manage protection of information systems and assets.",PR.IP-6,"Storage Array, NAS, Storage Device, Cloud Storage, Physical Server, Laptop, Desktop",,PROTECT,Data is destroyed according to policy,PR.IP-6: Data is destroyed according to policy,2,,
PR.IP,Information Protection Processes and Procedures,"Information Protection Processes and Procedures (PR.IP): Security policies (that address purpose, scope, roles, responsibilities, management commitment, and coordination among organizational entities), processes, and procedures are maintained and used to manage protection of information systems and assets.",PR.IP-7,"IT Asset, Application, Software","SLA's 
Annual Assessments",PROTECT,Protection processes are improved,PR.IP-7: Protection processes are continuously improved.,1,,
PR.IP,Information Protection Processes and Procedures,"Information Protection Processes and Procedures (PR.IP): Security policies (that address purpose, scope, roles, responsibilities, management commitment, and coordination among organizational entities), processes, and procedures are maintained and used to manage protection of information systems and assets.",PR.IP-8,"IT Asset, Application","PenTest, Security Compliance Assessment",PROTECT,Effectiveness of protection technologies is shared ,PR.IP-8: Effectiveness of protection technologies is shared. Results of annual security tests are shared with appropriate stakeholders. External stakeholders must be approved by the general counsel and CIO prior to report distribution.,1,,
PR.IP,Information Protection Processes and Procedures,"Information Protection Processes and Procedures (PR.IP): Security policies (that address purpose, scope, roles, responsibilities, management commitment, and coordination among organizational entities), processes, and procedures are maintained and used to manage protection of information systems and assets.",PR.IP-9,"Business App, Storage",,PROTECT,BC/DR Plans,PR.IP-9: Response plans (Incident Response and Business Continuity) and recovery plans (Incident Recovery and Disaster Recovery) are in place and managed,2,,
PR.IP,Information Protection Processes and Procedures,"Information Protection Processes and Procedures (PR.IP): Security policies (that address purpose, scope, roles, responsibilities, management commitment, and coordination among organizational entities), processes, and procedures are maintained and used to manage protection of information systems and assets.",PR.IP-10,"Business App, Storage",,PROTECT,BC/DR Tests,PR.IP-10: Response and recovery plans are tested,2,,
PR.IP,Information Protection Processes and Procedures,"Information Protection Processes and Procedures (PR.IP): Security policies (that address purpose, scope, roles, responsibilities, management commitment, and coordination among organizational entities), processes, and procedures are maintained and used to manage protection of information systems and assets.",PR.IP-11,People,Information Security Policy,PROTECT,HR Integration,"PR.IP-11: Cybersecurity is included in human resources practices (e.g., deprovisioning, personnel screening)",1,,
PR.IP,Information Protection Processes and Procedures,"Information Protection Processes and Procedures (PR.IP): Security policies (that address purpose, scope, roles, responsibilities, management commitment, and coordination among organizational entities), processes, and procedures are maintained and used to manage protection of information systems and assets.",PR.IP-12,"IT Asset, Application",Vulnerability Management plan,PROTECT,Vulnerability Management,PR.IP-12: A vulnerability management plan is developed and implemented,1,,
PR.MA,Maintenance,Maintenance (PR.MA): Maintenance and repairs of industrial control and information system components are performed consistent with policies and procedures.,PR.MA-1,"IT Asset, Application, Software",,PROTECT,Authorized Tools,"PR.MA-1: Maintenance and repair of organizational assets are performed and logged, with approved and controlled tools",2,,
PR.MA,Maintenance,Maintenance (PR.MA): Maintenance and repairs of industrial control and information system components are performed consistent with policies and procedures.,PR.MA-2,"IT Asset, Application, Software",,PROTECT,3rd Party Authorization,"PR.MA-2: Remote maintenance of organizational assets is approved, logged, and performed in a manner that prevents unauthorized access",2,,
PR.PT,Protective Technology,"Protective Technology (PR.PT): Technical security solutions are managed to ensure the security and resilience of systems and assets, consistent with related policies, procedures, and agreements.",PR.PT-1,"IT Asset, Application, Software","Active Device Discovery System,
Asset Inventory System,
Software Application Inventory,
Asset Inventory System, SIEM",PROTECT,Audit/Logging,"PR.PT-1: Audit/log records are determined, documented, implemented, and reviewed in accordance with policy",1,,
PR.PT,Protective Technology,"Protective Technology (PR.PT): Technical security solutions are managed to ensure the security and resilience of systems and assets, consistent with related policies, procedures, and agreements.",PR.PT-2,"Storage Array, NAS, Storage Device, Cloud Storage, Physical Server, Laptop, Desktop, Tape Drive, VTL","Endpoint Protection System, System Configuration Enforcement System",PROTECT,Removable Media,PR.PT-2: Removable media is protected and its use restricted according to policy,1,,
PR.PT,Protective Technology,"Protective Technology (PR.PT): Technical security solutions are managed to ensure the security and resilience of systems and assets, consistent with related policies, procedures, and agreements.",PR.PT-3,IT Asset,"System Configuration Enforcement System,
Hardening Configuration Standards",PROTECT,Least Functionality,PR.PT-3: The principle of least functionality is incorporated by configuring systems to provide only essential capabilities,1,,
PR.PT,Protective Technology,"Protective Technology (PR.PT): Technical security solutions are managed to ensure the security and resilience of systems and assets, consistent with related policies, procedures, and agreements.",PR.PT-4,"Firewall, Web Application Firewall, WAF, AP, Wireless Controller, Router","Network Device Management System,
Security Architecture",PROTECT,Communications and control networks are protected,PR.PT-4: Communications and control networks are protected,1,,
PR.PT,Protective Technology,"Protective Technology (PR.PT): Technical security solutions are managed to ensure the security and resilience of systems and assets, consistent with related policies, procedures, and agreements.",PR.PT-5,"Business App, Load Balancer, Storage Device, Cloud Storage",Network Design and Security Archtiecture,PROTECT,Resiliency mechanism implementation,"PR.PT-5: Mechanisms (e.g., failsafe, load balancing, hot swap) are implemented to achieve resilience requirements in normal and adverse situations",1,,
DE.AE,Anomalies and Events,Anomalies and Events (DE.AE): Anomalous activity is detected and the potential impact of events is understood.,DE.AE-1,"gateway, router, guard, encrypted tunnel, firewall","Network Device Management System,
Network Design and Security Archtiecture",DETECT,Baseline of network operations and data flow,DE.AE-1: A baseline of network operations and expected data flows for users and systems is established and managed,1,,
DE.AE,Anomalies and Events,Anomalies and Events (DE.AE): Anomalous activity is detected and the potential impact of events is understood.,DE.AE-2,"Threat, Vulnerability","Log Management System, SIEM
Security Monitoring Process,
SOC",DETECT,Event detection and analyzation,DE.AE-2: Detected events are analyzed to understand attack targets and methods,1,,
DE.AE,Anomalies and Events,Anomalies and Events (DE.AE): Anomalous activity is detected and the potential impact of events is understood.,DE.AE-3,Process,"Log Management System, SIEM",DETECT,Event data collection and correlation,DE.AE-3: Event data are collected and correlated from multiple sources and sensors,1,,
DE.AE,Anomalies and Events,Anomalies and Events (DE.AE): Anomalous activity is detected and the potential impact of events is understood.,DE.AE-4,Process,"Log Management System, SIEM,
Active Device Discovery System,
Asset Inventory System,
Software Application Inventory,
Asset Inventory System,
Resource Classification Process,
Risk Assessment System,
Risk Management Policy,",DETECT,Event impact determination,DE.AE-4: Impact of events is determined,1,,
DE.AE,Anomalies and Events,Anomalies and Events (DE.AE): Anomalous activity is detected and the potential impact of events is understood.,DE.AE-5,Process,"Log Management System, SIEM",DETECT,Event threshold management,DE.AE-5: Incident alert thresholds are established,1,,
DE.CM,Security Continuous Monitoring,Security Continuous Monitoring (DE.CM): The information system and assets are monitored to identify cybersecurity events and verify the effectiveness of protective measures.,DE.CM-1,Network Device,"
Log Management System, SIEM",DETECT,Network monitoring,DE.CM-1: The network is monitored to detect potential cybersecurity events,1,,
DE.CM,Security Continuous Monitoring,Security Continuous Monitoring (DE.CM): The information system and assets are monitored to identify cybersecurity events and verify the effectiveness of protective measures.,DE.CM-2,IT Asset,Review of  software  that manages access to DC / Review of Logs,DETECT,Physical environment monitoring,DE.CM-2: The physical environment is monitored to detect potential cybersecurity events,1,,
DE.CM,Security Continuous Monitoring,Security Continuous Monitoring (DE.CM): The information system and assets are monitored to identify cybersecurity events and verify the effectiveness of protective measures.,DE.CM-3,People,"Endpoint Protection System, Network URL Filtering System, Anti-Spam Gateway",DETECT,User activity monitoring,DE.CM-3: Personnel activity is monitored to detect potential cybersecurity events,1,,
DE.CM,Security Continuous Monitoring,Security Continuous Monitoring (DE.CM): The information system and assets are monitored to identify cybersecurity events and verify the effectiveness of protective measures.,DE.CM-4,"Physical Server, Virtual Server, Cloud Server, Desktop, Laptop, Phone",,DETECT,Malicious code is detected,DE.CM-4: Malicious code is detected,3,,
DE.CM,Security Continuous Monitoring,Security Continuous Monitoring (DE.CM): The information system and assets are monitored to identify cybersecurity events and verify the effectiveness of protective measures.,DE.CM-5,Phone,,DETECT,Unauthorized mobile code detection,DE.CM-5: Unauthorized mobile code is detected,3,,
DE.CM,Security Continuous Monitoring,Security Continuous Monitoring (DE.CM): The information system and assets are monitored to identify cybersecurity events and verify the effectiveness of protective measures.,DE.CM-6,"Service Provider, Consultant, Contractor, Managed Service","Threat Intelligence Feed,
Third Party Risk Management Process",DETECT,Service provider activity monitoring,DE.CM-6: External service provider activity is monitored to detect potential cybersecurity events,1,,
DE.CM,Security Continuous Monitoring,Security Continuous Monitoring (DE.CM): The information system and assets are monitored to identify cybersecurity events and verify the effectiveness of protective measures.,DE.CM-7,"IT Asset, People, Software","Network Device Management System
Log Management System, SIEM, End Point Protection",DETECT,Unauthorized activity monitoring,"DE.CM-7: Monitoring for unauthorized personnel, connections, devices, and software is performed",1,,
DE.CM,Security Continuous Monitoring,Security Continuous Monitoring (DE.CM): The information system and assets are monitored to identify cybersecurity events and verify the effectiveness of protective measures.,DE.CM-8,"IT Asset, Application",Vulnerability Management System,DETECT,Vulnerability scans are performed,DE.CM-8: Vulnerability scans are performed,1,,
DE.DP,Detection Processes,Detection Processes (DE.DP): Detection processes and procedures are maintained and tested to ensure awareness of anomalous events.,DE.DP-1,Process,"Vulnerability Management Process,
Vulnerability Patch Management Policy
",DETECT,Document Incident Response Roles and Responsibilities,DE.DP-1: Roles and responsibilities for detection are well defined to ensure accountability,1,,
DE.DP,Detection Processes,Detection Processes (DE.DP): Detection processes and procedures are maintained and tested to ensure awareness of anomalous events.,DE.DP-2,Process,"Threat Management Policy,
Security Operations Policy,
SOP's",DETECT,Dection Activity Compliance,DE.DP-2: Detection activities comply with all applicable requirements,1,,
DE.DP,Detection Processes,Detection Processes (DE.DP): Detection processes and procedures are maintained and tested to ensure awareness of anomalous events.,DE.DP-3,Process,"Threat Management Policy,
Security Operations Policy,
SOP's",DETECT,Detection Process Testing,DE.DP-3: Detection processes are tested,1,,
DE.DP,Detection Processes,Detection Processes (DE.DP): Detection processes and procedures are maintained and tested to ensure awareness of anomalous events.,DE.DP-4,Process,"Threat Management Policy,
Security Operations Policy,
SOP's",DETECT,Event Detection Communication,DE.DP-4: Event detection information is communicated,1,,
DE.DP,Detection Processes,Detection Processes (DE.DP): Detection processes and procedures are maintained and tested to ensure awareness of anomalous events.,DE.DP-5,Process,"Threat Management Policy,
Security Operations Policy,
SOP's",DETECT,Detection Process Improvement,DE.DP-5: Detection processes are continuously improved,1,,
RS.RP,Response Planning,"Response Planning (RS.RP): Response processes and procedures are executed and maintained, to ensure response to detected cybersecurity incidents.",RS.RP-1,Process,,RESPOND,Response Plan Execution,RS.RP-1: Response plan is executed during or after an incident,2,,
RS.CO,Communications,Communications (RS.CO): Response activities are coordinated with internal and external stakeholders (e.g. external support from law enforcement agencies).,RS.CO-1,Process,,RESPOND,Roles and Responsibility Understanding,RS.CO-1: Personnel know their roles and order of operations when a response is needed,2,,
RS.CO,Communications,Communications (RS.CO): Response activities are coordinated with internal and external stakeholders (e.g. external support from law enforcement agencies).,RS.CO-2,Process,,RESPOND,Incident Reporting,RS.CO-2: Incidents are reported consistent with established criteria,2,,
RS.CO,Communications,Communications (RS.CO): Response activities are coordinated with internal and external stakeholders (e.g. external support from law enforcement agencies).,RS.CO-3,Process,,RESPOND,Information Sharing,RS.CO-3: Information is shared consistent with response plans,2,,
RS.CO,Communications,Communications (RS.CO): Response activities are coordinated with internal and external stakeholders (e.g. external support from law enforcement agencies).,RS.CO-4,Process,,RESPOND,Response Plan Coordination,RS.CO-4: Coordination with stakeholders occurs consistent with response plans,2,,
RS.CO,Communications,Communications (RS.CO): Response activities are coordinated with internal and external stakeholders (e.g. external support from law enforcement agencies).,RS.CO-5,Process,,RESPOND,Information Sharing with External Stakeholders,RS.CO-5: Voluntary information sharing occurs with external stakeholders to achieve broader cybersecurity situational awareness ,2,,
RS.AN,Analysis,Analysis (RS.AN): Analysis is conducted to ensure effective response and support recovery activities.,RS.AN-1,Process,,RESPOND,Evemt Notification Investigation,RS.AN-1: Notifications from detection systems are investigatedĘ,2,,
RS.AN,Analysis,Analysis (RS.AN): Analysis is conducted to ensure effective response and support recovery activities.,RS.AN-2,Process,,RESPOND,Create Incident Scoring and Prioritization Schema,RS.AN-2: The impact of the incident is understood,2,,
RS.AN,Analysis,Analysis (RS.AN): Analysis is conducted to ensure effective response and support recovery activities.,RS.AN-3,Process,,RESPOND,Forensic Analysis,RS.AN-3: Forensics are performed,2,,
RS.AN,Analysis,Analysis (RS.AN): Analysis is conducted to ensure effective response and support recovery activities.,RS.AN-4,Process,,RESPOND,Incident Categorization,RS.AN-4: Incidents are categorized consistent with response plans,2,,
RS.AN,Analysis,Analysis (RS.AN): Analysis is conducted to ensure effective response and support recovery activities.,RS.AN-5,Process,,RESPOND,Establish a Process to Accept and Address Reports of Vulnerabilities,"RS.AN-5: Processes are established to receive, analyze and respond to vulnerabilities disclosed to the organization from internal and external sources (e.g. internal testing, security bulletins, or security researchers)",2,,
RS.MI,Mitigation,"Mitigation (RS.MI): Activities are performed to prevent expansion of an event, mitigate its effects, and resolve the incident.",RS.MI-1,Process,,RESPOND,Incident Containment,RS.MI-1: Incidents are contained,2,,
RS.MI,Mitigation,"Mitigation (RS.MI): Activities are performed to prevent expansion of an event, mitigate its effects, and resolve the incident.",RS.MI-2,Process,,RESPOND,Incident Mitigation,RS.MI-2: Incidents are mitigated,2,,
RS.MI,Mitigation,"Mitigation (RS.MI): Activities are performed to prevent expansion of an event, mitigate its effects, and resolve the incident.",RS.MI-3,Process,,RESPOND,Compare Back-to-back Vulnerability Scans,RS.MI-3: Newly identified vulnerabilities are mitigated or documented as accepted risks,2,,
RS.IM,Improvements,Improvements (RS.IM): Organizational response activities are improved by incorporating lessons learned from current and previous detection/response activities.,RS.IM-1,Process,,RESPOND,Response Plan Review,RS.IM-1: Response plans incorporate lessons learned,2,,
RS.IM,Improvements,Improvements (RS.IM): Organizational response activities are improved by incorporating lessons learned from current and previous detection/response activities.,RS.IM-2,Process,,RESPOND,Response Strategies Review,RS.IM-2: Response strategies are updated,2,,
RC.RP,Recovery Planning,Recovery Planning (RC.RP): Recovery processes and procedures are executed and maintained to ensure restoration of systems or assets affected by cybersecurity incidents.,RC.RP-1,Process,,RESPOND,Recovery plan is executed during or after a cybersecurity incident,RC.RP-1: Recovery plan is executed during or after a cybersecurity incident ,2,,
RC.IM,Improvements,Improvements (RC.IM): Recovery planning and processes are improved by incorporating lessons learned into future activities.,RC.IM-1,Process,,RECOVER,Recovery Plan Review,RC.IM-1: Recovery plans incorporate lessons learned,2,,
RC.IM,Improvements,Improvements (RC.IM): Recovery planning and processes are improved by incorporating lessons learned into future activities.,RC.IM-2,Process,,RECOVER,Recovery Strategy Review,RC.IM-2: Recovery strategies are updated,2,,
RC.CO,Communications,"Communications (RC.CO): Restoration activities are coordinated with internal and external parties (e.g.  coordinating centers, Internet Service Providers, owners of attacking systems, victims, other CSIRTs, and vendors).",RC.CO-1,Process,,RECOVER,External Communication Plan,RC.CO-1: Public relations are managed,2,,
RC.CO,Communications,"Communications (RC.CO): Restoration activities are coordinated with internal and external parties (e.g.  coordinating centers, Internet Service Providers, owners of attacking systems, victims, other CSIRTs, and vendors).",RC.CO-2,Process,,RECOVER,Reputaion PR Management,RC.CO-2: Reputation is repaired after an incident ,2,,
RC.CO,Communications,"Communications (RC.CO): Restoration activities are coordinated with internal and external parties (e.g.  coordinating centers, Internet Service Providers, owners of attacking systems, victims, other CSIRTs, and vendors).",RC.CO-3,Process,,RECOVER,Internal and External Stackholder Communication,RC.CO-3: Recovery activities are communicated to internal and external stakeholders as well as executive and management teams,2,,